iteration,objective value
0,13398517
1,13336254
2,13257778
3,13253190
4,13253190
5,13257353
6,13388402
7,13414527
8,13342119
9,13321092
10,13277792
11,13338311
12,13251338
13,13324950
14,13311514
15,13292179
16,13294185
17,13343967
18,13171941
19,13240106
20,13417310
21,13210037
22,13181443
23,13247151
24,13283474
25,13354492
26,13277379
27,13276116
28,13348855
29,13309713
30,13387649
31,13387649
32,13311592
33,13290286
34,13308223
35,13184304
36,13323122
37,13238703
38,13364586
39,13316394
40,13246390
41,13456545
42,13353189
43,13353189
44,13303947
45,13427176
46,13295018
47,13343363
48,13321016
49,13392791
50,13300865
51,13242790
52,13274557
53,13406525
54,13207126
55,13250063
56,13338734
57,13313262
58,13264310
59,13406012
60,13267655
61,13267655
62,13305552
63,13401551
64,13324309
65,13231981
66,13304260
67,13237782
68,13361183
69,13355857
70,13355857
71,13401747
72,13284627
73,13263326
74,13391522
75,13322926
76,13243616
77,13441033
78,13238468
79,13213987
80,13327422
81,13327422
82,13261805
83,13331471
84,13368048
85,13368048
86,13268881
87,13319604
88,13367140
89,13347819
90,13246133
91,13253211
92,13263110
93,13240504
94,13302382
95,13295365
96,13282068
97,13220680
98,13268406
99,13321446
100,13373271
101,13373271
102,13373271
103,13373271
104,13334418
105,13303947
106,13334734
107,13241859
108,13226448
109,13230253
110,13263160
111,13322413
112,13265162
113,13265162
114,13265162
115,13265162
116,13256300
117,13216456
118,13399767
119,13376889
120,13311158
121,13228897
122,13277883
123,13229690
124,13439078
125,13244976
126,13233393
127,13167662
128,13368339
129,13391249
130,13319955
131,13412268
132,13318478
133,13288074
134,13244050
135,13371238
136,13239567
137,13290677
138,13402415
139,13300796
140,13355337
141,13395457
142,13301924
143,13328277
144,13392233
145,13300764
146,13300869
147,13222955
148,13362573
149,13210061
150,13328278
151,13258612
152,13288932
153,13236798
154,13496672
155,13496672
156,13496672
157,13323468
158,13340698
159,13306532
160,13296932
161,13322961
162,13296172
163,13291819
164,13254512
165,13293485
166,13225890
167,13381147
168,13381147
169,13381147
170,13314392
171,13266886
172,13257890
173,13351871
174,13320025
175,13368116
176,13313909
177,13279569
178,13256982
179,13391325
180,13306587
181,13288059
182,13359878
183,13458215
184,13318729
185,13263011
186,13396994
187,13338664
188,13297067
189,13363766
190,13227546
191,13264399
192,13233945
193,13169173
194,13288562
195,13403702
196,13403702
197,13295852
198,13260324
199,13259917
200,13303325
201,13342218
202,13262569
203,13378717
204,13295391
205,13270264
206,13457164
207,13457164
208,13457164
209,13345261
210,13306132
211,13354511
212,13316034
213,13326990
214,13225357
215,13214623
216,13261172
217,13213305
218,13406743
219,13363681
220,13314999
221,13314999
222,13235210
223,13281516
224,13265556
225,13240733
226,13305910
227,13296992
228,13298664
229,13228629
230,13368667
231,13269348
232,13290956
233,13317214
234,13317214
235,13317214
236,13293665
237,13267237
238,13320885
239,13227230
240,13273922
241,13306822
242,13235138
243,13234943
244,13396155
245,13310077
246,13354602
247,13316759
248,13322890
249,13331489
250,13283349
251,13306067
252,13306067
253,13306067
254,13219899
255,13312095
256,13343215
257,13270873
258,13265740
259,13227319
260,13275400
261,13295474
262,13331294
263,13311837
264,13271171
265,13235950
266,13279330
267,13239328
268,13182542
269,13243062
270,13327998
271,13463657
272,13296932
273,13192175
274,13434503
275,13317382
276,13300674
277,13358129
278,13301205
279,13282573
280,13307347
281,13307347
282,13277416
283,13287311
284,13235775
285,13343877
286,13387282
287,13240734
288,13328253
289,13301237
290,13250350
291,13267672
292,13259381
293,13346258
294,13306840
295,13332068
296,13279286
297,13277868
298,13213645
299,13287753
300,13264367
301,13330886
302,13330886
303,13378630
304,13261850
305,13262506
306,13250257
307,13342890
308,13389908
309,13352993
310,13263874
311,13301341
312,13343287
313,13346362
314,13385305
315,13306771
316,13255801
317,13306771
318,13259801
319,13252374
320,13315290
321,13342186
322,13282142
323,13250215
324,13331489
325,13347912
326,13226439
327,13215558
328,13301201
329,13373527
330,13368568
331,13256870
332,13256870
333,13308226
334,13325007
335,13273481
336,13290526
337,13282255
338,13282255
339,13394815
340,13259553
341,13354263
342,13222986
343,13352164
344,13310768
345,13326489
346,13279403
347,13287294
348,13326522
349,13326522
350,13254812
351,13352320
352,13305208
353,13302179
354,13263629
355,13359831
356,13262643
357,13336368
358,13356451
359,13280382
360,13358234
361,13352851
362,13352851
363,13205101
364,13311003
365,13458609
366,13253456
367,13258025
368,13226827
369,13322081
370,13283628
371,13182196
372,13228899
373,13309944
374,13185091
375,13276429
376,13307266
377,13269491
378,13268511
379,13328133
380,13318079
381,13318419
382,13356928
383,13356928
384,13356928
385,13297077
386,13423915
387,13257750
388,13298193
389,13387682
390,13376445
391,13288331
392,13257215
393,13370754
394,13299087
395,13435292
396,13218689
397,13218689
398,13270120
399,13274430
400,13242399
401,13306658
402,13354173
403,13279411
404,13279411
405,13316750
406,13294096
407,13271110
408,13263731
409,13350463
410,13344957
411,13297045
412,13407751
413,13321898
414,13392739
415,13434073
416,13392739
417,13392739
418,13245447
419,13198610
420,13228161
421,13294237
422,13220331
423,13267752
424,13357500
425,13330788
426,13318718
427,13189685
428,13280881
429,13245298
430,13306389
431,13339747
432,13241252
433,13241252
434,13329872
435,13250750
436,13235038
437,13239957
438,13266016
439,13252131
440,13264416
441,13268250
442,13275218
443,13324950
444,13350881
445,13343392
446,13330942
447,13277868
448,13441033
449,13343287
450,13343287
451,13284479
452,13346445
453,13408172
454,13297686
455,13204505
456,13319955
457,13319955
458,13413029
459,13413029
460,13363766
461,13325518
462,13258976
463,13346281
464,13346281
465,13425620
466,13426932
467,13425620
468,13425620
469,13447240
470,13261511
471,13316750
472,13322907
473,13413709
474,13338786
475,13330850
476,13349144
477,13361445
478,13340186
479,13267150
480,13270230
481,13209413
482,13350624
483,13263160
484,13261292
485,13318229
486,13406599
487,13406599
488,13406599
489,13378630
490,13305863
491,13305863
492,13331922
493,13418490
494,13379097
495,13178759
496,13383358
497,13263222
498,13285234
499,13414518
500,13262133
501,13291803
502,13306118
503,13275982
504,13260587
505,13298923
506,13354048
507,13264889
508,13353565
509,13313211
510,13320266
511,13352879
512,13278349
513,13262420
514,13191222
515,13212562
516,13338734
517,13207173
518,13204777
519,13403069
520,13240504
521,13362307
522,13340580
523,13250038
524,13315178
525,13287468
526,13417381
527,13371569
528,13291464
529,13319042
530,13426914
531,13341695
532,13294161
533,13266204
534,13236841
535,13473482
536,13181462
537,13345261
538,13271134
539,13331989
540,13270782
541,13260125
542,13320478
543,13326861
544,13352629
545,13295556
546,13299508
547,13276738
548,13315763
549,13218896
550,13404041
551,13233999
552,13221412
553,13311125
554,13497192
555,13338310
556,13227497
557,13325016
558,13309837
559,13288999
560,13256405
561,13247815
562,13308807
563,13334347
564,13265237
565,13189666
566,13362422
567,13276309
568,13408452
569,13333947
570,13265731
571,13289947
572,13457231
573,13368965
574,13249235
575,13265350
576,13311139
577,13275496
578,13318856
579,13252842
580,13229892
581,13247551
582,13325951
583,13356857
584,13291913
585,13319419
586,13339059
587,13324249
588,13285193
589,13222420
590,13370309
591,13276865
592,13307266
593,13321761
594,13348944
595,13242227
596,13342870
597,13270006
598,13428689
599,13447240
600,13264573
601,13353189
602,13358743
603,13245117
604,13271787
605,13308626
606,13396921
607,13350343
608,13367252
609,13381845
610,13392663
611,13280535
612,13409605
613,13208890
614,13251588
615,13275574
616,13292875
617,13429766
618,13315549
619,13326505
620,13317804
621,13222138
622,13318284
623,13253434
624,13250863
625,13342890
626,13320152
627,13354602
628,13354602
629,13231177
630,13281242
631,13366243
632,13257089
633,13399678
634,13350173
635,13190655
636,13217822
637,13303082
638,13366146
639,13316533
640,13356377
641,13345899
642,13309914
643,13285848
644,13351579
645,13297972
646,13296378
647,13327074
648,13336623
649,13290346
650,13359249
651,13227845
652,13317813
653,13326794
654,13230863
655,13324110
656,13300927
657,13370871
658,13243081
659,13219451
660,13222968
661,13270161
662,13338128
663,13315527
664,13213721
665,13326847
666,13337172
667,13289988
668,13273412
669,13245875
670,13310755
671,13338095
672,13343607
673,13319432
674,13373172
675,13284426
676,13259025
677,13224351
678,13318648
679,13235492
680,13272389
681,13322496
682,13383203
683,13354369
684,13217270
685,13217270
686,13293942
687,13404773
688,13279823
689,13362064
690,13329774
691,13231586
692,13430762
693,13359907
694,13242213
695,13358548
696,13292527
697,13300768
698,13302652
699,13329971
700,13387578
701,13331504
702,13331504
703,13350539
704,13265725
705,13308077
706,13384932
707,13383434
708,13295299
709,13313833
710,13267051
711,13388144
712,13257911
713,13208082
714,13202817
715,13315397
716,13311064
717,13320478
718,13269610
719,13428259
720,13369412
721,13255866
722,13286008
723,13392236
724,13352164
725,13338734
726,13407437
727,13407437
728,13319836
729,13261660
730,13392739
731,13275304
732,13368124
733,13379323
734,13428929
735,13258958
736,13435736
737,13332819
738,13200340
739,13361275
740,13361275
741,13361275
742,13185622
743,13403188
744,13259056
745,13391182
746,13202624
747,13301051
748,13417310
749,13317787
750,13274713
751,13249780
752,13295181
753,13273186
754,13340550
755,13303903
756,13320885
757,13223916
758,13403844
759,13347819
760,13305838
761,13321184
762,13236525
763,13266908
764,13270356
765,13458271
766,13283121
767,13229531
768,13283557
769,13260352
770,13277876
771,13380253
772,13380253
773,13380253
774,13391325
775,13295468
776,13417602
777,13417602
778,13257425
779,13250080
780,13222178
781,13282317
782,13149863
783,13251175
784,13252365
785,13248872
786,13250156
787,13213848
788,13307588
789,13307588
790,13253242
791,13366436
792,13305910
793,13335794
794,13320762
795,13347187
796,13284142
797,13321091
798,13423915
799,13417004
800,13417004
801,13364146
802,13300116
803,13456545
804,13456545
805,13366436
806,13288565
807,13278648
808,13278648
809,13423915
810,13331294
811,13247813
812,13267061
813,13325757
814,13285150
815,13273983
816,13319224
817,13276757
818,13195420
819,13165545
820,13432502
821,13432502
822,13243449
823,13243449
824,13308822
825,13334409
826,13293120
827,13370754
828,13406758
829,13243047
830,13235037
831,13321092
832,13187183
833,13307588
834,13259895
835,13278572
836,13381568
837,13378641
838,13396921
839,13272560
840,13242147
841,13266886
842,13433701
843,13285061
844,13245408
845,13269498
846,13320695
847,13335569
848,13321072
849,13224868
850,13209036
851,13309213
852,13213221
853,13260114
854,13401551
855,13319604
856,13297236
857,13266401
858,13279954
859,13380560
860,13372182
861,13237874
862,13353332
863,13233218
864,13333401
865,13333401
866,13258025
867,13387578
868,13125720
869,13237842
870,13345261
871,13311943
872,13294241
873,13255257
874,13205675
875,13225702
876,13245353
877,13289878
878,13422659
879,13411720
880,13368795
881,13227702
882,13213013
883,13329587
884,13329587
885,13330799
886,13415324
887,13338917
888,13347912
889,13208003
890,13300213
891,13336287
892,13281345
893,13283595
894,13219199
895,13318746
896,13264059
897,13304506
898,13355178
899,13318904
900,13311012
901,13470953
902,13213060
903,13226185
904,13282440
905,13284029
906,13273202
907,13143168
908,13202293
909,13281685
910,13263517
911,13321995
912,13297342
913,13228732
914,13289185
915,13280280
916,13254480
917,13298664
918,13391325
919,13220235
920,13291586
921,13220023
922,13350662
923,13321019
924,13228490
925,13316336
926,13383789
927,13291690
928,13376486
929,13257912
930,13306338
931,13394582
932,13298680
933,13272182
934,13246959
935,13265119
936,13305628
937,13258958
938,13364129
939,13210642
940,13277081
941,13281019
942,13356225
943,13257892
944,13307077
945,13313201
946,13228686
947,13331449
948,13334662
949,13323426
950,13320694
951,13260390
952,13410139
953,13251127
954,13223284
955,13422115
956,13329790
957,13325663
958,13355765
959,13259932
960,13333050
961,13380394
962,13314455
963,13314455
964,13316979
965,13404517
966,13473708
967,13473708
968,13343215
969,13247373
970,13354988
971,13354988
972,13182444
973,13348944
974,13291382
975,13306771
976,13230208
977,13270779
978,13210264
979,13302474
980,13267265
981,13281456
982,13314473
983,13345559
984,13329134
985,13305109
986,13270692
987,13321761
988,13262447
989,13230671
990,13271471
991,13325757
992,13306826
993,13259575
994,13265571
995,13429634
996,13317703
997,13356384
998,13359077
999,13452724
1000,13326903
1001,13312095
1002,13342870
1003,13329692
1004,13324923
1005,13324923
1006,13312409
1007,13290247
1008,13266441
1009,13324631
1010,13363144
1011,13426589
1012,13285150
1013,13227271
1014,13375662
1015,13318091
1016,13509694
1017,13280100
1018,13282142
1019,13269655
1020,13209494
1021,13268534
1022,13227411
1023,13232179
1024,13196842
1025,13312899
1026,13335781
1027,13276226
1028,13184755
1029,13195707
1030,13287335
1031,13399645
1032,13332885
1033,13304795
1034,13327074
1035,13342691
1036,13298697
1037,13371125
1038,13234646
1039,13430885
1040,13343478
1041,13241226
1042,13322600
1043,13270338
1044,13350599
1045,13344390
1046,13325750
1047,13325750
1048,13392823
1049,13353211
1050,13351515
1051,13299719
1052,13280483
1053,13437488
1054,13258139
1055,13374947
1056,13324413
1057,13324413
1058,13249745
1059,13347186
1060,13234768
1061,13318091
1062,13358129
1063,13260074
1064,13305748
1065,13358129
1066,13285786
1067,13357500
1068,13333722
1069,13272656
1070,13401020
1071,13261202
1072,13439522
1073,13246099
1074,13325805
1075,13296373
1076,13238884
1077,13335107
1078,13242004
1079,13279016
1080,13427082
1081,13236141
1082,13282679
1083,13224811
1084,13341743
1085,13297236
1086,13297236
1087,13331044
1088,13316452
1089,13296367
1090,13256181
1091,13258587
1092,13416824
1093,13433089
1094,13287814
1095,13261628
1096,13331294
1097,13410785
1098,13222476
1099,13245293
1100,13289162
1101,13286813
1102,13238231
1103,13350103
1104,13350103
1105,13279493
1106,13242074
1107,13287901
1108,13296000
1109,13415213
1110,13322257
1111,13257632
1112,13235211
1113,13364687
1114,13277090
1115,13369336
1116,13334414
1117,13188245
1118,13216840
1119,13447240
1120,13297506
1121,13275821
1122,13314999
1123,13253076
1124,13259809
1125,13259809
1126,13244796
1127,13459399
1128,13459399
1129,13290223
1130,13408452
1131,13301430
1132,13301430
1133,13373527
1134,13321272
1135,13321272
1136,13275778
1137,13360211
1138,13333874
1139,13333874
1140,13301931
1141,13301931
1142,13337996
1143,13154089
1144,13313833
1145,13329347
1146,13338483
1147,13314648
1148,13311328
1149,13279755
1150,13238179
1151,13361485
1152,13327772
1153,13217087
1154,13360348
1155,13408330
1156,13279565
1157,13417644
1158,13315176
1159,13392739
1160,13392739
1161,13345134
1162,13345134
1163,13345134
1164,13357647
1165,13269156
1166,13411834
1167,13345261
1168,13267375
1169,13274209
1170,13395457
1171,13395457
1172,13182478
1173,13263826
1174,13340951
1175,13203586
1176,13244981
1177,13244981
1178,13272285
1179,13328267
1180,13204499
1181,13295018
1182,13216072
1183,13236544
1184,13222945
1185,13334699
1186,13297972
1187,13331507
1188,13347644
1189,13319821
1190,13272341
1191,13279348
1192,13245117
1193,13316540
1194,13281694
1195,13338640
1196,13352795
1197,13340445
1198,13279774
1199,13309669
1200,13350218
1201,13256517
1202,13308858
1203,13335015
1204,13264414
1205,13278713
1206,13278713
1207,13298636
1208,13298636
1209,13329343
1210,13329343
1211,13243184
1212,13345064
1213,13294678
1214,13321637
1215,13433701
1216,13355443
1217,13385229
1218,13414626
1219,13321279
1220,13461886
1221,13281372
1222,13355677
1223,13327087
1224,13354331
1225,13322000
1226,13395710
1227,13255862
1228,13285323
1229,13404042
1230,13357743
1231,13379097
1232,13378270
1233,13218942
1234,13350238
1235,13348601
1236,13266618
1237,13203555
1238,13366243
1239,13322221
1240,13218840
1241,13284496
1242,13272552
1243,13359710
1244,13348157
1245,13209413
1246,13320476
1247,13231516
1248,13256537
1249,13256537
1250,13403627
1251,13403627
1252,13249550
1253,13247531
1254,13217040
1255,13248413
1256,13389677
1257,13345688
1258,13250359
1259,13227266
1260,13250535
1261,13295237
1262,13280638
1263,13407437
1264,13380519
1265,13252520
1266,13297518
1267,13408725
1268,13361275
1269,13336526
1270,13275304
1271,13303983
1272,13384101
1273,13304506
1274,13368554
1275,13277379
1276,13331386
1277,13337771
1278,13294201
1279,13335321
1280,13240704
1281,13308964
1282,13269477
1283,13299080
1284,13271171
1285,13397214
1286,13338021
1287,13348944
1288,13368205
1289,13302474
1290,13280186
1291,13321588
1292,13200172
1293,13293094
1294,13229567
1295,13202316
1296,13234189
1297,13273658
1298,13443712
1299,13234574
1300,13256172
1301,13458271
1302,13458271
1303,13458271
1304,13281098
1305,13281098
1306,13295626
1307,13189208
1308,13225826
1309,13286166
1310,13285908
1311,13285908
1312,13232156
1313,13226510
1314,13265448
1315,13182164
1316,13322478
1317,13237026
1318,13212098
1319,13276651
1320,13276651
1321,13266860
1322,13269096
1323,13313909
1324,13331332
1325,13401525
1326,13380824
1327,13238002
1328,13406354
1329,13359303
1330,13407437
1331,13261762
1332,13341738
1333,13321279
1334,13306616
1335,13329790
1336,13296195
1337,13344658
1338,13234761
1339,13297921
1340,13290677
1341,13245757
1342,13313359
1343,13175713
1344,13270504
1345,13419993
1346,13284630
1347,13247208
1348,13321885
1349,13381294
1350,13263211
1351,13226712
1352,13317024
1353,13200413
1354,13287561
1355,13355550
1356,13355550
1357,13301341
1358,13305140
1359,13297236
1360,13416824
1361,13234111
1362,13271660
1363,13318419
1364,13254520
1365,13293196
1366,13287746
1367,13287018
1368,13287018
1369,13270247
1370,13259175
1371,13238261
1372,13340229
1373,13342449
1374,13338365
1375,13239222
1376,13301827
1377,13380730
1378,13285713
1379,13323167
1380,13283288
1381,13262625
1382,13193981
1383,13487268
1384,13362504
1385,13389984
1386,13330781
1387,13286864
1388,13208162
1389,13230077
1390,13224781
1391,13250645
1392,13194213
1393,13336615
1394,13291465
1395,13406758
1396,13262073
1397,13371238
1398,13305393
1399,13302382
1400,13195554
1401,13274742
1402,13263367
1403,13342097
1404,13371238
1405,13129565
1406,13305643
1407,13309680
1408,13259196
1409,13229478
1410,13343928
1411,13246305
1412,13329511
1413,13329511
1414,13268881
1415,13255072
1416,13163651
1417,13373563
1418,13373563
1419,13349254
1420,13291093
1421,13296369
1422,13368205
1423,13293910
1424,13350662
1425,13283288
1426,13320468
1427,13273983
1428,13303294
1429,13363120
1430,13374205
1431,13251613
1432,13170387
1433,13265543
1434,13251613
1435,13408452
1436,13318147
1437,13243623
1438,13222073
1439,13319822
1440,13352320
1441,13280631
1442,13320818
1443,13292527
1444,13231264
1445,13319604
1446,13262628
1447,13325592
1448,13274847
1449,13268365
1450,13366771
1451,13313596
1452,13318951
1453,13295392
1454,13340448
1455,13333039
1456,13344568
1457,13336087
1458,13336087
1459,13265710
1460,13213327
1461,13359710
1462,13275420
1463,13375302
1464,13193274
1465,13419041
1466,13336742
1467,13279706
1468,13378270
1469,13378270
1470,13408725
1471,13308717
1472,13238311
1473,13344443
1474,13295099
1475,13315949
1476,13334418
1477,13301698
1478,13343447
1479,13329587
1480,13335589
1481,13284029
1482,13430762
1483,13300865
1484,13189665
1485,13289802
1486,13301552
1487,13211383
1488,13274883
1489,13425394
1490,13425394
1491,13347969
1492,13299719
1493,13271612
1494,13185569
1495,13401525
1496,13285754
1497,13264665
1498,13302421
1499,13251939
1500,13204782
1501,13271937
1502,13223042
1503,13357223
1504,13289866
1505,13371012
1506,13256376
1507,13330799
1508,13222780
1509,13398823
1510,13375411
1511,13328133
1512,13338572
1513,13374842
1514,13277416
1515,13307077
1516,13332397
1517,13332397
1518,13332397
1519,13370064
1520,13310015
1521,13249860
1522,13249860
1523,13379346
1524,13326334
1525,13331507
1526,13376198
1527,13421537
1528,13343477
1529,13320025
1530,13219340
1531,13275236
1532,13275236
1533,13275236
1534,13325451
1535,13197041
1536,13217703
1537,13231775
1538,13418871
1539,13312239
1540,13328823
1541,13290956
1542,13248473
1543,13234156
1544,13348824
1545,13340580
1546,13343874
1547,13282578
1548,13313135
1549,13313135
1550,13313135
1551,13298217
1552,13298217
1553,13298217
1554,13254521
1555,13333474
1556,13291155
1557,13336727
1558,13377970
1559,13273369
1560,13377970
1561,13294706
1562,13271851
1563,13368037
1564,13259880
1565,13239490
1566,13268128
1567,13342449
1568,13221920
1569,13366497
1570,13264509
1571,13327219
1572,13325394
1573,13244030
1574,13215928
1575,13258431
1576,13327373
1577,13241111
1578,13314011
1579,13328603
1580,13402412
1581,13402412
1582,13332746
1583,13223066
1584,13325681
1585,13306665
1586,13310970
1587,13331317
1588,13331317
1589,13245670
1590,13406354
1591,13312333
1592,13312333
1593,13183098
1594,13297406
1595,13353199
1596,13268689
1597,13302266
1598,13302266
1599,13381334
1600,13291373
1601,13260784
1602,13311653
1603,13281440
1604,13410336
1605,13340186
1606,13336985
1607,13295368
1608,13290918
1609,13290918
1610,13213221
1611,13279041
1612,13279041
1613,13321196
1614,13439078
1615,13257501
1616,13271262
1617,13234769
1618,13358624
1619,13221492
1620,13260307
1621,13366243
1622,13289869
1623,13305161
1624,13228574
1625,13361485
1626,13272029
1627,13358548
1628,13301230
1629,13367252
1630,13217207
1631,13279415
1632,13252861
1633,13247535
1634,13380636
1635,13364257
1636,13324336
1637,13318962
1638,13241020
1639,13241020
1640,13226102
1641,13406857
1642,13373775
1643,13305161
1644,13220324
1645,13292655
1646,13323326
1647,13344390
1648,13344390
1649,13378140
1650,13378140
1651,13249825
1652,13306341
1653,13340637
1654,13392739
1655,13323898
1656,13352836
1657,13327163
1658,13299387
1659,13254699
1660,13321459
1661,13215709
1662,13257487
1663,13322907
1664,13281255
1665,13281255
1666,13333092
1667,13370401
1668,13340908
1669,13404117
1670,13330943
1671,13260124
1672,13326489
1673,13320455
1674,13259110
1675,13289358
1676,13380504
1677,13303681
1678,13310755
1679,13366914
1680,13290593
1681,13325473
1682,13325473
1683,13361450
1684,13168414
1685,13266154
1686,13266154
1687,13338539
1688,13340968
1689,13257162
1690,13256181
1691,13371749
1692,13302477
1693,13371749
1694,13321512
1695,13321512
1696,13321512
1697,13303234
1698,13331203
1699,13337338
1700,13417644
1701,13455943
1702,13363144
1703,13230788
1704,13336332
1705,13253843
1706,13397220
1707,13385958
1708,13415886
1709,13368597
1710,13339984
1711,13408172
1712,13336688
1713,13306771
1714,13293196
1715,13225189
1716,13235643
1717,13334877
1718,13273204
1719,13264377
1720,13327073
1721,13264377
1722,13231425
1723,13222557
1724,13309429
1725,13401031
1726,13282644
1727,13254109
1728,13260701
1729,13327843
1730,13327843
1731,13237322
1732,13360312
1733,13300418
1734,13353852
1735,13325162
1736,13219021
1737,13370871
1738,13370871
1739,13407562
1740,13370871
1741,13348016
1742,13348016
1743,13348016
1744,13274053
1745,13196874
1746,13338344
1747,13345688
1748,13415225
1749,13336284
1750,13294817
1751,13401747
1752,13225418
1753,13270718
1754,13363144
1755,13363144
1756,13287529
1757,13287529
1758,13359818
1759,13353346
1760,13391769
1761,13290556
1762,13245750
1763,13314354
1764,13314354
1765,13321538
1766,13254895
1767,13280761
1768,13303939
1769,13270730
1770,13290190
1771,13207549
1772,13208925
1773,13221996
1774,13368441
1775,13219650
1776,13307182
1777,13324631
1778,13294322
1779,13359802
1780,13330098
1781,13264151
1782,13386042
1783,13274695
1784,13253901
1785,13323569
1786,13311425
1787,13360749
1788,13214366
1789,13337771
1790,13319899
1791,13298333
1792,13212756
1793,13242755
1794,13330856
1795,13311589
1796,13269498
1797,13238628
1798,13384607
1799,13238628
1800,13313833
1801,13313833
1802,13299547
1803,13266941
1804,13301124
1805,13273338
1806,13333403
1807,13248832
1808,13359932
1809,13332297
1810,13202250
1811,13320455
1812,13312713
1813,13354369
1814,13315567
1815,13364687
1816,13257043
1817,13355443
1818,13355443
1819,13311355
1820,13351508
1821,13255257
1822,13350523
1823,13231505
1824,13350523
1825,13340328
1826,13270746
1827,13326325
1828,13230863
1829,13330098
1830,13403816
1831,13310706
1832,13305147
1833,13359041
1834,13319419
1835,13305223
1836,13287378
1837,13283624
1838,13266345
1839,13405311
1840,13310542
1841,13248962
1842,13275888
1843,13252443
1844,13433625
1845,13363959
1846,13433625
1847,13288572
1848,13359068
1849,13344575
1850,13356377
1851,13338885
1852,13307730
1853,13245464
1854,13333039
1855,13294706
1856,13405786
1857,13294706
1858,13365340
1859,13375162
1860,13375162
1861,13242006
1862,13270929
1863,13203044
1864,13236983
1865,13234699
1866,13266860
1867,13334877
1868,13253585
1869,13260146
1870,13253585
1871,13253585
1872,13348231
1873,13328951
1874,13180439
1875,13282573
1876,13436707
1877,13424248
1878,13292753
1879,13334016
1880,13334016
1881,13334016
1882,13310853
1883,13318648
1884,13179807
1885,13356038
1886,13236444
1887,13328209
1888,13327917
1889,13340328
1890,13283326
1891,13284472
1892,13216949
1893,13273865
1894,13278505
1895,13233999
1896,13216104
1897,13309435
1898,13309435
1899,13333914
1900,13274717
1901,13293406
1902,13233109
1903,13302480
1904,13305130
1905,13266116
1906,13262525
1907,13289869
1908,13279131
1909,13368328
1910,13415655
1911,13250258
1912,13277720
1913,13313833
1914,13355933
1915,13244981
1916,13273481
1917,13382928
1918,13340248
1919,13250197
1920,13362582
1921,13305628
1922,13306670
1923,13246953
1924,13276012
1925,13232640
1926,13328289
1927,13363766
1928,13354492
1929,13351579
1930,13230702
1931,13425620
1932,13285327
1933,13180231
1934,13406350
1935,13340968
1936,13425198
1937,13242597
1938,13322170
1939,13326489
1940,13249728
1941,13294248
1942,13258900
1943,13294201
1944,13294201
1945,13349708
1946,13349708
1947,13268355
1948,13292887
1949,13319804
1950,13231552
1951,13376889
1952,13279717
1953,13270520
1954,13298613
1955,13323468
1956,13314811
1957,13314455
1958,13280192
1959,13300927
1960,13290190
1961,13316499
1962,13439002
1963,13272672
1964,13238218
1965,13214366
1966,13356384
1967,13299659
1968,13358703
1969,13325804
1970,13325804
1971,13292753
1972,13241535
1973,13282476
1974,13326937
1975,13283134
1976,13261488
1977,13287993
1978,13398248
1979,13403684
1980,13256687
1981,13455943
1982,13224183
1983,13275191
1984,13250248
1985,13437564
1986,13291917
1987,13377846
1988,13257165
1989,13255845
1990,13311078
1991,13305407
1992,13305407
1993,13392823
1994,13321995
1995,13371569
1996,13371569
1997,13233887
1998,13349202
1999,13259692
2000,13242895
2001,13368124
2002,13374699
2003,13354262
2004,13446143
2005,13385229
2006,13306665
2007,13460973
2008,13456463
2009,13251736
2010,13343967
2011,13382832
2012,13310535
2013,13266905
2014,13337303
2015,13268873
2016,13279080
2017,13269317
2018,13337303
2019,13250750
2020,13198168
2021,13380394
2022,13380394
2023,13325430
2024,13321459
2025,13255188
2026,13403844
2027,13242873
2028,13345559
2029,13283123
2030,13216585
2031,13191214
2032,13306891
2033,13436679
2034,13402415
2035,13402415
2036,13402415
2037,13248353
2038,13426950
2039,13305004
2040,13254338
2041,13456644
2042,13303903
2043,13206865
2044,13333039
2045,13271199
2046,13339984
2047,13262704
2048,13333039
2049,13333039
2050,13229118
2051,13338483
2052,13307755
2053,13318256
2054,13302615
2055,13324689
2056,13277578
2057,13324535
2058,13359792
2059,13241418
2060,13305552
2061,13257655
2062,13324479
2063,13428183
2064,13213000
2065,13213848
2066,13359979
2067,13218200
2068,13240555
2069,13313982
2070,13203452
2071,13243076
2072,13329381
2073,13332885
2074,13449526
2075,13276182
2076,13322570
2077,13257692
2078,13243095
2079,13313552
2080,13268111
2081,13371989
2082,13353470
2083,13266840
2084,13268355
2085,13289802
2086,13286369
2087,13351338
2088,13325306
2089,13371673
2090,13276667
2091,13279121
2092,13246769
2093,13265563
2094,13322808
2095,13302290
2096,13297670
2097,13294827
2098,13295937
2099,13358593
2100,13316558
2101,13361006
2102,13294161
2103,13283941
2104,13357248
2105,13255640
2106,13279730
2107,13353218
2108,13296770
2109,13348854
2110,13347651
2111,13352922
2112,13253097
2113,13301011
2114,13341312
2115,13245861
2116,13320455
2117,13320455
2118,13407562
2119,13407562
2120,13256870
2121,13327328
2122,13287814
2123,13187640
2124,13307486
2125,13281624
2126,13396834
2127,13289162
2128,13289162
2129,13340723
2130,13311786
2131,13221651
2132,13295392
2133,13398823
2134,13336788
2135,13305393
2136,13286556
2137,13352596
2138,13354550
2139,13334662
2140,13306389
2141,13195398
2142,13261894
2143,13242931
2144,13235284
2145,13263827
2146,13297089
2147,13236700
2148,13285115
2149,13297990
2150,13261860
2151,13313638
2152,13374336
2153,13322966
2154,13403254
2155,13415324
2156,13252955
2157,13268247
2158,13293228
2159,13187022
2160,13228331
2161,13388943
2162,13275558
2163,13275558
2164,13255072
2165,13324738
2166,13268937
2167,13243886
2168,13261651
2169,13343392
2170,13402060
2171,13376889
2172,13406850
2173,13265710
2174,13315549
2175,13466762
2176,13501943
2177,13401031
2178,13434073
2179,13260621
2180,13312409
2181,13312409
2182,13277157
2183,13228171
2184,13225075
2185,13406599
2186,13391522
2187,13265426
2188,13232415
2189,13272460
2190,13280808
2191,13410688
2192,13175749
2193,13415225
2194,13283481
2195,13287388
2196,13266702
2197,13250528
2198,13328724
2199,13192869
2200,13325647
2201,13196617
2202,13365880
2203,13277835
2204,13257436
2205,13312115
2206,13271539
2207,13208963
2208,13193667
2209,13328942
2210,13240745
2211,13235523
2212,13270690
2213,13342821
2214,13353724
2215,13234066
2216,13258470
2217,13380380
2218,13351402
2219,13212581
2220,13243386
2221,13271943
2222,13203797
2223,13240918
2224,13286865
2225,13315416
2226,13236274
2227,13253434
2228,13278679
2229,13237703
2230,13316394
2231,13299719
2232,13299719
2233,13299719
2234,13237696
2235,13308924
2236,13323266
2237,13370976
2238,13339933
2239,13311048
2240,13336785
2241,13242665
2242,13272516
2243,13251292
2244,13274265
2245,13313852
2246,13392823
2247,13233341
2248,13220301
2249,13315549
2250,13350539
2251,13315549
2252,13247874
2253,13351366
2254,13306842
2255,13383259
2256,13383259
2257,13383259
2258,13383259
2259,13309703
2260,13411976
2261,13248625
2262,13211576
2263,13311782
2264,13311782
2265,13227622
2266,13283932
2267,13276528
2268,13298396
2269,13284630
2270,13254404
2271,13362504
2272,13219721
2273,13260848
2274,13309944
2275,13216328
2276,13291464
2277,13216417
2278,13267323
2279,13157010
2280,13208546
2281,13356857
2282,13213000
2283,13285935
2284,13271471
2285,13377880
2286,13289997
2287,13378057
2288,13294191
2289,13252151
2290,13287738
2291,13336826
2292,13276711
2293,13308130
2294,13217192
2295,13389824
2296,13347262
2297,13351871
2298,13255329
2299,13177110
2300,13282954
2301,13211992
2302,13269429
2303,13275073
2304,13195951
2305,13312937
2306,13162017
2307,13301445
2308,13275420
2309,13274695
2310,13340445
2311,13220269
2312,13382652
2313,13382652
2314,13328278
2315,13254327
2316,13284939
2317,13369716
2318,13300154
2319,13308266
2320,13308266
2321,13347790
2322,13347790
2323,13257820
2324,13425198
2325,13361598
2326,13247731
2327,13416130
2328,13416130
2329,13313596
2330,13325446
2331,13243680
2332,13410336
2333,13274215
2334,13259381
2335,13327843
2336,13439522
2337,13261100
2338,13310713
2339,13465867
2340,13266115
2341,13397438
2342,13293910
2343,13228004
2344,13274016
2345,13272113
2346,13305444
2347,13320387
2348,13256055
2349,13286207
2350,13390037
2351,13263024
2352,13274016
2353,13265743
2354,13371569
2355,13196681
2356,13346445
2357,13241000
2358,13310454
2359,13291517
2360,13265236
2361,13241848
2362,13330031
2363,13329692
2364,13198471
2365,13225927
2366,13406525
2367,13332451
2368,13290126
2369,13200150
2370,13250575
2371,13340794
2372,13238524
2373,13252006
2374,13267226
2375,13332957
2376,13383434
2377,13236168
2378,13305534
2379,13350113
2380,13305534
2381,13236163
2382,13284618
2383,13258600
2384,13245713
2385,13259890
2386,13201924
2387,13252749
2388,13401985
2389,13319120
2390,13249766
2391,13333874
2392,13280844
2393,13347076
2394,13171086
2395,13234880
2396,13415886
2397,13180190
2398,13427008
2399,13340445
2400,13324267
2401,13277576
2402,13264189
2403,13339543
2404,13249540
2405,13243273
2406,13462565
2407,13240315
2408,13429690
2409,13429690
2410,13429690
2411,13292179
2412,13260813
2413,13293771
2414,13421675
2415,13341312
2416,13308928
2417,13286856
2418,13249339
2419,13291104
2420,13329121
2421,13346521
2422,13337338
2423,13270081
2424,13417602
2425,13290171
2426,13290171
2427,13342821
2428,13349892
2429,13340248
2430,13314537
2431,13518963
2432,13252973
2433,13305477
2434,13242596
2435,13308924
2436,13265681
2437,13179781
2438,13345772
2439,13390040
2440,13390040
2441,13390040
2442,13324309
2443,13281456
2444,13210309
2445,13290346
2446,13509694
2447,13437994
2448,13231708
2449,13265451
2450,13270611
2451,13218924
2452,13231010
2453,13213557
2454,13402758
2455,13262334
2456,13282054
2457,13311012
2458,13348267
2459,13346689
2460,13346689
2461,13379346
2462,13310714
2463,13368152
2464,13256217
2465,13325750
2466,13349129
2467,13287308
2468,13247817
2469,13345773
2470,13240607
2471,13334414
2472,13334414
2473,13273539
2474,13303861
2475,13181723
2476,13409018
2477,13402096
2478,13245183
2479,13358624
2480,13334309
2481,13313166
2482,13439002
2483,13272612
2484,13258459
2485,13392236
2486,13311524
2487,13406743
2488,13353916
2489,13253399
2490,13261190
2491,13377880
2492,13391522
2493,13178768
2494,13288234
2495,13334261
2496,13398125
2497,13292641
2498,13336251
2499,13336376
2500,13258612
2501,13262187
2502,13279041
2503,13111599
2504,13183617
2505,13349892
2506,13354474
2507,13278276
2508,13380504
2509,13209039
2510,13254488
2511,13294691
2512,13351904
2513,13299339
2514,13204743
2515,13300930
2516,13272160
2517,13342218
2518,13303594
2519,13303594
2520,13379098
2521,13359693
2522,13262808
2523,13396498
2524,13328178
2525,13283134
2526,13273008
2527,13224757
2528,13403264
2529,13398069
2530,13379182
2531,13306181
2532,13309772
2533,13411290
2534,13438107
2535,13264367
2536,13341738
2537,13408983
2538,13280489
2539,13363959
2540,13282644
2541,13192989
2542,13267450
2543,13307266
2544,13240641
2545,13223819
2546,13396834
2547,13255777
2548,13259251
2549,13288074
2550,13269329
2551,13287898
2552,13216417
2553,13335096
2554,13321272
2555,13213221
2556,13262364
2557,13346281
2558,13293228
2559,13285083
2560,13272377
2561,13272377
2562,13413543
2563,13346612
2564,13311125
2565,13285094
2566,13241109
2567,13202160
2568,13324553
2569,13287918
2570,13280631
2571,13346011
2572,13262496
2573,13404773
2574,13284308
2575,13211400
2576,13196580
2577,13295467
2578,13215445
2579,13466762
2580,13189553
2581,13267670
2582,13327833
2583,13241091
2584,13413354
2585,13413354
2586,13189822
2587,13358743
2588,13282001
2589,13232085
2590,13232573
2591,13285193
2592,13336332
2593,13283665
2594,13308236
2595,13349737
2596,13264199
2597,13307088
2598,13370365
2599,13370795
2600,13411855
2601,13380730
2602,13385630
2603,13268511
2604,13426914
2605,13250383
2606,13275574
2607,13276620
2608,13355337
2609,13321184
2610,13310374
2611,13266817
2612,13332338
2613,13233768
2614,13251496
2615,13358851
2616,13215591
2617,13310853
2618,13307046
2619,13215066
2620,13316554
2621,13231288
2622,13312731
2623,13268556
2624,13226197
2625,13374375
2626,13323066
2627,13196425
2628,13325663
2629,13418920
2630,13256789
2631,13463979
2632,13323228
2633,13418384
2634,13244710
2635,13299809
2636,13340412
2637,13340412
2638,13496748
2639,13496748
2640,13319054
2641,13219807
2642,13237085
2643,13413543
2644,13473903
2645,13288565
2646,13310286
2647,13302723
2648,13254395
2649,13469034
2650,13321588
2651,13345592
2652,13342119
2653,13382230
2654,13349945
2655,13282757
2656,13300848
2657,13284142
2658,13358548
2659,13323055
2660,13233434
2661,13263619
2662,13318648
2663,13311222
2664,13360305
2665,13379866
2666,13284665
2667,13377182
2668,13302532
2669,13359209
2670,13326993
2671,13326993
2672,13312239
2673,13313295
2674,13347651
2675,13226273
2676,13330316
2677,13255960
2678,13252155
2679,13157072
2680,13277829
2681,13234066
2682,13348854
2683,13262546
2684,13303861
2685,13290659
2686,13335794
2687,13319183
2688,13319183
2689,13282426
2690,13318147
2691,13301667
2692,13295804
2693,13334418
2694,13266464
2695,13223545
2696,13224976
2697,13362347
2698,13298597
2699,13303249
2700,13365537
2701,13462565
2702,13415225
2703,13471517
2704,13264611
2705,13306623
2706,13267150
2707,13318746
2708,13464598
2709,13389244
2710,13236327
2711,13359711
2712,13243919
2713,13224257
2714,13265211
2715,13359815
2716,13318746
2717,13256765
2718,13239146
2719,13371367
2720,13253065
2721,13413220
2722,13210614
2723,13353354
2724,13371238
2725,13264942
2726,13350599
2727,13456720
2728,13316766
2729,13221909
2730,13200658
2731,13222121
2732,13234029
2733,13303947
2734,13330324
2735,13307486
2736,13212975
2737,13220948
2738,13440957
2739,13202973
2740,13214676
2741,13291359
2742,13302275
2743,13269838
2744,13302382
2745,13302382
2746,13386993
2747,13293980
2748,13308281
2749,13304453
2750,13320318
2751,13226575
2752,13305474
2753,13374336
2754,13347912
2755,13347912
2756,13292886
2757,13338344
2758,13250185
2759,13387616
2760,13291360
2761,13346743
2762,13272808
2763,13230253
2764,13351579
2765,13356375
2766,13356375
2767,13356375
2768,13320394
2769,13399413
2770,13353332
2771,13353332
2772,13353332
2773,13226827
2774,13312695
2775,13296595
2776,13282563
2777,13314113
2778,13358129
2779,13358129
2780,13348824
2781,13299898
2782,13265713
2783,13334601
2784,13431111
2785,13258194
2786,13326071
2787,13313049
2788,13313621
2789,13245783
2790,13350474
2791,13271959
2792,13359552
2793,13218950
2794,13369011
2795,13286856
2796,13379258
2797,13309837
2798,13200546
2799,13299517
2800,13337822
2801,13337822
2802,13320818
2803,13316766
2804,13314487
2805,13170562
2806,13377418
2807,13298791
2808,13282255
2809,13324723
2810,13235642
2811,13314208
2812,13303064
2813,13306751
2814,13233112
2815,13203665
2816,13329692
2817,13351847
2818,13249186
2819,13230026
2820,13312564
2821,13337862
2822,13365385
2823,13267319
2824,13390738
2825,13131477
2826,13366240
2827,13275782
2828,13263367
2829,13521334
2830,13210969
2831,13370795
2832,13315529
2833,13255338
2834,13197448
2835,13396068
2836,13303464
2837,13327219
2838,13319346
2839,13336597
2840,13282563
2841,13276012
2842,13434059
2843,13304834
2844,13282155
2845,13302290
2846,13241346
2847,13241346
2848,13428915
2849,13524340
2850,13524340
2851,13307516
2852,13402758
2853,13296369
2854,13374122
2855,13256589
2856,13352100
2857,13354693
2858,13358851
2859,13319593
2860,13309873
2861,13323055
2862,13295209
2863,13424248
2864,13419839
2865,13350810
2866,13319187
2867,13359549
2868,13361503
2869,13363667
2870,13220384
2871,13368597
2872,13292148
2873,13348944
2874,13329616
2875,13302723
2876,13420065
2877,13254885
2878,13288532
2879,13353278
2880,13200732
2881,13224795
2882,13206499
2883,13260704
2884,13343688
2885,13343688
2886,13236327
2887,13327843
2888,13457089
2889,13377981
2890,13316766
2891,13352009
2892,13227411
2893,13194265
2894,13300930
2895,13276865
2896,13297219
2897,13297219
2898,13265480
2899,13317197
2900,13318762
2901,13255997
2902,13361405
2903,13191124
2904,13213317
2905,13376557
2906,13246959
2907,13333914
2908,13215920
2909,13272654
2910,13319865
2911,13246325
2912,13340445
2913,13377517
2914,13246325
2915,13324110
2916,13272808
2917,13231236
2918,13233386
2919,13184463
2920,13286898
2921,13265426
2922,13236558
2923,13238311
2924,13373775
2925,13280168
2926,13216434
2927,13213937
2928,13283782
2929,13283782
2930,13366858
2931,13319746
2932,13317627
2933,13334409
2934,13334409
2935,13334409
2936,13388314
2937,13266271
2938,13287529
2939,13163385
2940,13328267
2941,13236735
2942,13385615
2943,13302480
2944,13429598
2945,13427008
2946,13334531
2947,13367140
2948,13285150
2949,13320300
2950,13229181
2951,13276437
2952,13456545
2953,13380380
2954,13327328
2955,13429634
2956,13364826
2957,13364826
2958,13209330
2959,13398933
2960,13307486
2961,13266191
2962,13245030
2963,13341913
2964,13248694
2965,13406599
2966,13331989
2967,13239965
2968,13387649
2969,13323551
2970,13347092
2971,13482886
2972,13237688
2973,13372140
2974,13252727
2975,13282070
2976,13357299
2977,13254404
2978,13326993
2979,13301936
2980,13275322
2981,13243575
2982,13396155
2983,13347819
2984,13338196
2985,13302474
2986,13326993
2987,13189597
2988,13315622
2989,13244342
2990,13242722
2991,13238459
2992,13311125
2993,13284476
2994,13168514
2995,13370535
2996,13325645
2997,13320885
2998,13406012
2999,13320885
3000,13274075
3001,13231336
3002,13269232
3003,13217308
3004,13330864
3005,13301192
3006,13340412
3007,13413962
3008,13384431
3009,13325430
3010,13366822
3011,13366822
3012,13271214
3013,13377710
3014,13265681
3015,13330260
3016,13410306
3017,13291031
3018,13271128
3019,13364257
3020,13364257
3021,13243273
3022,13375924
3023,13327219
3024,13299511
3025,13328942
3026,13306142
3027,13273202
3028,13327691
3029,13265881
3030,13292766
3031,13275525
3032,13238950
3033,13301374
3034,13350113
3035,13285713
3036,13257778
3037,13301205
3038,13320468
3039,13320468
3040,13242214
3041,13340539
3042,13287746
3043,13226910
3044,13202303
3045,13233545
3046,13271294
3047,13338403
3048,13277379
3049,13227268
3050,13255964
3051,13398125
3052,13250841
3053,13367584
3054,13213457
3055,13361351
3056,13384894
3057,13252479
3058,13251676
3059,13390121
3060,13359932
3061,13377059
3062,13286813
3063,13272765
3064,13320762
3065,13388144
3066,13308124
3067,13289162
3068,13229985
3069,13351050
3070,13277401
3071,13355443
3072,13319177
3073,13324411
3074,13471517
3075,13313910
3076,13297156
3077,13267752
3078,13335857
3079,13319348
3080,13343392
3081,13343392
3082,13343392
3083,13385503
3084,13335364
3085,13284738
3086,13189389
3087,13336287
3088,13335364
3089,13406599
3090,13295166
3091,13418570
3092,13391769
3093,13225657
3094,13322157
3095,13311224
3096,13350599
3097,13361219
3098,13324560
3099,13287654
3100,13269020
3101,13336254
3102,13235356
3103,13268948
3104,13396513
3105,13278922
3106,13263002
3107,13303249
3108,13335828
3109,13297518
3110,13417310
3111,13417310
3112,13337896
3113,13385686
3114,13254344
3115,13313148
3116,13295295
3117,13419839
3118,13283482
3119,13392525
3120,13334531
3121,13378630
3122,13404773
3123,13404773
3124,13341035
3125,13367584
3126,13296489
3127,13387578
3128,13262453
3129,13361707
3130,13278258
3131,13375684
3132,13310618
3133,13310618
3134,13295871
3135,13487268
3136,13487268
3137,13245172
3138,13211950
3139,13327163
3140,13292611
3141,13370359
3142,13300077
3143,13353233
3144,13353233
3145,13403627
3146,13279019
3147,13280400
3148,13318460
3149,13318460
3150,13269655
3151,13243433
3152,13192860
3153,13352767
3154,13187551
3155,13319206
3156,13431111
3157,13431111
3158,13285323
3159,13245172
3160,13247987
3161,13298217
3162,13267061
3163,13328524
3164,13254929
3165,13318251
3166,13257721
3167,13261838
3168,13436707
3169,13312312
3170,13325647
3171,13278818
3172,13278818
3173,13275923
3174,13258554
3175,13260347
3176,13463657
3177,13296829
3178,13313982
3179,13376477
3180,13313692
3181,13313692
3182,13316110
3183,13333627
3184,13379161
3185,13472081
3186,13244436
3187,13225701
3188,13330238
3189,13223740
3190,13255413
3191,13247830
3192,13247830
3193,13249070
3194,13455943
3195,13378216
3196,13321055
3197,13349708
3198,13317449
3199,13334662
3200,13365626
3201,13331654
3202,13226620
3203,13234926
3204,13223096
3205,13337041
3206,13280186
3207,13267375
3208,13211731
3209,13306994
3210,13306820
3211,13251443
3212,13311837
3213,13306670
3214,13358234
3215,13368037
3216,13331449
3217,13367140
3218,13367140
3219,13244985
3220,13354550
3221,13296773
3222,13296773
3223,13277839
3224,13353369
3225,13282987
3226,13357536
3227,13435292
3228,13331308
3229,13263305
3230,13254673
3231,13351871
3232,13215818
3233,13418490
3234,13209669
3235,13232891
3236,13431111
3237,13262073
3238,13307824
3239,13321659
3240,13387629
3241,13290512
3242,13293211
3243,13275943
3244,13219333
3245,13366848
3246,13287358
3247,13220103
3248,13228354
3249,13186246
3250,13268689
3251,13312341
3252,13302208
3253,13343928
3254,13301129
3255,13387616
3256,13289866
3257,13351725
3258,13470953
3259,13470953
3260,13246833
3261,13312564
3262,13237032
3263,13322342
3264,13282679
3265,13283398
3266,13315622
3267,13381764
3268,13221774
3269,13283037
3270,13337041
3271,13352848
3272,13321535
3273,13321535
3274,13360308
3275,13339984
3276,13311222
3277,13224753
3278,13303903
3279,13422164
3280,13316499
3281,13340809
3282,13434023
3283,13428078
3284,13428078
3285,13320885
3286,13320885
3287,13258057
3288,13265068
3289,13264416
3290,13266478
3291,13368310
3292,13368310
3293,13347651
3294,13328488
3295,13384531
3296,13333865
3297,13252749
3298,13262112
3299,13296919
3300,13366858
3301,13376000
3302,13256044
3303,13310370
3304,13279188
3305,13266358
3306,13242263
3307,13345592
3308,13323874
3309,13323874
3310,13428703
3311,13310981
3312,13317436
3313,13231115
3314,13273517
3315,13429133
3316,13208760
3317,13494864
3318,13494864
3319,13380253
3320,13301237
3321,13331402
3322,13402018
3323,13402018
3324,13402018
3325,13318077
3326,13474183
3327,13209254
3328,13302647
3329,13230132
3330,13280422
3331,13273716
3332,13338426
3333,13338426
3334,13219642
3335,13346286
3336,13346286
3337,13311481
3338,13246009
3339,13428351
3340,13353332
3341,13361707
3342,13411855
3343,13268948
3344,13276152
3345,13408013
3346,13262879
3347,13363867
3348,13363867
3349,13363867
3350,13277207
3351,13315949
3352,13242977
3353,13247900
3354,13205009
3355,13375684
3356,13313527
3357,13283552
3358,13241491
3359,13279422
3360,13332338
3361,13198699
3362,13305458
3363,13370871
3364,13373945
3365,13374122
3366,13260794
3367,13220902
3368,13359250
3369,13359250
3370,13359250
3371,13326016
3372,13310927
3373,13214282
3374,13231775
3375,13373347
3376,13417897
3377,13417897
3378,13301667
3379,13330782
3380,13313581
3381,13218924
3382,13236326
3383,13373271
3384,13273432
3385,13307260
3386,13305458
3387,13316186
3388,13304165
3389,13433089
3390,13311943
3391,13236764
3392,13212039
3393,13208674
3394,13406525
3395,13228004
3396,13285234
3397,13347644
3398,13311611
3399,13378641
3400,13359792
3401,13351612
3402,13290149
3403,13241743
3404,13365626
3405,13404517
3406,13365626
3407,13161749
3408,13343363
3409,13314435
3410,13313581
3411,13302290
3412,13242006
3413,13278591
3414,13218204
3415,13301389
3416,13331846
3417,13329539
3418,13344604
3419,13336785
3420,13359549
3421,13275558
3422,13306842
3423,13164261
3424,13352912
3425,13268534
3426,13261860
3427,13257294
3428,13264595
3429,13223730
3430,13277201
3431,13345839
3432,13304731
3433,13304731
3434,13368814
3435,13185838
3436,13273941
3437,13319419
3438,13298702
3439,13165124
3440,13363766
3441,13259154
3442,13219592
3443,13271572
3444,13393100
3445,13197757
3446,13215094
3447,13238028
3448,13366146
3449,13366146
3450,13251580
3451,13322279
3452,13222073
3453,13258386
3454,13405640
3455,13321279
3456,13301969
3457,13301969
3458,13363097
3459,13296433
3460,13296433
3461,13364801
3462,13359037
3463,13361011
3464,13361011
3465,13361011
3466,13392236
3467,13365796
3468,13382928
3469,13477999
3470,13294336
3471,13382252
3472,13293142
3473,13313451
3474,13265187
3475,13222608
3476,13313208
3477,13363684
3478,13363684
3479,13487268
3480,13292705
3481,13214623
3482,13262435
3483,13291819
3484,13379713
3485,13359549
3486,13318736
3487,13310374
3488,13310551
3489,13295275
3490,13445720
3491,13316979
3492,13220665
3493,13341312
3494,13350826
3495,13350826
3496,13433553
3497,13323066
3498,13289869
3499,13289869
3500,13293228
3501,13288999
3502,13259273
3503,13237085
3504,13263406
3505,13318929
3506,13276012
3507,13285671
3508,13340659
3509,13266283
3510,13395710
3511,13321405
3512,13285000
3513,13279959
3514,13350173
3515,13255616
3516,13283109
3517,13363681
3518,13363681
3519,13363681
3520,13251997
3521,13244149
3522,13457089
3523,13325969
3524,13292655
3525,13316033
3526,13286369
3527,13326016
3528,13253199
3529,13278552
3530,13343157
3531,13221034
3532,13382652
3533,13268931
3534,13236988
3535,13237936
3536,13294817
3537,13292708
3538,13235270
3539,13235270
3540,13253585
3541,13351011
3542,13379664
3543,13379664
3544,13262321
3545,13342599
3546,13308266
3547,13308266
3548,13310374
3549,13257900
3550,13300794
3551,13260224
3552,13436707
3553,13253561
3554,13385229
3555,13385229
3556,13340968
3557,13284306
3558,13340968
3559,13229056
3560,13429690
3561,13248417
3562,13225152
3563,13254747
3564,13238142
3565,13235889
3566,13276200
3567,13345487
3568,13201966
3569,13285095
3570,13300350
3571,13315055
3572,13258339
3573,13355765
3574,13355765
3575,13267083
3576,13413375
3577,13363097
3578,13281610
3579,13350037
3580,13287993
3581,13294248
3582,13178179
3583,13191272
3584,13383259
3585,13273445
3586,13293310
3587,13285323
3588,13232396
3589,13293323
3590,13404117
3591,13403627
3592,13285754
3593,13247830
3594,13220070
3595,13264157
3596,13290929
3597,13348824
3598,13355550
3599,13415886
3600,13389824
3601,13342691
3602,13306751
3603,13361929
3604,13237150
3605,13231132
3606,13305069
3607,13230308
3608,13275525
3609,13373247
3610,13304592
3611,13222138
3612,13358234
3613,13335721
3614,13319120
3615,13380596
3616,13374947
3617,13314865
3618,13276186
3619,13216272
3620,13347187
3621,13234824
3622,13415655
3623,13223142
3624,13319201
3625,13256982
3626,13263647
3627,13318951
3628,13269573
3629,13357091
3630,13358351
3631,13233786
3632,13284105
3633,13242841
3634,13320311
3635,13196906
3636,13223775
3637,13283037
3638,13279510
3639,13313262
3640,13220233
3641,13427176
3642,13249070
3643,13310143
3644,13318426
3645,13273671
3646,13262816
3647,13305069
3648,13223431
3649,13270356
3650,13287349
3651,13368263
3652,13313942
3653,13168950
3654,13222557
3655,13247653
3656,13324235
3657,13465867
3658,13354834
3659,13324138
3660,13320694
3661,13320694
3662,13290034
3663,13336251
3664,13336251
3665,13360305
3666,13308491
3667,13200716
3668,13327674
3669,13205993
3670,13266569
3671,13257487
3672,13310981
3673,13272189
3674,13400465
3675,13227622
3676,13258169
3677,13376318
3678,13358559
3679,13346689
3680,13346689
3681,13284936
3682,13294926
3683,13269518
3684,13225581
3685,13273466
3686,13247340
3687,13424474
3688,13265731
3689,13435736
3690,13435736
3691,13252881
3692,13299148
3693,13350037
3694,13268974
3695,13291932
3696,13340550
3697,13291932
3698,13291932
3699,13333107
3700,13264652
3701,13330324
3702,13215789
3703,13454674
3704,13298636
3705,13304260
3706,13325805
3707,13341345
3708,13389014
3709,13165782
3710,13211615
3711,13286236
3712,13398770
3713,13496672
3714,13391617
3715,13278922
3716,13417310
3717,13231715
3718,13295846
3719,13336841
3720,13236096
3721,13454674
3722,13376000
3723,13298333
3724,13225260
3725,13298450
3726,13324631
3727,13312233
3728,13269750
3729,13341837
3730,13287059
3731,13409605
3732,13252095
3733,13299898
3734,13228429
3735,13264865
3736,13241089
3737,13299070
3738,13339984
3739,13322908
3740,13274530
3741,13283398
3742,13347785
3743,13308786
3744,13343516
3745,13308626
3746,13268937
3747,13318429
3748,13294577
3749,13272615
3750,13233948
3751,13232280
3752,13372819
3753,13278941
3754,13287918
3755,13208853
3756,13409608
3757,13383878
3758,13279661
3759,13306532
3760,13241038
3761,13328271
3762,13247992
3763,13312387
3764,13487304
3765,13405956
3766,13405956
3767,13405956
3768,13246141
3769,13320544
3770,13257674
3771,13267670
3772,13356946
3773,13356946
3774,13218168
3775,13371238
3776,13301007
3777,13340615
3778,13304578
3779,13237702
3780,13263215
3781,13290853
3782,13271854
3783,13237770
3784,13243757
3785,13316204
3786,13321583
3787,13321583
3788,13323468
3789,13365530
3790,13280511
3791,13256530
3792,13207729
3793,13223042
3794,13352902
3795,13459919
3796,13344443
3797,13316535
3798,13316666
3799,13271858
3800,13295725
3801,13274610
3802,13323157
3803,13346258
3804,13413113
3805,13356035
3806,13296172
3807,13310844
3808,13248287
3809,13159236
3810,13290346
3811,13338386
3812,13290346
3813,13378999
3814,13307589
3815,13342994
3816,13364829
3817,13338095
3818,13281917
3819,13285061
3820,13235306
3821,13487268
3822,13252882
3823,13301441
3824,13267264
3825,13283628
3826,13247923
3827,13279286
3828,13346982
3829,13358548
3830,13284630
3831,13262258
3832,13262258
3833,13373775
3834,13405920
3835,13376198
3836,13257054
3837,13329343
3838,13275575
3839,13260432
3840,13289648
3841,13396921
3842,13289396
3843,13262194
3844,13265881
3845,13256991
3846,13310143
3847,13310454
3848,13305140
3849,13354048
3850,13394582
3851,13318060
3852,13236121
3853,13131738
3854,13137568
3855,13361445
3856,13160304
3857,13349946
3858,13236390
3859,13246166
3860,13255188
3861,13371012
3862,13196703
3863,13362969
3864,13217852
3865,13231675
3866,13308223
3867,13237243
3868,13346258
3869,13297342
3870,13370948
3871,13364826
3872,13211980
3873,13350624
3874,13350624
3875,13402412
3876,13396155
3877,13346445
3878,13302474
3879,13315230
3880,13181262
3881,13327138
3882,13477838
3883,13234490
3884,13272732
3885,13250540
3886,13363762
3887,13341675
3888,13408725
3889,13338786
3890,13248896
3891,13302132
3892,13371291
3893,13240531
3894,13286864
3895,13300732
3896,13319821
3897,13420065
3898,13300732
3899,13333107
3900,13299949
3901,13252131
3902,13392220
3903,13355857
3904,13340580
3905,13267464
3906,13311687
3907,13459399
3908,13260900
3909,13302266
3910,13262364
3911,13338786
3912,13273671
3913,13361503
3914,13307266
3915,13213374
3916,13194673
3917,13199749
3918,13242006
3919,13293403
3920,13259502
3921,13247793
3922,13336902
3923,13265191
3924,13297702
3925,13340356
3926,13195141
3927,13357223
3928,13296755
3929,13235459
3930,13285754
3931,13384467
3932,13361503
3933,13343574
3934,13389478
3935,13336633
3936,13419993
3937,13244798
3938,13206951
3939,13316034
3940,13291690
3941,13319955
3942,13320478
3943,13220213
3944,13344658
3945,13319069
3946,13402758
3947,13271754
3948,13370795
3949,13229716
3950,13464439
3951,13464439
3952,13318762
3953,13365537
3954,13336902
3955,13237173
3956,13295247
3957,13247813
3958,13269591
3959,13254966
3960,13306334
3961,13251643
3962,13322567
3963,13375411
3964,13262536
3965,13348824
3966,13328653
3967,13308068
3968,13179931
3969,13229096
3970,13305748
3971,13409178
3972,13273682
3973,13308474
3974,13355765
3975,13220732
3976,13279019
3977,13389280
3978,13269376
3979,13289451
3980,13413113
3981,13413113
3982,13274948
3983,13319939
3984,13352879
3985,13213987
3986,13263931
3987,13302179
3988,13272772
3989,13360770
3990,13433701
3991,13286024
3992,13259067
3993,13297617
3994,13313982
3995,13379713
3996,13379713
3997,13518963
3998,13311690
3999,13294577
4000,13268881
4001,13340455
4002,13327138
4003,13327138
4004,13426950
4005,13406758
4006,13234931
4007,13283706
4008,13380253
4009,13233828
4010,13268205
4011,13287898
4012,13396068
4013,13348944
4014,13325969
4015,13279411
4016,13259450
4017,13354048
4018,13237406
4019,13346612
4020,13346612
4021,13359710
4022,13404214
4023,13272638
4024,13255261
4025,13278648
4026,13376712
4027,13307516
4028,13267577
4029,13268478
4030,13217116
4031,13247458
4032,13324923
4033,13289375
4034,13278218
4035,13254867
4036,13370795
4037,13291364
4038,13374655
4039,13259681
4040,13218509
4041,13262890
4042,13242736
4043,13242736
4044,13303443
4045,13282001
4046,13316535
4047,13249762
4048,13300190
4049,13368037
4050,13342186
4051,13217511
4052,13496748
4053,13271935
4054,13340248
4055,13313049
4056,13291104
4057,13247566
4058,13259401
4059,13454352
4060,13316020
4061,13411855
4062,13269662
4063,13324896
4064,13324896
4065,13229540
4066,13299831
4067,13329616
4068,13299831
4069,13299831
4070,13299831
4071,13183483
4072,13382230
4073,13271919
4074,13331507
4075,13352173
4076,13220835
4077,13303740
4078,13271937
4079,13300699
4080,13296773
4081,13302647
4082,13384914
4083,13252140
4084,13285135
4085,13254697
4086,13461188
4087,13251828
4088,13364684
4089,13269419
4090,13311524
4091,13311524
4092,13257135
4093,13286340
4094,13270230
4095,13287993
4096,13270230
4097,13228623
4098,13276718
4099,13346445
4100,13369905
4101,13332906
4102,13306654
4103,13331203
4104,13415225
4105,13306746
4106,13379090
4107,13361219
4108,13335209
4109,13336826
4110,13277660
4111,13316034
4112,13302637
4113,13255541
4114,13322639
4115,13277189
4116,13236927
4117,13246677
4118,13320815
4119,13308626
4120,13341657
4121,13271101
4122,13289856
4123,13289856
4124,13346168
4125,13289856
4126,13289856
4127,13271214
4128,13222404
4129,13223535
4130,13261198
4131,13287738
4132,13207052
4133,13263647
4134,13198990
4135,13197858
4136,13370359
4137,13362326
4138,13355883
4139,13311837
4140,13268628
4141,13241717
4142,13345134
4143,13343989
4144,13343251
4145,13262817
4146,13276242
4147,13276242
4148,13307994
4149,13234944
4150,13324750
4151,13304178
4152,13304178
4153,13296005
4154,13303861
4155,13251015
4156,13310370
4157,13310370
4158,13358234
4159,13373067
4160,13250222
4161,13330238
4162,13234093
4163,13319804
4164,13248938
4165,13318429
4166,13453154
4167,13308084
4168,13246313
4169,13315837
4170,13261261
4171,13276696
4172,13296699
4173,13400827
4174,13327580
4175,13313049
4176,13184278
4177,13361096
4178,13263535
4179,13398248
4180,13327073
4181,13207014
4182,13295474
4183,13231424
4184,13265655
4185,13310681
4186,13292007
4187,13232156
4188,13310276
4189,13403264
4190,13394815
4191,13394815
4192,13273186
4193,13323517
4194,13393183
4195,13343688
4196,13311974
4197,13271618
4198,13223687
4199,13388314
4200,13301226
4201,13301787
4202,13293094
4203,13307583
4204,13308391
4205,13317197
4206,13350662
4207,13282512
4208,13233356
4209,13308550
4210,13496672
4211,13271110
4212,13212589
4213,13310486
4214,13270812
4215,13232402
4216,13379866
4217,13287922
4218,13280483
4219,13354544
4220,13314025
4221,13237842
4222,13283134
4223,13320476
4224,13353218
4225,13376557
4226,13418490
4227,13374122
4228,13325958
4229,13256300
4230,13247188
4231,13347727
4232,13210734
4233,13261932
4234,13231971
4235,13280544
4236,13216842
4237,13346689
4238,13343157
4239,13277095
4240,13307690
4241,13296773
4242,13475452
4243,13318929
4244,13251856
4245,13271843
4246,13294691
4247,13361275
4248,13381781
4249,13405920
4250,13280884
4251,13356377
4252,13242754
4253,13198189
4254,13279066
4255,13288234
4256,13288234
4257,13330788
4258,13326933
4259,13373438
4260,13226599
4261,13360322
4262,13170934
4263,13387616
4264,13317214
4265,13378717
4266,13304670
4267,13241019
4268,13266228
4269,13370754
4270,13494420
4271,13226755
4272,13326990
4273,13274970
4274,13262628
4275,13311524
4276,13243724
4277,13341654
4278,13299384
4279,13269103
4280,13274536
4281,13256186
4282,13322567
4283,13418871
4284,13456545
4285,13284152
4286,13332291
4287,13343949
4288,13366327
4289,13207353
4290,13238341
4291,13216854
4292,13256765
4293,13331044
4294,13205633
4295,13340473
4296,13358517
4297,13200714
4298,13267966
4299,13274030
4300,13239124
4301,13308391
4302,13324110
4303,13295863
4304,13233923
4305,13240314
4306,13279060
4307,13305902
4308,13364035
4309,13253295
4310,13259050
4311,13269750
4312,13350173
4313,13431877
4314,13352848
4315,13366858
4316,13259330
4317,13338403
4318,13252334
4319,13259674
4320,13305140
4321,13293818
4322,13187341
4323,13388370
4324,13230237
4325,13263417
4326,13216328
4327,13287358
4328,13266747
4329,13226755
4330,13361201
4331,13352851
4332,13237871
4333,13315928
4334,13380394
4335,13339276
4336,13360752
4337,13250822
4338,13204430
4339,13215260
4340,13264675
4341,13326325
4342,13406758
4343,13335556
4344,13284006
4345,13314430
4346,13238142
4347,13457089
4348,13314430
4349,13433625
4350,13433625
4351,13332172
4352,13223358
4353,13226263
4354,13288077
4355,13354263
4356,13354263
4357,13269150
4358,13401107
4359,13401107
4360,13401107
4361,13401107
4362,13380824
4363,13380824
4364,13400601
4365,13380380
4366,13380380
4367,13261420
4368,13257259
4369,13193052
4370,13181007
4371,13193891
4372,13303992
4373,13276596
4374,13316666
4375,13276829
4376,13392220
4377,13345917
4378,13302020
4379,13314473
4380,13246452
4381,13311328
4382,13338483
4383,13338483
4384,13207875
4385,13285451
4386,13285451
4387,13282536
4388,13236452
4389,13227947
4390,13338441
4391,13347727
4392,13207909
4393,13268578
4394,13272727
4395,13429634
4396,13429634
4397,13245509
4398,13458871
4399,13256138
4400,13425620
4401,13344081
4402,13409906
4403,13161033
4404,13433629
4405,13257752
4406,13281108
4407,13311523
4408,13157488
4409,13328202
4410,13311064
4411,13368205
4412,13352839
4413,13293478
4414,13413543
4415,13300643
4416,13359746
4417,13359746
4418,13221983
4419,13229195
4420,13251175
4421,13368339
4422,13434467
4423,13368772
4424,13218075
4425,13385615
4426,13397220
4427,13397220
4428,13320961
4429,13351239
4430,13326853
4431,13248247
4432,13297670
4433,13373271
4434,13292438
4435,13365106
4436,13397664
4437,13215961
4438,13331707
4439,13215961
4440,13233020
4441,13177992
4442,13215158
4443,13209922
4444,13243919
4445,13317290
4446,13259736
4447,13257698
4448,13203962
4449,13246548
4450,13347884
4451,13346092
4452,13301622
4453,13276022
4454,13262628
4455,13278807
4456,13257043
4457,13363541
4458,13301282
4459,13262693
4460,13292567
4461,13292567
4462,13270274
4463,13396068
4464,13396068
4465,13351239
4466,13303992
4467,13383960
4468,13216433
4469,13245394
4470,13221985
4471,13461293
4472,13266090
4473,13220076
4474,13277720
4475,13323121
4476,13320534
4477,13524340
4478,13363867
4479,13306067
4480,13312333
4481,13310706
4482,13315658
4483,13363667
4484,13325937
4485,13397812
4486,13322926
4487,13310826
4488,13208403
4489,13402004
4490,13349299
4491,13444584
4492,13350557
4493,13318700
4494,13267068
4495,13283811
4496,13277329
4497,13398477
4498,13416130
4499,13279506
4500,13279506
4501,13257968
4502,13318686
4503,13248606
4504,13257054
4505,13221761
4506,13278404
4507,13255439
4508,13336254
4509,13320476
4510,13256044
4511,13217266
4512,13389280
4513,13205471
4514,13320476
4515,13280168
4516,13280168
4517,13405956
4518,13368288
4519,13324265
4520,13309617
4521,13156005
4522,13371691
4523,13305570
4524,13304709
4525,13304709
4526,13249956
4527,13382715
4528,13358703
4529,13358703
4530,13342821
4531,13214414
4532,13318746
4533,13362081
4534,13298847
4535,13324896
4536,13243167
4537,13390040
4538,13245614
4539,13425394
4540,13332548
4541,13317703
4542,13247624
4543,13314829
4544,13251930
4545,13245134
4546,13287434
4547,13332297
4548,13398867
4549,13272050
4550,13329186
4551,13349144
4552,13320242
4553,13177916
4554,13368152
4555,13216563
4556,13253338
4557,13298931
4558,13391249
4559,13227035
4560,13228207
4561,13164506
4562,13281098
4563,13281098
4564,13186444
4565,13286724
4566,13286724
4567,13368328
4568,13341119
4569,13382931
4570,13269422
4571,13363867
4572,13248846
4573,13352653
4574,13279346
4575,13260340
4576,13263599
4577,13390481
4578,13364662
4579,13279011
4580,13398867
4581,13316533
4582,13310777
4583,13282870
4584,13309873
4585,13379182
4586,13300869
4587,13315837
4588,13355873
4589,13365340
4590,13226728
4591,13290286
4592,13299809
4593,13310587
4594,13363667
4595,13458271
4596,13380519
4597,13220747
4598,13369237
4599,13236265
4600,13245939
4601,13265969
4602,13383262
4603,13383262
4604,13375487
4605,13249429
4606,13325969
4607,13281027
4608,13272265
4609,13363097
4610,13300190
4611,13331489
4612,13212411
4613,13336902
4614,13287349
4615,13304681
4616,13299885
4617,13255284
4618,13314092
4619,13287644
4620,13223103
4621,13275650
4622,13171941
4623,13336529
4624,13377342
4625,13368998
4626,13263825
4627,13274970
4628,13368814
4629,13286865
4630,13299582
4631,13390121
4632,13279542
4633,13324923
4634,13277985
4635,13309190
4636,13324631
4637,13324335
4638,13324335
4639,13347790
4640,13356375
4641,13332743
4642,13351733
4643,13252759
4644,13359869
4645,13359869
4646,13391769
4647,13277734
4648,13338196
4649,13229387
4650,13243499
4651,13323642
4652,13368568
4653,13323228
4654,13333401
4655,13277426
4656,13278150
4657,13318736
4658,13374947
4659,13361096
4660,13236709
4661,13268454
4662,13266638
4663,13226922
4664,13223730
4665,13333125
4666,13320958
4667,13336287
4668,13272110
4669,13322279
4670,13334337
4671,13286369
4672,13293699
4673,13283326
4674,13344568
4675,13261783
4676,13399678
4677,13234045
4678,13190986
4679,13347912
4680,13226194
4681,13390067
4682,13321371
4683,13333039
4684,13398770
4685,13335589
4686,13250786
4687,13250932
4688,13358743
4689,13266269
4690,13388144
4691,13383262
4692,13212346
4693,13270746
4694,13268590
4695,13266058
4696,13287335
4697,13208592
4698,13365385
4699,13232890
4700,13292527
4701,13292527
4702,13257156
4703,13233291
4704,13369011
4705,13271589
4706,13261850
4707,13252973
4708,13318704
4709,13209572
4710,13286297
4711,13363541
4712,13201436
4713,13365813
4714,13261805
4715,13350173
4716,13362064
4717,13361011
4718,13210139
4719,13297579
4720,13401525
4721,13418384
4722,13335299
4723,13335299
4724,13376318
4725,13274542
4726,13315567
4727,13333847
4728,13221984
4729,13297156
4730,13325340
4731,13457089
4732,13357663
4733,13312742
4734,13185807
4735,13289177
4736,13463979
4737,13424768
4738,13304967
4739,13430885
4740,13242227
4741,13242227
4742,13303083
4743,13371749
4744,13340794
4745,13283170
4746,13258251
4747,13325805
4748,13213174
4749,13229503
4750,13201625
4751,13344960
4752,13329886
4753,13466762
4754,13294631
4755,13328173
4756,13230845
4757,13396655
4758,13261491
4759,13431017
4760,13277876
4761,13219320
4762,13274542
4763,13318904
4764,13369785
4765,13345162
4766,13177695
4767,13305636
4768,13436212
4769,13219115
4770,13235250
4771,13396155
4772,13246015
4773,13305444
4774,13320815
4775,13284142
4776,13324336
4777,13473744
4778,13394614
4779,13394614
4780,13394614
4781,13239156
4782,13224765
4783,13234001
4784,13202293
4785,13441033
4786,13426589
4787,13426589
4788,13426589
4789,13152820
4790,13334881
4791,13242247
4792,13327548
4793,13254899
4794,13287817
4795,13294681
4796,13341913
4797,13330324
4798,13323874
4799,13263459
4800,13280586
4801,13268128
4802,13185014
4803,13307088
4804,13384914
4805,13278491
4806,13193933
4807,13277985
4808,13309431
4809,13306290
4810,13230154
4811,13246335
4812,13293647
4813,13339276
4814,13277510
4815,13268116
4816,13289855
4817,13314563
4818,13279041
4819,13318612
4820,13303939
4821,13411290
4822,13224582
4823,13287909
4824,13378641
4825,13301048
4826,13213744
4827,13273811
4828,13348674
4829,13227895
4830,13287677
4831,13259809
4832,13319574
4833,13199770
4834,13247707
4835,13306435
4836,13225441
4837,13317436
4838,13225483
4839,13308391
4840,13285777
4841,13333842
4842,13222816
4843,13304989
4844,13244124
4845,13402060
4846,13253259
4847,13360310
4848,13285614
4849,13309114
4850,13219678
4851,13234646
4852,13303249
4853,13204922
4854,13310454
4855,13318955
4856,13194527
4857,13286883
4858,13202220
4859,13313768
4860,13396834
4861,13308626
4862,13326903
4863,13212254
4864,13343215
4865,13433625
4866,13214517
4867,13457089
4868,13366327
4869,13232992
4870,13339059
4871,13387682
4872,13315567
4873,13302072
4874,13249154
4875,13383259
4876,13296195
4877,13191741
4878,13410139
4879,13290202
4880,13326016
4881,13373438
4882,13230788
4883,13350917
4884,13344658
4885,13301033
4886,13258676
4887,13279628
4888,13174483
4889,13292260
4890,13291113
4891,13331308
4892,13325791
4893,13325951
4894,13241509
4895,13443788
4896,13219883
4897,13316186
4898,13289746
4899,13215023
4900,13297182
4901,13357994
4902,13431111
4903,13355337
4904,13318955
4905,13284308
4906,13221521
4907,13316535
4908,13316535
4909,13292398
4910,13227557
4911,13194113
4912,13382652
4913,13359818
4914,13310370
4915,13424518
4916,13392233
4917,13253711
4918,13272276
4919,13461188
4920,13291586
4921,13278310
4922,13296005
4923,13361357
4924,13473482
4925,13336841
4926,13182737
4927,13306918
4928,13351011
4929,13264240
4930,13313196
4931,13389244
4932,13281516
4933,13344503
4934,13325791
4935,13235474
4936,13275558
4937,13348601
4938,13383878
4939,13378216
4940,13462565
4941,13244201
4942,13301223
4943,13300768
4944,13387649
4945,13279415
4946,13395074
4947,13284738
4948,13311231
4949,13336658
4950,13373172
4951,13354168
4952,13313135
4953,13374205
4954,13343157
4955,13357575
4956,13352922
4957,13292062
4958,13312695
4959,13356377
4960,13341771
4961,13282303
4962,13204973
4963,13270708
4964,13366914
4965,13280648
4966,13359869
4967,13461188
4968,13298217
4969,13298217
4970,13338441
4971,13299614
4972,13225422
4973,13314941
4974,13314941
4975,13245757
4976,13281372
4977,13196255
4978,13264414
4979,13336254
4980,13291472
4981,13320300
4982,13202648
4983,13286340
4984,13202648
4985,13350881
4986,13354544
4987,13469034
4988,13311201
4989,13354262
4990,13306237
4991,13298137
4992,13451668
4993,13306698
4994,13227623
4995,13260124
4996,13308200
4997,13456644
4998,13456644
4999,13283246
5000,13257600
5001,13324177
5002,13308226
5003,13260621
5004,13458271
5005,13186959
5006,13343874
5007,13259890
5008,13259890
5009,13225393
5010,13328617
5011,13262453
5012,13296831
5013,13284251
5014,13314455
5015,13285550
5016,13287747
5017,13294706
5018,13371833
5019,13370871
5020,13334043
5021,13365537
5022,13243421
5023,13305223
5024,13353695
5025,13405311
5026,13311514
5027,13363068
5028,13303083
5029,13137718
5030,13254640
5031,13315176
5032,13287492
5033,13293041
5034,13227327
5035,13308327
5036,13331317
5037,13347158
5038,13308130
5039,13291691
5040,13197171
5041,13317382
5042,13262764
5043,13256100
5044,13364662
5045,13230786
5046,13376615
5047,13262312
5048,13402758
5049,13382271
5050,13305837
5051,13341657
5052,13295391
5053,13306154
5054,13214640
5055,13209514
5056,13287898
5057,13218030
5058,13362739
5059,13244836
5060,13283642
5061,13291345
5062,13277401
5063,13208278
5064,13318060
5065,13328378
5066,13208308
5067,13313621
5068,13313621
5069,13302290
5070,13471517
5071,13471517
5072,13264346
5073,13299349
5074,13240085
5075,13320940
5076,13254763
5077,13324535
5078,13220195
5079,13370535
5080,13277058
5081,13230077
5082,13368738
5083,13323898
5084,13443712
5085,13320544
5086,13254813
5087,13496616
5088,13221580
5089,13301445
5090,13282214
5091,13225315
5092,13377710
5093,13232411
5094,13328347
5095,13370907
5096,13170792
5097,13324265
5098,13428689
5099,13286867
5100,13392525
5101,13330234
5102,13293129
5103,13443671
5104,13415886
5105,13350640
5106,13265717
5107,13275191
5108,13262816
5109,13262816
5110,13225101
5111,13323551
5112,13275534
5113,13230253
5114,13399253
5115,13419041
5116,13251520
5117,13314648
5118,13318746
5119,13332885
5120,13319177
5121,13280531
5122,13301048
5123,13317564
5124,13400932
5125,13231904
5126,13259351
5127,13366771
5128,13333474
5129,13326325
5130,13256383
5131,13317731
5132,13283365
5133,13268881
5134,13144155
5135,13252764
5136,13310517
5137,13310517
5138,13225732
5139,13421766
5140,13305208
5141,13279915
5142,13310936
5143,13297045
5144,13518963
5145,13286883
5146,13259993
5147,13347790
5148,13346016
5149,13332433
5150,13453154
5151,13301037
5152,13341601
5153,13345975
5154,13345957
5155,13324321
5156,13231199
5157,13300854
5158,13403348
5159,13362582
5160,13272009
5161,13259455
5162,13304592
5163,13288799
5164,13380059
5165,13362582
5166,13217826
5167,13347785
5168,13231253
5169,13405786
5170,13311425
5171,13253697
5172,13183877
5173,13312239
5174,13265502
5175,13302425
5176,13345848
5177,13345848
5178,13254455
5179,13481934
5180,13262813
5181,13300154
5182,13315794
5183,13216342
5184,13287358
5185,13247973
5186,13273954
5187,13237796
5188,13261416
5189,13329692
5190,13345343
5191,13399518
5192,13316056
5193,13237804
5194,13340445
5195,13296916
5196,13275400
5197,13347644
5198,13195349
5199,13234304
5200,13385958
5201,13281303
5202,13362775
5203,13283215
5204,13335817
5205,13182551
5206,13447240
5207,13394199
5208,13358559
5209,13382271
5210,13382271
5211,13266246
5212,13289947
5213,13256434
5214,13482886
5215,13310728
5216,13245579
5217,13297579
5218,13314430
5219,13324631
5220,13296096
5221,13296096
5222,13300568
5223,13271507
5224,13336826
5225,13359907
5226,13316186
5227,13354511
5228,13209471
5229,13267487
5230,13268870
5231,13382576
5232,13339638
5233,13316117
5234,13227143
5235,13249766
5236,13215178
5237,13324262
5238,13356451
5239,13356451
5240,13299974
5241,13318147
5242,13416130
5243,13362494
5244,13338441
5245,13196456
5246,13209628
5247,13387282
5248,13251248
5249,13338648
5250,13351871
5251,13227324
5252,13359869
5253,13281356
5254,13357647
5255,13320762
5256,13297299
5257,13327092
5258,13309328
5259,13239238
5260,13280844
5261,13284006
5262,13354955
5263,13221428
5264,13302192
5265,13260307
5266,13352795
5267,13398708
5268,13323122
5269,13246781
5270,13322587
5271,13348929
5272,13434172
5273,13368441
5274,13310286
5275,13314703
5276,13360389
5277,13247966
5278,13254757
5279,13302284
5280,13309342
5281,13309342
5282,13404117
5283,13316744
5284,13252334
5285,13259712
5286,13328173
5287,13301033
5288,13335781
5289,13302638
5290,13295804
5291,13291869
5292,13400433
5293,13330767
5294,13330767
5295,13419839
5296,13267540
5297,13350155
5298,13327074
5299,13293519
5300,13203779
5301,13243418
5302,13287311
5303,13284025
5304,13330098
5305,13258227
5306,13347489
5307,13445984
5308,13230711
5309,13315819
5310,13276855
5311,13278927
5312,13230711
5313,13301282
5314,13296963
5315,13316168
5316,13275395
5317,13271294
5318,13340794
5319,13398248
5320,13341238
5321,13293110
5322,13297342
5323,13304772
5324,13308363
5325,13293110
5326,13340539
5327,13220902
5328,13354492
5329,13300770
5330,13241574
5331,13263647
5332,13333627
5333,13230920
5334,13381764
5335,13316984
5336,13281456
5337,13303605
5338,13244786
5339,13269838
5340,13244124
5341,13367412
5342,13221228
5343,13276045
5344,13345592
5345,13335232
5346,13399767
5347,13310961
5348,13266094
5349,13246009
5350,13276671
5351,13286610
5352,13262003
5353,13369598
5354,13293910
5355,13207842
5356,13217190
5357,13249750
5358,13466838
5359,13297518
5360,13262120
5361,13282954
5362,13253224
5363,13319120
5364,13327925
5365,13336232
5366,13292158
5367,13205729
5368,13362989
5369,13316979
5370,13217111
5371,13286382
5372,13361503
5373,13318478
5374,13387219
5375,13222613
5376,13266228
5377,13284200
5378,13281027
5379,13306390
5380,13340539
5381,13270873
5382,13243954
5383,13417325
5384,13242249
5385,13206109
5386,13411290
5387,13263148
5388,13286767
5389,13301441
5390,13245850
5391,13233816
5392,13307388
5393,13403254
5394,13276186
5395,13248684
5396,13229594
5397,13229049
5398,13215986
5399,13255230
5400,13252443
5401,13347187
5402,13319804
5403,13359467
5404,13438903
5405,13323898
5406,13322413
5407,13445720
5408,13320412
5409,13390738
5410,13269150
5411,13318007
5412,13328524
5413,13277868
5414,13274323
5415,13335397
5416,13337321
5417,13207000
5418,13176255
5419,13266094
5420,13311003
5421,13335569
5422,13352879
5423,13234607
5424,13361933
5425,13361933
5426,13310284
5427,13342097
5428,13454674
5429,13335015
5430,13335015
5431,13217541
5432,13359037
5433,13297059
5434,13276985
5435,13338640
5436,13338640
5437,13304125
5438,13461886
5439,13297686
5440,13280204
5441,13254899
5442,13314430
5443,13314430
5444,13320311
5445,13317436
5446,13257327
5447,13318718
5448,13316320
5449,13325721
5450,13387312
5451,13308928
5452,13273907
5453,13264377
5454,13287468
5455,13319812
5456,13347482
5457,13344443
5458,13300220
5459,13415213
5460,13189365
5461,13296594
5462,13390428
5463,13326847
5464,13299260
5465,13247954
5466,13227335
5467,13350463
5468,13388314
5469,13312910
5470,13343688
5471,13278818
5472,13273269
5473,13229716
5474,13259486
5475,13264150
5476,13291033
5477,13258118
5478,13434172
5479,13358412
5480,13369716
5481,13343392
5482,13343392
5483,13343989
5484,13371749
5485,13288234
5486,13169592
5487,13344861
5488,13273338
5489,13162852
5490,13284483
5491,13304670
5492,13360312
5493,13368342
5494,13296203
5495,13214298
5496,13305169
5497,13280100
5498,13286508
5499,13233860
5500,13260820
5501,13364801
5502,13458215
5503,13319822
5504,13319822
5505,13404400
5506,13471217
5507,13297586
5508,13305962
5509,13257487
5510,13303535
5511,13353808
5512,13246519
5513,13278589
5514,13323065
5515,13347103
5516,13310538
5517,13271843
5518,13250459
5519,13235131
5520,13179734
5521,13467282
5522,13357536
5523,13270708
5524,13332397
5525,13332397
5526,13332397
5527,13219320
5528,13330098
5529,13261666
5530,13354550
5531,13373067
5532,13383274
5533,13267277
5534,13229727
5535,13354963
5536,13306132
5537,13354852
5538,13424994
5539,13327833
5540,13303193
5541,13271209
5542,13280382
5543,13313910
5544,13283557
5545,13252410
5546,13348016
5547,13375720
5548,13316110
5549,13257820
5550,13265447
5551,13315549
5552,13269655
5553,13304609
5554,13248676
5555,13297238
5556,13170499
5557,13379866
5558,13285515
5559,13281016
5560,13273590
5561,13328267
5562,13234147
5563,13268541
5564,13313502
5565,13309273
5566,13310853
5567,13321583
5568,13245026
5569,13265237
5570,13209256
5571,13298613
5572,13255324
5573,13355514
5574,13355514
5575,13250257
5576,13295757
5577,13308281
5578,13402096
5579,13164538
5580,13307001
5581,13288910
5582,13267991
5583,13201634
5584,13359693
5585,13429359
5586,13266957
5587,13379258
5588,13223767
5589,13295809
5590,13436838
5591,13225419
5592,13259894
5593,13323477
5594,13318229
5595,13229598
5596,13244708
5597,13413220
5598,13398823
5599,13306771
5600,13306859
5601,13319908
5602,13272455
5603,13266566
5604,13355944
5605,13273094
5606,13328524
5607,13471217
5608,13372819
5609,13375550
5610,13283680
5611,13299018
5612,13306532
5613,13283001
5614,13169010
5615,13268104
5616,13293073
5617,13349946
5618,13288081
5619,13288081
5620,13236607
5621,13268644
5622,13321196
5623,13321196
5624,13228574
5625,13319804
5626,13244295
5627,13181094
5628,13298450
5629,13305398
5630,13215204
5631,13239731
5632,13220672
5633,13269498
5634,13351725
5635,13264986
5636,13341742
5637,13365852
5638,13358851
5639,13422115
5640,13422115
5641,13379932
5642,13394355
5643,13364324
5644,13226459
5645,13198382
5646,13270006
5647,13319899
5648,13311584
5649,13333401
5650,13311584
5651,13319865
5652,13297344
5653,13347158
5654,13431017
5655,13261202
5656,13340356
5657,13268245
5658,13275131
5659,13278679
5660,13324535
5661,13331489
5662,13206006
5663,13369041
5664,13279414
5665,13279414
5666,13405956
5667,13405956
5668,13222761
5669,13260248
5670,13288441
5671,13317914
5672,13288441
5673,13369016
5674,13247573
5675,13282689
5676,13353369
5677,13221920
5678,13306351
5679,13306351
5680,13241046
5681,13367055
5682,13347912
5683,13257966
5684,13368597
5685,13243954
5686,13285323
5687,13275073
5688,13215521
5689,13360752
5690,13354331
5691,13283932
5692,13243663
5693,13253275
5694,13214443
5695,13285994
5696,13313125
5697,13224586
5698,13325104
5699,13245939
5700,13235210
5701,13324062
5702,13357500
5703,13191093
5704,13308616
5705,13308474
5706,13196130
5707,13191864
5708,13271729
5709,13272346
5710,13294201
5711,13281285
5712,13390551
5713,13320885
5714,13457231
5715,13457231
5716,13402412
5717,13301698
5718,13335096
5719,13359133
5720,13271937
5721,13323697
5722,13295809
5723,13240026
5724,13275322
5725,13263123
5726,13314651
5727,13369905
5728,13313950
5729,13313950
5730,13286368
5731,13233768
5732,13231855
5733,13261650
5734,13330402
5735,13176247
5736,13336841
5737,13286856
5738,13359068
5739,13336254
5740,13421766
5741,13375684
5742,13359037
5743,13282280
5744,13335299
5745,13385958
5746,13313125
5747,13320300
5748,13316554
5749,13317528
5750,13205798
5751,13276829
5752,13248037
5753,13253579
5754,13413375
5755,13282313
5756,13254929
5757,13308550
5758,13335589
5759,13272415
5760,13226839
5761,13335817
5762,13277614
5763,13292161
5764,13300764
5765,13268247
5766,13225647
5767,13242074
5768,13313585
5769,13290126
5770,13413113
5771,13310970
5772,13242667
5773,13356923
5774,13284297
5775,13249088
5776,13334173
5777,13195006
5778,13443441
5779,13394196
5780,13290331
5781,13318746
5782,13318746
5783,13318746
5784,13263053
5785,13290669
5786,13261701
5787,13368667
5788,13231904
5789,13233466
5790,13274789
5791,13319206
5792,13254460
5793,13212241
5794,13340473
5795,13331008
5796,13212659
5797,13234188
5798,13325451
5799,13310884
5800,13346092
5801,13322989
5802,13275420
5803,13185735
5804,13262269
5805,13285786
5806,13256539
5807,13232477
5808,13366357
5809,13302808
5810,13244976
5811,13322279
5812,13299659
5813,13292886
5814,13253660
5815,13228390
5816,13340009
5817,13250528
5818,13376486
5819,13250528
5820,13310713
5821,13340022
5822,13286508
5823,13326016
5824,13210797
5825,13234346
5826,13191457
5827,13420075
5828,13349870
5829,13261342
5830,13233999
5831,13312098
5832,13401551
5833,13361795
5834,13300798
5835,13281685
5836,13289194
5837,13278935
5838,13332271
5839,13217344
5840,13313135
5841,13206745
5842,13328884
5843,13239875
5844,13239197
5845,13282059
5846,13306768
5847,13340707
5848,13340707
5849,13402004
5850,13367358
5851,13174304
5852,13324390
5853,13324390
5854,13325233
5855,13424994
5856,13389984
5857,13307001
5858,13321775
5859,13318962
5860,13336099
5861,13336376
5862,13287982
5863,13182798
5864,13229094
5865,13304967
5866,13307824
5867,13309470
5868,13306072
5869,13270672
5870,13398477
5871,13264756
5872,13340392
5873,13315756
5874,13264113
5875,13347799
5876,13349981
5877,13261762
5878,13351720
5879,13329872
5880,13321869
5881,13443712
5882,13443712
5883,13443712
5884,13320242
5885,13280648
5886,13373957
5887,13416130
5888,13426932
5889,13230709
5890,13275274
5891,13309650
5892,13292184
5893,13344025
5894,13168779
5895,13405460
5896,13298626
5897,13265923
5898,13255042
5899,13220866
5900,13243047
5901,13236030
5902,13231458
5903,13256693
5904,13221886
5905,13350557
5906,13206278
5907,13279188
5908,13218061
5909,13399767
5910,13241044
5911,13266759
5912,13278218
5913,13262745
5914,13403254
5915,13239518
5916,13358517
5917,13346689
5918,13281012
5919,13241216
5920,13312742
5921,13366357
5922,13297089
5923,13150227
5924,13376615
5925,13263529
5926,13312056
5927,13297223
5928,13297223
5929,13234304
5930,13292045
5931,13276662
5932,13302209
5933,13338039
5934,13367412
5935,13369325
5936,13205145
5937,13410336
5938,13382230
5939,13331707
5940,13270746
5941,13398477
5942,13291486
5943,13319201
5944,13310077
5945,13307001
5946,13327580
5947,13362422
5948,13216704
5949,13384891
5950,13379098
5951,13161613
5952,13350037
5953,13271032
5954,13347819
5955,13229845
5956,13361351
5957,13316394
5958,13320694
5959,13320694
5960,13370535
5961,13286452
5962,13311078
5963,13470953
5964,13362913
5965,13343877
5966,13337862
5967,13279403
5968,13237842
5969,13320266
5970,13218252
5971,13348342
5972,13156972
5973,13204178
5974,13287434
5975,13433553
5976,13255435
5977,13376282
5978,13376282
5979,13270623
5980,13293699
5981,13259890
5982,13259890
5983,13292045
5984,13343877
5985,13325233
5986,13301205
5987,13299080
5988,13261912
5989,13366848
5990,13377182
5991,13203830
5992,13255982
5993,13247225
5994,13254307
5995,13376889
5996,13326381
5997,13352100
5998,13287854
5999,13285095
6000,13234273
6001,13271615
6002,13218106
6003,13242171
6004,13323326
6005,13301073
6006,13316984
6007,13311158
6008,13175134
6009,13368062
6010,13302331
6011,13279633
6012,13379333
6013,13379333
6014,13207691
6015,13233075
6016,13254741
6017,13316033
6018,13316033
6019,13196972
6020,13309213
6021,13378310
6022,13263199
6023,13206605
6024,13237470
6025,13310200
6026,13334699
6027,13334091
6028,13293041
6029,13263851
6030,13205791
6031,13404042
6032,13366357
6033,13242986
6034,13305161
6035,13303960
6036,13262334
6037,13251386
6038,13251386
6039,13234931
6040,13256426
6041,13308453
6042,13235050
6043,13264113
6044,13324990
6045,13352596
6046,13326932
6047,13423915
6048,13325447
6049,13320318
6050,13280437
6051,13182781
6052,13280631
6053,13234378
6054,13255928
6055,13328097
6056,13317804
6057,13418570
6058,13340392
6059,13319419
6060,13314648
6061,13322808
6062,13320483
6063,13287191
6064,13357575
6065,13305234
6066,13380059
6067,13285836
6068,13393776
6069,13284006
6070,13230151
6071,13340623
6072,13340623
6073,13196389
6074,13344390
6075,13429634
6076,13433553
6077,13262595
6078,13333842
6079,13381640
6080,13459399
6081,13230194
6082,13223775
6083,13328378
6084,13313552
6085,13336623
6086,13221711
6087,13333947
6088,13353798
6089,13287647
6090,13284382
6091,13197424
6092,13199682
6093,13350810
6094,13332885
6095,13261856
6096,13333092
6097,13298622
6098,13249246
6099,13253009
6100,13303193
6101,13255739
6102,13202874
6103,13342691
6104,13224569
6105,13223819
6106,13238901
6107,13290313
6108,13317528
6109,13304804
6110,13346756
6111,13254505
6112,13391522
6113,13343157
6114,13228111
6115,13256139
6116,13327087
6117,13355883
6118,13235950
6119,13301893
6120,13248585
6121,13298096
6122,13318332
6123,13240345
6124,13235492
6125,13259987
6126,13436707
6127,13360310
6128,13360310
6129,13360310
6130,13360310
6131,13360310
6132,13360310
6133,13245579
6134,13268737
6135,13268737
6136,13329776
6137,13262186
6138,13327917
6139,13291450
6140,13437564
6141,13204876
6142,13191489
6143,13262919
6144,13413354
6145,13243383
6146,13257353
6147,13254884
6148,13274714
6149,13464439
6150,13524340
6151,13253295
6152,13318229
6153,13443229
6154,13230667
6155,13370861
6156,13272747
6157,13300050
6158,13315563
6159,13285512
6160,13280425
6161,13328524
6162,13328524
6163,13287181
6164,13328524
6165,13328524
6166,13264942
6167,13324265
6168,13353916
6169,13353916
6170,13353916
6171,13279876
6172,13333865
6173,13246372
6174,13210139
6175,13319812
6176,13354816
6177,13380730
6178,13271599
6179,13349760
6180,13353278
6181,13353278
6182,13273374
6183,13345062
6184,13310768
6185,13233623
6186,13305487
6187,13377418
6188,13311139
6189,13362504
6190,13297219
6191,13334531
6192,13203306
6193,13276757
6194,13237797
6195,13226897
6196,13230717
6197,13311222
6198,13348718
6199,13309669
6200,13225867
6201,13411389
6202,13346460
6203,13304887
6204,13280648
6205,13234095
6206,13270064
6207,13298611
6208,13298611
6209,13300404
6210,13269591
6211,13417644
6212,13295059
6213,13368667
6214,13292062
6215,13318327
6216,13298447
6217,13248580
6218,13257579
6219,13272377
6220,13389336
6221,13231840
6222,13405640
6223,13313367
6224,13313367
6225,13311837
6226,13255777
6227,13362081
6228,13250170
6229,13329939
6230,13383358
6231,13304986
6232,13293892
6233,13285115
6234,13279774
6235,13302557
6236,13260728
6237,13260728
6238,13287434
6239,13338426
6240,13275693
6241,13400932
6242,13294503
6243,13285411
6244,13326921
6245,13298756
6246,13438438
6247,13439522
6248,13355379
6249,13314473
6250,13314473
6251,13324582
6252,13365385
6253,13237709
6254,13324820
6255,13402758
6256,13330856
6257,13330864
6258,13347641
6259,13235699
6260,13375924
6261,13334043
6262,13341743
6263,13335125
6264,13328202
6265,13312937
6266,13220651
6267,13346612
6268,13239325
6269,13255341
6270,13341601
6271,13188929
6272,13303123
6273,13295166
6274,13295166
6275,13235388
6276,13231556
6277,13309273
6278,13236983
6279,13253050
6280,13230208
6281,13293277
6282,13245861
6283,13458271
6284,13252479
6285,13301918
6286,13250134
6287,13321588
6288,13326092
6289,13256372
6290,13261597
6291,13345658
6292,13415324
6293,13281242
6294,13248788
6295,13282001
6296,13212494
6297,13281694
6298,13405460
6299,13276949
6300,13277774
6301,13362326
6302,13308680
6303,13245861
6304,13220331
6305,13255882
6306,13303939
6307,13346829
6308,13240120
6309,13264822
6310,13293211
6311,13355765
6312,13253900
6313,13410139
6314,13275592
6315,13214568
6316,13351733
6317,13359037
6318,13223644
6319,13368205
6320,13319899
6321,13345589
6322,13331504
6323,13251997
6324,13362545
6325,13349129
6326,13328704
6327,13328704
6328,13328704
6329,13347884
6330,13255496
6331,13318508
6332,13352009
6333,13166250
6334,13268116
6335,13312910
6336,13263703
6337,13359250
6338,13266115
6339,13371012
6340,13258949
6341,13255599
6342,13428259
6343,13227165
6344,13267154
6345,13311879
6346,13325681
6347,13370739
6348,13270952
6349,13381294
6350,13424550
6351,13321091
6352,13346982
6353,13324950
6354,13416074
6355,13307730
6356,13259374
6357,13404773
6358,13312341
6359,13426589
6360,13390107
6361,13494864
6362,13262478
6363,13328488
6364,13242755
6365,13313135
6366,13306665
6367,13316766
6368,13471217
6369,13305960
6370,13359054
6371,13310273
6372,13457358
6373,13457358
6374,13403627
6375,13327452
6376,13337896
6377,13265086
6378,13268458
6379,13369716
6380,13383795
6381,13237252
6382,13321578
6383,13319899
6384,13350474
6385,13306991
6386,13321092
6387,13231236
6388,13348929
6389,13348929
6390,13275227
6391,13318079
6392,13203931
6393,13312333
6394,13225571
6395,13246654
6396,13274713
6397,13417897
6398,13361201
6399,13361201
6400,13255857
6401,13328952
6402,13217353
6403,13243782
6404,13351508
6405,13294850
6406,13323123
6407,13429634
6408,13325804
6409,13287492
6410,13355954
6411,13351022
6412,13315639
6413,13324235
6414,13417602
6415,13253280
6416,13295295
6417,13306670
6418,13341837
6419,13324923
6420,13324923
6421,13340392
6422,13309342
6423,13306237
6424,13228947
6425,13322288
6426,13253334
6427,13308266
6428,13245242
6429,13419904
6430,13311201
6431,13357994
6432,13212648
6433,13273466
6434,13271507
6435,13236141
6436,13386206
6437,13424994
6438,13225430
6439,13487268
6440,13487268
6441,13365880
6442,13359037
6443,13359037
6444,13292029
6445,13325473
6446,13278975
6447,13378630
6448,13423915
6449,13324689
6450,13217906
6451,13287993
6452,13253052
6453,13296806
6454,13317382
6455,13287416
6456,13410336
6457,13454674
6458,13283680
6459,13273671
6460,13322279
6461,13345658
6462,13317564
6463,13370506
6464,13230276
6465,13253121
6466,13370739
6467,13272341
6468,13271294
6469,13305487
6470,13321016
6471,13310378
6472,13180208
6473,13258736
6474,13224156
6475,13300101
6476,13345343
6477,13345343
6478,13309114
6479,13345062
6480,13310972
6481,13256186
6482,13318251
6483,13318251
6484,13336251
6485,13248625
6486,13366296
6487,13216037
6488,13216583
6489,13301827
6490,13256856
6491,13234673
6492,13418871
6493,13293735
6494,13401985
6495,13217360
6496,13179848
6497,13434467
6498,13368965
6499,13213768
6500,13371691
6501,13332291
6502,13327580
6503,13229480
6504,13242174
6505,13277401
6506,13237972
6507,13287059
6508,13168713
6509,13283557
6510,13333931
6511,13346597
6512,13214145
6513,13240053
6514,13231955
6515,13336633
6516,13197338
6517,13292980
6518,13243651
6519,13263160
6520,13288234
6521,13299339
6522,13357076
6523,13384932
6524,13317101
6525,13256849
6526,13327691
6527,13247992
6528,13308289
6529,13321420
6530,13244019
6531,13307978
6532,13271138
6533,13235129
6534,13258470
6535,13390121
6536,13390121
6537,13289676
6538,13289676
6539,13320374
6540,13318079
6541,13313208
6542,13416130
6543,13256139
6544,13313479
6545,13235570
6546,13264367
6547,13370506
6548,13258822
6549,13425424
6550,13209863
6551,13324235
6552,13291382
6553,13290286
6554,13292007
6555,13321370
6556,13321019
6557,13216156
6558,13217852
6559,13206753
6560,13309669
6561,13300848
6562,13320206
6563,13370907
6564,13292613
6565,13273811
6566,13291539
6567,13417602
6568,13361219
6569,13267226
6570,13283481
6571,13334157
6572,13358198
6573,13266441
6574,13259351
6575,13381905
6576,13336826
6577,13389841
6578,13242912
6579,13328808
6580,13293125
6581,13391769
6582,13241037
6583,13301230
6584,13352629
6585,13355528
6586,13380166
6587,13284101
6588,13358593
6589,13429766
6590,13252152
6591,13344103
6592,13370401
6593,13238230
6594,13244218
6595,13238231
6596,13456019
6597,13336582
6598,13399767
6599,13336368
6600,13270996
6601,13321739
6602,13314337
6603,13307860
6604,13325958
6605,13257436
6606,13244218
6607,13364801
6608,13202747
6609,13424768
6610,13291472
6611,13350547
6612,13368263
6613,13271225
6614,13354331
6615,13312731
6616,13247000
6617,13416074
6618,13322288
6619,13270876
6620,13318076
6621,13170962
6622,13314487
6623,13266090
6624,13287262
6625,13211520
6626,13343607
6627,13343607
6628,13285635
6629,13211216
6630,13352767
6631,13290929
6632,13276012
6633,13322000
6634,13373067
6635,13373067
6636,13245881
6637,13251478
6638,13301875
6639,13320694
6640,13218085
6641,13279414
6642,13408330
6643,13343928
6644,13343928
6645,13274403
6646,13300848
6647,13240701
6648,13385686
6649,13260820
6650,13276465
6651,13288910
6652,13439078
6653,13288910
6654,13255324
6655,13370309
6656,13255227
6657,13319884
6658,13313125
6659,13289375
6660,13289375
6661,13390067
6662,13293942
6663,13224582
6664,13350539
6665,13301924
6666,13261511
6667,13261511
6668,13184577
6669,13213896
6670,13257051
6671,13451668
6672,13309282
6673,13265156
6674,13310681
6675,13367172
6676,13394582
6677,13352759
6678,13315248
6679,13481934
6680,13126117
6681,13372140
6682,13192258
6683,13287779
6684,13287906
6685,13267057
6686,13334601
6687,13223469
6688,13368521
6689,13214665
6690,13295674
6691,13295674
6692,13321196
6693,13497192
6694,13288532
6695,13310587
6696,13287909
6697,13343392
6698,13433680
6699,13324309
6700,13325841
6701,13409018
6702,13313581
6703,13323645
6704,13407977
6705,13225788
6706,13257370
6707,13327255
6708,13243486
6709,13218622
6710,13277734
6711,13258283
6712,13193781
6713,13328256
6714,13275181
6715,13360310
6716,13337077
6717,13299659
6718,13254520
6719,13326853
6720,13326853
6721,13410139
6722,13334347
6723,13249080
6724,13239965
6725,13294208
6726,13245293
6727,13328267
6728,13251914
6729,13381370
6730,13248552
6731,13294767
6732,13368441
6733,13368441
6734,13306262
6735,13242429
6736,13236048
6737,13407977
6738,13310681
6739,13283109
6740,13314011
6741,13265426
6742,13309944
6743,13306592
6744,13268689
6745,13258136
6746,13322961
6747,13297617
6748,13243081
6749,13386118
6750,13366436
6751,13247573
6752,13283133
6753,13255862
6754,13227678
6755,13270672
6756,13179668
6757,13317616
6758,13317616
6759,13267000
6760,13283628
6761,13292875
6762,13249760
6763,13307755
6764,13326431
6765,13326431
6766,13326431
6767,13294767
6768,13277215
6769,13247921
6770,13371238
6771,13371238
6772,13371238
6773,13272803
6774,13308160
6775,13186683
6776,13267816
6777,13266621
6778,13345267
6779,13304615
6780,13208227
6781,13404041
6782,13293228
6783,13314905
6784,13314905
6785,13236706
6786,13223535
6787,13230217
6788,13336582
6789,13225306
6790,13351507
6791,13231191
6792,13312239
6793,13243459
6794,13287817
6795,13352009
6796,13352009
6797,13281016
6798,13318794
6799,13364826
6800,13231062
6801,13280550
6802,13279277
6803,13405786
6804,13298447
6805,13317528
6806,13357743
6807,13234001
6808,13329121
6809,13264270
6810,13250257
6811,13319821
6812,13327554
6813,13335107
6814,13346032
6815,13351515
6816,13313527
6817,13337822
6818,13294185
6819,13381899
6820,13222635
6821,13238208
6822,13313208
6823,13313208
6824,13318079
6825,13231412
6826,13364385
6827,13321583
6828,13299605
6829,13309680
6830,13206197
6831,13300111
6832,13263381
6833,13362573
6834,13350216
6835,13213917
6836,13261695
6837,13261695
6838,13271117
6839,13338344
6840,13301011
6841,13223996
6842,13232362
6843,13215499
6844,13217232
6845,13336376
6846,13256298
6847,13284741
6848,13271539
6849,13298490
6850,13318955
6851,13317842
6852,13282059
6853,13248741
6854,13359792
6855,13481934
6856,13341012
6857,13330788
6858,13301926
6859,13301926
6860,13303681
6861,13293699
6862,13421766
6863,13227440
6864,13301313
6865,13248413
6866,13355944
6867,13363903
6868,13288232
6869,13349597
6870,13201226
6871,13295871
6872,13259285
6873,13258835
6874,13300643
6875,13308200
6876,13214359
6877,13302421
6878,13194578
6879,13352173
6880,13328724
6881,13250745
6882,13231290
6883,13318332
6884,13232280
6885,13364745
6886,13240818
6887,13415886
6888,13300764
6889,13304592
6890,13260784
6891,13363068
6892,13363068
6893,13255465
6894,13362504
6895,13418871
6896,13418871
6897,13322664
6898,13227125
6899,13397812
6900,13254112
6901,13219010
6902,13295299
6903,13275525
6904,13467914
6905,13255331
6906,13246775
6907,13278935
6908,13279506
6909,13399413
6910,13349981
6911,13328347
6912,13345989
6913,13200391
6914,13312341
6915,13299799
6916,13324267
6917,13287191
6918,13238078
6919,13284804
6920,13282068
6921,13184644
6922,13184644
6923,13269013
6924,13294129
6925,13251885
6926,13308680
6927,13306181
6928,13457231
6929,13261318
6930,13354511
6931,13267226
6932,13409185
6933,13367013
6934,13365796
6935,13388314
6936,13348787
6937,13274509
6938,13337446
6939,13309203
6940,13309203
6941,13285291
6942,13328267
6943,13255237
6944,13192800
6945,13276212
6946,13265542
6947,13254663
6948,13259431
6949,13330850
6950,13361096
6951,13259598
6952,13246451
6953,13350640
6954,13329267
6955,13355944
6956,13329872
6957,13281672
6958,13346372
6959,13214139
6960,13308807
6961,13261190
6962,13261378
6963,13300768
6964,13264059
6965,13256350
6966,13137206
6967,13417004
6968,13417004
6969,13417004
6970,13222946
6971,13230077
6972,13228299
6973,13266886
6974,13252479
6975,13389841
6976,13321072
6977,13325523
6978,13305910
6979,13310981
6980,13296301
6981,13308680
6982,13343949
6983,13276696
6984,13220884
6985,13268281
6986,13204587
6987,13292753
6988,13371691
6989,13350307
6990,13333931
6991,13301154
6992,13286932
6993,13254021
6994,13334261
6995,13204288
6996,13427082
6997,13364826
6998,13347158
6999,13316766
7000,13324923
7001,13279510
7002,13351734
7003,13334409
7004,13398823
7005,13360310
7006,13308717
7007,13338658
7008,13289946
7009,13361183
7010,13250144
7011,13251634
7012,13224142
7013,13281108
7014,13254583
7015,13184798
7016,13319604
7017,13283595
7018,13359932
7019,13196842
7020,13171522
7021,13229526
7022,13362494
7023,13362494
7024,13355178
7025,13296810
7026,13335828
7027,13310454
7028,13280285
7029,13473903
7030,13366296
7031,13239023
7032,13323509
7033,13350396
7034,13319183
7035,13239150
7036,13377746
7037,13201773
7038,13200489
7039,13281917
7040,13406354
7041,13406354
7042,13345547
7043,13294290
7044,13262460
7045,13327328
7046,13429359
7047,13362494
7048,13325518
7049,13436838
7050,13328883
7051,13180378
7052,13250650
7053,13227540
7054,13294100
7055,13353196
7056,13385150
7057,13284738
7058,13324413
7059,13189153
7060,13189438
7061,13259796
7062,13256434
7063,13256870
7064,13394196
7065,13183655
7066,13380672
7067,13379323
7068,13377418
7069,13205081
7070,13261420
7071,13331471
7072,13353354
7073,13353354
7074,13427006
7075,13353354
7076,13273703
7077,13211589
7078,13241295
7079,13365385
7080,13300111
7081,13403627
7082,13327261
7083,13412953
7084,13413446
7085,13431017
7086,13268086
7087,13257750
7088,13262529
7089,13331150
7090,13363766
7091,13370064
7092,13405470
7093,13296827
7094,13191728
7095,13374281
7096,13351022
7097,13368521
7098,13251856
7099,13279008
7100,13276147
7101,13235138
7102,13200881
7103,13200881
7104,13270708
7105,13242903
7106,13317600
7107,13252087
7108,13257429
7109,13246867
7110,13321659
7111,13321659
7112,13373247
7113,13549094
