mutation probability,generation size,survivor fraction,parent fraction,generation size multiplied by iterations until convergence 1,generation size multiplied by iterations until convergence 2,generation size multiplied by iterations until convergence 3,generation size multiplied by iterations until convergence 4,generation size multiplied by iterations until convergence 5,generation size multiplied by iterations until convergence 6,generation size multiplied by iterations until convergence 7,generation size multiplied by iterations until convergence 8,generation size multiplied by iterations until convergence 9,generation size multiplied by iterations until convergence 10,generation size multiplied by iterations until convergence 11,generation size multiplied by iterations until convergence 12,generation size multiplied by iterations until convergence 13,generation size multiplied by iterations until convergence 14,generation size multiplied by iterations until convergence 15,generation size multiplied by iterations until convergence 16,generation size multiplied by iterations until convergence 17,generation size multiplied by iterations until convergence 18,generation size multiplied by iterations until convergence 19,generation size multiplied by iterations until convergence 20,generation size multiplied by iterations until convergence 21,generation size multiplied by iterations until convergence 22,generation size multiplied by iterations until convergence 23,generation size multiplied by iterations until convergence 24,generation size multiplied by iterations until convergence 25,generation size multiplied by iterations until convergence 26,generation size multiplied by iterations until convergence 27,generation size multiplied by iterations until convergence 28,generation size multiplied by iterations until convergence 29,generation size multiplied by iterations until convergence 30,generation size multiplied by iterations until convergence 31,generation size multiplied by iterations until convergence 32,generation size multiplied by iterations until convergence 33,generation size multiplied by iterations until convergence 34,generation size multiplied by iterations until convergence 35,generation size multiplied by iterations until convergence 36,generation size multiplied by iterations until convergence 37,generation size multiplied by iterations until convergence 38,generation size multiplied by iterations until convergence 39,generation size multiplied by iterations until convergence 40,generation size multiplied by iterations until convergence 41,generation size multiplied by iterations until convergence 42,generation size multiplied by iterations until convergence 43,generation size multiplied by iterations until convergence 44,generation size multiplied by iterations until convergence 45,generation size multiplied by iterations until convergence 46,generation size multiplied by iterations until convergence 47,generation size multiplied by iterations until convergence 48,generation size multiplied by iterations until convergence 49,generation size multiplied by iterations until convergence 50,
1,2048,16,1,34125824,4599808,4122624,21387264,24838144,8775680,56025088,57217024,10622976,1972224,2379776,17428480,8873984,27711488,39542784,11585536,1269760,12179456,48994304,315392,28811264,22654976,3336192,11517952,3508224,1998848,6477824,35827712,28080128,14372864,10731520,30576640,6092800,18372608,15910912,16652288,7794688,46669824,24653824,7051264,3266560,28057600,28461056,15745024,31868928,17932288,1576960,2629632,21567488,29949952,
1,2048,32,1,46735360,18642944,26787840,37599232,3223552,24180736,6537216,12230656,15722496,10463232,2379776,118784,20445184,3018752,47828992,11585536,18008064,54124544,35319808,2795520,17014784,20097024,42676224,18221056,8286208,17436672,13225984,56381440,4626432,7731200,3309568,780288,15286272,10838016,1466368,8867840,5408768,1886208,387072,13322240,8529920,30625792,5181440,1251328,27744256,13342720,2897920,27119616,94693376,3571712,
1,2048,64,1,22839296,96256,33249280,4829184,14700544,26974208,17393664,10452992,860160,18710528,13932544,7010304,65536,17709056,3844096,8548352,14835712,67559424,5183488,14288896,7084032,33935360,4999168,15519744,4767744,21755904,10467328,8265728,333824,13393920,11001856,8196096,50286592,11900928,17831936,5783552,862208,16656384,39452672,50702336,3428352,159744,65490944,24375296,23298048,27723776,21784576,18284544,42262528,3571712,
1,2048,128,1,17844224,48914432,31401984,950272,12681216,6494208,3399680,3174400,11902976,31778816,3364864,15843328,39790592,10696704,3301376,3928064,1271808,4294656,5423104,11284480,63303680,20097024,3627008,479232,7192576,9740288,6477824,331776,32892928,18239488,23236608,5967872,4169728,42575872,33886208,31510528,4798464,32169984,26423296,2297856,18833408,5924864,5634048,18329600,5060608,7333888,9619456,5908480,16369664,5392384,
1,2048,256,1,17844224,48914432,31401984,950272,12681216,6494208,3399680,3174400,11902976,31778816,3364864,15843328,39790592,10696704,3301376,3928064,1271808,4294656,5423104,11284480,63303680,20097024,3627008,479232,7192576,9740288,6477824,331776,32892928,18239488,23236608,5967872,4169728,42575872,33886208,31510528,4798464,32169984,26423296,2297856,18833408,5924864,5634048,18329600,5060608,7333888,9619456,5908480,16369664,5392384,
1,4096,16,1,3600384,66142208,21110784,15937536,15450112,27844608,40767488,17154048,50831360,2560000,8347648,17264640,954368,21389312,1724416,13168640,2101248,14761984,26591232,26251264,9293824,15286272,4030464,3833856,29081600,69632,21667840,2670592,7409664,57180160,10829824,4288512,12869632,2502656,23515136,1347584,5410816,4894720,19783680,1363968,557056,18923520,14184448,1343488,7901184,2371584,4206592,24276992,5844992,5013504,
1,4096,32,1,18001920,8794112,4100096,12169216,16076800,19542016,23977984,9596928,16920576,2560000,19456000,15671296,14061568,5922816,68136960,1691648,21831680,61894656,13733888,3334144,17469440,9506816,35565568,4812800,9166848,9838592,18391040,241664,13979648,25653248,6082560,950272,15900672,8585216,14483456,1298432,1155072,598016,31772672,16384000,14135296,3170304,25665536,7819264,3723264,20422656,9523200,47448064,3260416,13373440,
1,4096,64,1,27000832,50122752,30547968,3010560,39890944,4497408,4579328,2523136,4427776,106496,13225984,16072704,954368,11833344,43008000,9924608,53518336,57954304,3162112,3833856,27226112,44830720,11059200,49201152,12128256,10866688,14249984,22413312,7393280,5050368,30924800,14159872,2248704,14467072,28459008,258048,1466368,2990080,5472256,331776,65392640,40087552,9244672,12222464,5959680,11886592,19984384,20848640,7987200,167936,
1,4096,128,1,57344,6074368,10539008,7294976,4964352,1622016,1318912,27848704,5275648,2985984,39522304,78798848,954368,3145728,3846144,24375296,4845568,630784,32698368,14290944,16318464,3129344,2809856,6692864,3534848,4861952,17498112,5672960,12619776,3493888,757760,5632000,8826880,23805952,62668800,1204224,872448,2990080,30175232,5496832,14688256,70901760,987136,23629824,19296256,43159552,53645312,7106560,10620928,2895872,
1,4096,256,1,2904064,1019904,8454144,16183296,23769088,12664832,22937600,16199680,20488192,26959872,3817472,8294400,1609728,18087936,3190784,8138752,63340544,630784,4845568,458752,19415040,5877760,1019904,23187456,7917568,9347072,4145152,4530176,49942528,35102720,58818560,1544192,19451904,20856832,14483456,10981376,4800512,27348992,7577600,5804032,10973184,9154560,5464064,5730304,385024,1777664,3735552,2510848,21835776,30158848,
1,8192,16,1,29917184,15040512,9551872,4653056,2195456,7110656,60506112,28942336,3440640,2449408,14368768,20758528,18432000,36888576,40820736,38674432,2203648,17367040,10854400,3776512,581632,18997248,2916352,13705216,2990080,18309120,4128768,32563200,4063232,33095680,3227648,50831360,4317184,23928832,794624,2293760,29900800,770048,7987200,4718592,2203648,5873664,4284416,14344192,12902400,6946816,60137472,8478720,9494528,4038656,
1,8192,32,1,3227648,12754944,43081728,2883584,55640064,49463296,61300736,4030464,26165248,6307840,2514944,8421376,13910016,31539200,1605632,19161088,14032896,1540096,19636224,4587520,811008,27549696,7585792,1204224,1892352,843776,16269312,1449984,19054592,3506176,5193728,56860672,917504,20152320,3465216,11124736,9117696,18014208,3719168,12353536,31072256,15753216,11231232,12025856,3719168,14417920,22003712,20979712,21495808,16023552,
1,8192,64,1,50651136,76423168,4554752,4653056,12124160,139264,24576000,9814016,8560640,1851392,18440192,33333248,18481152,19628032,2736128,77152256,13393920,1359872,1859584,15482880,811008,22224896,991232,13705216,2138112,24977408,20135936,6365184,7815168,23838720,3153920,14393344,17752064,3932160,62218240,8650752,102187008,18759680,10002432,3612672,16965632,25632768,13410304,9117696,17055744,9076736,22601728,12541952,35266560,16826368,
1,8192,128,1,11878400,19922944,20422656,2260992,22241280,33193984,25362432,1794048,78618624,2949120,31850496,48218112,958464,15220736,43638784,2080768,50151424,29777920,35536896,13000704,7208960,6660096,5464064,1204224,27115520,1114112,13901824,6504448,1826816,63078400,1400832,5636096,4685824,5431296,9445376,10338304,26419200,2228224,958464,14942208,38772736,19685376,14958592,19202048,12271616,139264,6078464,29155328,11476992,2072576,
1,8192,256,1,15810560,18137088,41574400,23732224,16351232,106496,5611520,23240704,23838720,24428544,9682944,28475392,770048,11517952,1261568,8855552,2523136,35733504,10493952,3473408,466944,5357568,68214784,21012480,43892736,6045696,6275072,39731200,1900544,983040,45694976,34938880,11747328,3457024,11870208,14778368,3612672,39780352,7757824,9207808,7716864,1056768,26583040,4644864,22298624,40042496,11067392,46432256,34086912,8167424,
1,16384,16,1,4145152,70811648,1064960,46579712,17121280,360448,4341760,51609600,6209536,14630912,35504128,16433152,4390912,7880704,5537792,65536,37240832,1228800,2916352,3162112,10862592,3506176,71106560,9388032,15286272,34160640,6455296,12451840,11730944,409600,770048,2686976,13844480,18628608,1163264,16105472,3571712,47759360,37158912,10485760,11059200,11010048,13189120,5111808,2719744,6766592,41156608,110706688,12910592,2080768,
1,16384,32,1,28426240,18628608,32686080,8126464,8306688,10780672,31145984,46071808,2621440,43991040,5521408,21430272,12484608,73777152,5439488,5767168,2048000,1310720,11239424,6438912,3522560,8339456,15007744,21381120,10371072,7946240,31686656,4882432,2686976,6651904,13664256,16973824,16695296,60588032,8699904,2916352,14286848,31834112,12091392,21774336,31752192,15220736,540672,34734080,7028736,6029312,23035904,2916352,4046848,5685248,
1,16384,64,1,6062080,3637248,6356992,5799936,2818048,8716288,6062080,46383104,51937280,31047680,589824,1245184,14139392,15712256,2015232,18038784,54657024,8552448,7045120,15712256,13533184,6078464,58081280,44007424,17743872,3653632,17268736,17973248,4554752,9437184,16072704,4112384,868352,35192832,19382272,6782976,14925824,8241152,6701056,47677440,39452672,12615680,5849088,73302016,23199744,19349504,55918592,19120128,5488640,17530880,
1,16384,128,1,1490944,13139968,48562176,15302656,5341184,13484032,1507328,23937024,21250048,24330240,11730944,2195456,3751936,21282816,30425088,18038784,21037056,13008896,22315008,18382848,21086208,5046272,15122432,14434304,25968640,12451840,22986752,54902784,11943936,2834432,2736128,45858816,7045120,8339456,12926976,10567680,7602176,9699328,13238272,163840,5570560,32571392,8798208,79708160,10502144,5586944,62242816,2080768,12337152,32374784,
1,16384,256,1,8683520,11894784,18890752,39354368,2818048,4456448,14041088,7192576,6389760,7962624,29966336,7847936,966656,8355840,47775744,10649600,32915456,5308416,1589248,2064384,75202560,16056320,8323072,24723456,3932160,1458176,1982464,27508736,7356416,5210112,10649600,12091392,2981888,11812864,8880128,28393472,16859136,8749056,1966080,163840,30588928,2457600,2342912,131072,11108352,6422528,29687808,13844480,7995392,8454144,
1,32768,16,1,19431424,5537792,1572864,196608,1277952,16580608,30539776,10256384,28999680,3080192,43843584,18350080,5963776,425984,16580608,12419072,11796480,3047424,43974656,15532032,17137664,78643200,7405568,36110336,27557888,20807680,3735552,2326528,5013504,20414464,9535488,62685184,43417600,14090240,3604480,16613376,49283072,3637248,9469952,9142272,14942208,22872064,95322112,13041664,18579456,24313856,18939904,45121536,28737536,7274496,
1,32768,32,1,38600704,20611072,2654208,23560192,41418752,5603328,5013504,4194304,1802240,20086784,6750208,4292608,23068672,2260992,28966912,37683200,2424832,17498112,5799936,9469952,20054016,10551296,10387456,17661952,2916352,25755648,8552448,8159232,26574848,8192000,12681216,61669376,7143424,13041664,360448,20021248,196608,2228224,819200,1900544,5210112,8388608,34045952,8290304,24215552,1146880,48267264,4751360,19955712,7274496,
1,32768,64,1,28770304,3375104,48562176,19595264,46071808,8486912,65699840,9142272,3178496,5570560,49610752,13008896,4390912,14811136,5308416,884736,6782976,32735232,18022400,17858560,23429120,589824,15564800,4718592,1081344,6815744,17694720,491520,22446080,25952256,7634944,31424512,11075584,8355840,11665408,15138816,36569088,9928704,26542080,13664256,80543744,10158080,18087936,13926400,51871744,262144,2850816,30081024,1966080,7274496,
1,32768,128,1,28540928,4227072,7077888,17039360,9404416,11829248,20905984,20217856,18939904,49315840,13533184,13008896,17334272,14024704,9273344,5046272,17203200,32178176,19595264,8781824,12058624,35258368,11206656,41353216,24805376,1933312,3997696,2195456,6979584,13565952,14581760,64716800,8552448,4521984,8486912,18808832,655360,4620288,13074432,11403264,10616832,7012352,7340032,17465344,40566784,29917184,8585216,4718592,28344320,15663104,
1,32768,256,1,24051712,6488064,21921792,14876672,33062912,3080192,262144,23986176,32276480,38076416,92471296,25690112,10518528,11304960,26771456,1802240,30015488,45449216,360448,6619136,32210944,950272,17760256,393216,23822336,9076736,5046272,23429120,8290304,15958016,31752192,16351232,4554752,1507328,22970368,11370496,7897088,13959168,12091392,50200576,5570560,61702144,33259520,26968064,9076736,9175040,9404416,15466496,1671168,52789248,
2,2048,16,1,12828672,16521216,7866368,6541312,10285056,1634304,11065344,18642944,7510016,2609152,1089536,1533952,3330048,1853440,6868992,2228224,1079296,3588096,20418560,9707520,11204608,1724416,13277184,11599872,3153920,27187200,3809280,8228864,11577344,3592192,26683392,9996288,4261888,1398784,5834752,1517568,13824000,3577856,6113280,8568832,5785600,6731776,3647488,17672192,14987264,1912832,2070528,364544,10450944,6488064,
2,2048,32,1,2111488,866304,8663040,180224,3969024,6440960,1468416,12607488,8120320,18944000,6084608,1904640,411648,2557952,4603904,499712,3680256,12345344,8986624,1380352,4147200,3745792,1232896,13645824,10321920,774144,4468736,1525760,2160640,3373056,1200128,10567680,12679168,1312768,11716608,26624,1800192,21043200,1658880,6416384,3381248,4841472,3975168,131072,20187136,13430784,29480960,11108352,780288,6584320,
2,2048,64,1,4671488,362496,2600960,1859584,3504128,1775616,8116224,14757888,1280000,10518528,3061760,600064,12144640,3246080,5138432,4689920,413696,8026112,782336,4782080,2199552,2899968,2578432,4671488,8732672,3074048,15611904,2865152,540672,12873728,1062912,10547200,985088,227328,9086976,2148352,6991872,18716672,5255168,9881600,3708928,583680,507904,1804288,7184384,6111232,6135808,3266560,1441792,2041856,
2,2048,128,1,6483968,174080,1941504,3160064,1632256,2156544,3342336,1927168,5896192,1908736,2398208,1171456,2650112,1746944,6123520,3991552,3708928,6897664,2375680,1912832,4544512,3268608,8339456,468992,4608000,423936,5306368,6160384,7821312,1507328,13037568,2961408,1241088,12216320,4165632,2764800,3614720,1720320,569344,301056,1865728,3788800,8912896,528384,2623488,1402880,8804352,227328,4120576,1296384,
2,2048,256,1,6483968,174080,1941504,3160064,1632256,2156544,3342336,1927168,5896192,1908736,2398208,1171456,2650112,1746944,6123520,3991552,3708928,6897664,2375680,1912832,4544512,3268608,8339456,468992,4608000,423936,5306368,6160384,7821312,1507328,13037568,2961408,1241088,12216320,4165632,2764800,3614720,1720320,569344,301056,1865728,3788800,8912896,528384,2623488,1402880,8804352,227328,4120576,1296384,
2,4096,16,1,23834624,3801088,5079040,1679360,18235392,6545408,13287424,12070912,25739264,29188096,11005952,462848,770048,4153344,43433984,16379904,13135872,4317184,15167488,22073344,13271040,10330112,3174400,5095424,60358656,15224832,5681152,17297408,9056256,1200128,26001408,565248,995328,6938624,18485248,43794432,12189696,31752192,22020096,950272,10436608,4321280,1830912,10563584,573440,6053888,8990720,9793536,1204224,11231232,
2,4096,32,1,8847360,1069056,3481600,237568,3186688,995328,15888384,3751936,10383360,17580032,7086080,3346432,14151680,4222976,1081344,1568768,9699328,16044032,9678848,2588672,1462272,13553664,4669440,4595712,2695168,4702208,11317248,3448832,2682880,15204352,5971968,13508608,6565888,5844992,372736,17383424,3125248,1122304,2658304,397312,7036928,1220608,38227968,1085440,2580480,1449984,1253376,290816,14217216,3751936,
2,4096,64,1,33480704,679936,2895872,8986624,12431360,2539520,3035136,1732608,241664,6950912,5296128,651264,20312064,1835008,4608000,11157504,10543104,2912256,2347008,3198976,1843200,552960,28405760,8278016,3420160,4747264,9740288,15364096,3637248,9908224,5427200,5218304,16723968,9654272,1249280,692224,2560000,327680,3747840,2437120,2920448,3661824,2015232,29118464,12664832,5410816,1855488,1269760,299008,4571136,
2,4096,128,1,1388544,3555328,3481600,4882432,479232,2179072,8523776,12189696,3219456,3239936,16433152,2945024,4767744,3354624,1564672,13438976,4145152,2805760,212992,8183808,1843200,8273920,2392064,9531392,12488704,557056,729088,7860224,7131136,1290240,3018752,5496832,12652544,200704,5042176,4874240,9359360,3424256,757760,1126400,10792960,14938112,229376,4911104,5115904,3129344,1212416,974848,638976,8859648,
2,4096,256,1,241664,3842048,1462272,3477504,1290240,2605056,2359296,761856,8040448,856064,1785856,7004160,2314240,1835008,5140480,233472,5447680,49152,4853760,6553600,2138112,7774208,950272,1220608,2117632,3317760,5881856,4808704,14864384,11505664,2703360,3309568,655360,1716224,2228224,2371584,5533696,1040384,360448,1212416,753664,1499136,716800,6578176,319488,1933312,3170304,3772416,1097728,2105344,
2,8192,16,1,8871936,14426112,10002432,13893632,1007616,24920064,5120000,15908864,25681920,3817472,27418624,6111232,13713408,10412032,15646720,21872640,13615104,4956160,5120000,6766592,3760128,2670592,7454720,9797632,22142976,9781248,3989504,2842624,11206656,27418624,4259840,2859008,2719744,5177344,9453568,14639104,8921088,6012928,19529728,58122240,32079872,5136384,29761536,7913472,573440,7143424,6930432,7184384,7421952,7954432,
2,8192,32,1,13475840,2236416,7405568,5799936,8986624,1720320,6774784,843776,4612096,7061504,7348224,14712832,50864128,4636672,4947968,811008,40697856,18038784,385024,606208,9789440,8462336,3768320,2826240,638976,8364032,417792,2580480,958464,13148160,7340032,11673600,16441344,23150592,2908160,39518208,7348224,9150464,14737408,2146304,3637248,5701632,3301376,19873792,1056768,4308992,8863744,3497984,884736,19529728,
2,8192,64,1,2711552,19054592,13901824,7749632,7323648,3317760,3506176,2473984,466944,6283264,30941184,4808704,4030464,18866176,11501568,1826816,24952832,4096000,3284992,19701760,4628480,4423680,3555328,7897088,23093248,16179200,1425408,1802240,6676480,11558912,4128768,7036928,5267456,7806976,12419072,704512,7462912,2260992,16220160,5971968,4571136,17719296,26312704,5152768,4079616,8298496,5054464,7184384,29179904,16416768,
2,8192,128,1,286720,16809984,3489792,2940928,1974272,6496256,13524992,12279808,4554752,4259840,3481600,966656,172032,180224,884736,19226624,4243456,2752512,6520832,7372800,5595136,7102464,13631488,1646592,5095424,4366336,3530752,5799936,3334144,3915776,6324224,1351680,9420800,9945088,2588672,12238848,1589248,6897664,5890048,2924544,2514944,5513216,12615680,11517952,23650304,39206912,5251072,3301376,1515520,16113664,
2,8192,256,1,1818624,745472,1187840,450560,1261568,7839744,5603328,6848512,868352,5816320,1351680,6316032,9248768,7282688,4644864,2473984,811008,11141120,3194880,1351680,1761280,1056768,3801088,13959168,1286144,1409024,1859584,1212416,1581056,737280,10543104,3416064,4521984,8339456,3432448,1343488,3801088,786432,884736,13615104,2695168,7135232,548864,6668288,3252224,2760704,2293760,598016,18227200,2465792,
2,16384,16,1,14942208,44384256,11993088,47398912,7405568,1916928,22429696,13664256,36388864,9961472,8765440,5259264,2834432,23887872,23019520,19873792,7979008,32653312,33374208,4210688,13090816,6438912,1916928,983040,16875520,442368,4112384,16416768,19791872,13762560,9404416,25378816,14073856,13271040,6668288,2621440,868352,34062336,25231360,11960320,6766592,1228800,2867200,11534336,9060352,10010624,10354688,57524224,4800512,22642688,
2,16384,32,1,26886144,9764864,1376256,6914048,376832,2801664,8306688,13582336,16547840,1130496,9125888,4734976,14123008,23920640,2932736,8470528,16482304,6012928,3571712,8798208,4177920,20791296,10665984,4784128,33865728,46137344,5275648,1458176,6864896,37355520,6848512,4456448,37535744,9764864,12222464,17694720,28966912,14401536,31391744,5865472,5914624,20611072,4325376,65536,9060352,11698176,15040512,7766016,14270464,17072128,
2,16384,64,1,24363008,13025280,720896,10944512,6307840,12861440,16891904,5111808,20054016,5963776,4423680,17563648,4030464,21315584,3342336,15056896,4341760,11026432,9535488,1572864,1277952,1228800,6832128,13500416,2686976,14696448,2555904,14123008,4489216,13516800,16662528,42942464,9338880,1064960,10354688,15237120,16121856,1605632,14090240,8781824,10174464,13123584,4374528,7405568,6520832,14680064,2605056,26853376,28082176,7192576,
2,16384,128,1,2588672,7307264,15499264,45498368,4341760,4358144,13303808,5668864,1966080,4521984,12845056,6111232,1212416,147456,10977280,1851392,1441792,983040,5406720,26984448,10911744,2326528,13418496,39485440,360448,11943936,4784128,4145152,11272192,5898240,4194304,12517376,18464768,19513344,1146880,2277376,6930432,20742144,3604480,3932160,12795904,10731520,19152896,2801664,5292032,4194304,8830976,5865472,2228224,24412160,
2,16384,256,1,10141696,9125888,1753088,3260416,18595840,3112960,409600,1425408,11698176,2621440,14123008,1769472,6995968,4374528,2457600,2310144,3571712,2801664,5849088,5996544,4898816,2752512,8077312,376832,2031616,23576576,868352,5816320,4030464,65536,9322496,22937600,6029312,1900544,10682368,28573696,1802240,8355840,7602176,6406144,5701632,15007744,3112960,15269888,6668288,3948544,868352,524288,294912,1114112,
2,32768,16,1,9633792,24641536,39485440,62521344,11468800,8814592,4489216,5341184,9601024,6520832,2785280,3178496,1343488,11993088,11337728,13795328,9535488,19529728,4587520,3571712,31457280,163840,11730944,28737536,4358144,63438848,491520,48201728,8192000,21430272,19103744,393216,18808832,6029312,2883584,6389760,2752512,1343488,62980096,6651904,12845056,14254080,13467648,39354368,229376,2588672,15925248,7962624,3932160,76513280,
2,32768,32,1,27394048,34471936,19038208,25034752,10354688,9699328,18284544,9404416,65536,26738688,4980736,18251776,36700160,8224768,8683520,11665408,12746752,35749888,1474560,1769472,17334272,32014336,28147712,3866624,25919488,11108352,4784128,10747904,12451840,4915200,3866624,589824,12386304,2654208,1671168,425984,24576000,5111808,8028160,30015488,8126464,49774592,6029312,32210944,15826944,12615680,491520,4620288,6553600,9994240,
2,32768,64,1,4161536,1671168,27459584,14680064,24674304,5898240,40861696,3014656,7536640,3768320,11501568,14909440,24051712,16809984,6619136,1572864,19267584,4685824,17235968,3244032,11829248,1081344,3932160,6717440,1015808,89194496,524288,11730944,819200,1409024,11730944,1277952,6356992,950272,1540096,2162688,8716288,655360,16351232,14319616,6782976,34701312,22773760,12025856,950272,41582592,8749056,7307264,10190848,1245184,
2,32768,128,1,7667712,10682368,13500416,5439488,950272,11763712,294912,13729792,8486912,3112960,37748736,10780672,12025856,12713984,3604480,18219008,5373952,29458432,2097152,2064384,11763712,44236800,32047104,8716288,8192000,6193152,5505024,2129920,4718592,3276800,25362432,18022400,13008896,12255232,3440640,2785280,2752512,12582912,7405568,1671168,18481152,688128,6717440,9175040,18186240,11894784,7536640,3145728,9928704,5373952,
2,32768,256,1,851968,13762560,2686976,2981888,3833856,9863168,19595264,655360,5308416,10616832,11632640,3735552,9895936,2916352,4554752,11272192,11698176,229376,2129920,13959168,9994240,2850816,24641536,13795328,1736704,6422528,10387456,1310720,48300032,1376256,720896,2850816,13467648,3211264,4620288,3178496,1310720,9764864,1376256,3473408,19234816,4063232,5931008,1507328,5210112,1507328,24772608,11206656,1867776,9961472,
3,2048,16,1,11671552,5386240,18796544,9447424,11698176,2994176,5396480,4601856,8226816,20297728,25569280,14807040,4784128,174080,6004736,19982336,3592192,20205568,17002496,2717696,2306048,24383488,24270848,2111488,14274560,5779456,13584384,2533376,3651584,5804032,14096384,2471936,6014976,735232,10772480,11755520,155648,10395648,1304576,22673408,61440,5908480,9160704,15814656,2174976,1507328,11100160,2854912,2433024,9666560,
3,2048,32,1,6322176,909312,10788864,6182912,1421312,6146048,4360192,108544,325632,7159808,5705728,2248704,4792320,7548928,2506752,10520576,5208064,27740160,1818624,17045504,1546240,6782976,3530752,587776,12437504,9449472,2957312,1507328,15751168,8921088,9924608,7047168,280576,3688448,1994752,1712128,3143680,13271040,5615616,2430976,10397696,1400832,3360768,419840,733184,13680640,5076992,6225920,354304,36864,
3,2048,64,1,1892352,23838720,415744,5189632,2562048,569344,7036928,6338560,450560,5163008,16363520,3977216,909312,8572928,2306048,538624,464896,1720320,4212736,8159232,10776576,6328320,13393920,2633728,4841472,7454720,7497728,6502400,16566272,763904,1507328,5099520,1470464,12961792,7403520,739328,11618304,6524928,2039808,2410496,5005312,3444736,4739072,17053696,309248,2244608,21757952,3047424,2306048,3348480,
3,2048,128,1,956416,16027648,3635200,3231744,1671168,569344,1949696,831488,9379840,290816,294912,217088,7172096,9592832,7446528,5855232,7010304,4390912,3528704,14678016,468992,6148096,729088,2064384,155648,4804608,3495936,5314560,6807552,2942976,219136,587776,1021952,5582848,1064960,1009664,55296,1349632,4024320,3190784,88064,83968,1339392,4937728,17059840,3237888,4016128,321536,2856960,2967552,
3,2048,256,1,956416,16027648,3635200,3231744,1671168,569344,1949696,831488,9379840,290816,294912,217088,7172096,9592832,7446528,5855232,7010304,4390912,3528704,14678016,468992,6148096,729088,2064384,155648,4804608,3495936,5314560,6807552,2942976,219136,587776,1021952,5582848,1064960,1009664,55296,1349632,4024320,3190784,88064,83968,1339392,4937728,17059840,3237888,4016128,321536,2856960,2967552,
3,4096,16,1,32710656,3809280,1990656,5644288,6025216,8130560,8368128,15953920,19488768,1617920,4395008,9945088,2654208,2129920,3379200,13664256,7335936,3637248,4362240,17575936,5894144,790528,3956736,58785792,1359872,671744,31195136,26230784,1732608,30969856,3551232,659456,4513792,35336192,12812288,15355904,913408,4984832,11902976,2527232,6881280,8175616,7929856,12337152,1732608,5849088,434176,3960832,4468736,5881856,
3,4096,32,1,4579328,1409024,5001216,10104832,5918720,548864,6078464,15953920,5906432,8171520,13406208,5070848,3051520,3215360,7315456,1556480,2207744,1294336,8523776,8638464,679936,2560000,16510976,8130560,212992,585728,3391488,5390336,2314240,20815872,7737344,864256,3633152,532480,1429504,2916352,18305024,2584576,14741504,2125824,913408,20127744,10162176,8331264,6389760,10932224,1486848,2285568,905216,65286144,
3,4096,64,1,3391488,3923968,4218880,22827008,3461120,970752,1363968,6717440,188416,5144576,1728512,5562368,3301376,3252224,8523776,12615680,864256,1609728,819200,6615040,5894144,2551808,1228800,1884160,1871872,1667072,438272,12496896,5906432,4960256,344064,4038656,2793472,495616,3219456,23822336,6811648,2584576,12656640,8392704,40329216,10452992,1748992,1286144,2048000,499712,9371648,1470464,6762496,286720,
3,4096,128,1,307200,4333568,2285568,4018176,1867776,3911680,1302528,2015232,1671168,11747328,1454080,1703936,2396160,4538368,7966720,12529664,897024,4075520,7192576,3256320,5894144,790528,1232896,675840,10477568,6520832,4464640,2596864,724992,3289088,4603904,3903488,3567616,2768896,1187840,47128576,11706368,3153920,1523712,8294400,1380352,925696,4730880,593920,151552,7921664,1372160,2756608,2662400,1953792,
3,4096,256,1,458752,1495040,946176,716800,1699840,3379200,2027520,3280896,2465792,233472,389120,450560,1228800,10035200,1306624,45056,2535424,745472,4128768,864256,4161536,8859648,1077248,24576,10637312,2764800,8212480,495616,2646016,892928,7200768,17715200,2195456,3563520,1028096,917504,294912,548864,933888,10342400,10461184,1331200,4702208,475136,3158016,1064960,716800,1146880,823296,5132288,
3,8192,16,1,1122304,6684672,7143424,11870208,7962624,22487040,10526720,14360576,2408448,13156352,835584,45883392,8011776,11042816,13189120,10551296,11509760,12230656,90112,40763392,26673152,4521984,1515520,14139392,901120,4317184,21004288,360448,6799360,3153920,8798208,786432,2785280,1220608,9789440,27123712,16351232,26820608,573440,4931584,13303808,2613248,9625600,9977856,1351680,18210816,1613824,6651904,23158784,25804800,
3,8192,32,1,2973696,122880,12058624,11829248,1974272,1409024,2441216,4038656,2031616,1130496,5988352,16138240,5988352,13410304,212992,6438912,1204224,1703936,42377216,19259392,3014656,34168832,36044800,10452992,2048000,20848640,7258112,802816,30752768,786432,14581760,2179072,9650176,3964928,2809856,57344,8413184,2768896,7200768,13647872,11984896,14925824,12763136,24576,29474816,7708672,6643712,21905408,1105920,4718592,
3,8192,64,1,8355840,5431296,655360,2433024,1400832,1335296,6094848,4431872,557056,13516800,16367616,4579328,39706624,3399680,20537344,5038080,2670592,2375680,4481024,16564224,3039232,3907584,6725632,458752,4169728,180224,9322496,46907392,3653632,8118272,737280,8019968,24788992,2015232,770048,5644288,9314304,60088320,7176192,4415488,9895936,6479872,1220608,3497984,23584768,2056192,6643712,1359872,13877248,6111232,
3,8192,128,1,5963776,98304,21348352,2310144,4874240,3432448,15523840,3874816,11534336,3506176,4079616,7053312,2646016,1957888,1417216,1556480,4915200,8765440,4866048,2211840,2408448,8273920,6766592,10240000,4366336,196608,360448,6635520,19259392,6676480,10461184,20668416,29343744,2015232,24403968,4366336,10264576,491520,1351680,679936,4055040,9961472,8560640,6340608,4808704,1818624,1613824,10559488,31440896,14139392,
3,8192,256,1,458752,90112,9846784,10797056,2310144,13836288,352256,311296,6946816,11403264,17735680,8306688,6184960,26066944,4603904,196608,3219456,3080192,1204224,27893760,6692864,8978432,2408448,901120,13778944,761856,7331840,6512640,1228800,1720320,1753088,7053312,1597440,3301376,827392,2334720,3989504,516096,2629632,17670144,8192000,5963776,9371648,17063936,18096128,778240,1409024,10559488,6184960,15548416,
3,16384,16,1,19628032,14893056,2326528,12861440,14811136,9273344,5849088,2932736,22495232,6569984,4440064,17154048,163840,2883584,32768,2818048,3506176,26836992,4538368,15400960,14434304,19333120,21315584,6242304,12599296,3751936,39239680,1179648,24068096,15761408,819200,6815744,13598720,12173312,16351232,12517376,7602176,2703360,13402112,2342912,12304384,1966080,29409280,5406720,21528576,1441792,163840,770048,2670592,1359872,
3,16384,32,1,819200,49152,24641536,5373952,1196032,9273344,1736704,10305536,10551296,507904,5603328,5931008,7176192,9797632,9142272,2818048,278528,13238272,44662784,10043392,13107200,11403264,4390912,20234240,19431424,10027008,10436608,344064,9535488,19693568,28622848,5144576,1966080,22609920,7356416,13402112,27967488,622592,15761408,3047424,11583488,7405568,23953408,507904,1916928,19890176,15466496,17596416,6176768,10846208,
3,16384,64,1,819200,14614528,524288,12713984,7897088,10682368,6242304,671744,4276224,2932736,10862592,2310144,2048000,4210688,425984,2834432,868352,11436032,5685248,10223616,21299200,917504,2834432,704512,9224192,1081344,1277952,11059200,16416768,9109504,32702464,5570560,13336576,2834432,11010048,5275648,12697600,35061760,15941632,24231936,3981312,10502144,1294336,3293184,3719168,1310720,1966080,1409024,17776640,10207232,
3,16384,128,1,819200,15400960,2277376,6094848,12812288,11419648,1114112,6307840,7684096,4947968,11223040,24330240,21233664,15990784,45678592,5914624,19349504,11747328,6078464,33423360,14745600,1441792,10567680,1163264,5062656,212992,1015808,6799360,22183936,1048576,3670016,7405568,1032192,1163264,5750784,39419904,1294336,12713984,917504,8454144,5701632,12156928,753664,1196032,9388032,14090240,1622016,327680,20856832,2473984,
3,16384,256,1,3538944,49152,5292032,8601600,3375104,1966080,409600,7356416,12894208,6979584,17039360,12976128,9535488,2883584,12451840,2899968,2310144,6766592,40681472,12959744,2048000,1441792,1966080,1900544,1048576,2703360,10993664,20856832,10731520,1654784,2277376,43663360,1441792,8765440,10960896,15663104,6914048,18038784,2113536,16318464,5111808,8912896,1376256,29474816,2883584,2048000,901120,458752,20152320,10207232,
3,32768,16,1,3342336,1343488,15892480,17367040,32178176,2621440,25919488,22183936,11436032,45252608,15400960,5963776,3735552,12156928,983040,1933312,11927552,7962624,26935296,3899392,21397504,851968,1474560,2686976,10747904,18612224,1212416,7897088,11468800,7045120,23822336,1900544,2293760,16580608,8945664,27820032,10747904,24444928,28672000,4653056,7798784,6881280,24412160,11730944,21397504,18022400,1998848,7241728,3637248,1277952,
3,32768,32,1,1703936,10715136,3899392,20054016,8716288,5537792,786432,31031296,23592960,7045120,2981888,458752,15007744,17793024,12976128,16384000,4620288,2392064,10616832,11567104,6455296,2523136,6782976,2752512,3112960,4423680,30441472,20938752,360448,81756160,16154624,7110656,2654208,21921792,7471104,11829248,1769472,41385984,8650752,14254080,1310720,851968,8781824,2293760,16023552,1343488,18186240,13697024,491520,622592,
3,32768,64,1,13565952,36110336,14286848,8880128,11960320,8912896,1048576,8454144,20840448,2457600,8224768,229376,720896,20348928,6717440,1179648,9633792,327680,25624576,917504,8749056,38469632,21856256,524288,19431424,58851328,24772608,1507328,16908288,4915200,3735552,2981888,524288,5963776,5734400,196608,10682368,5472256,917504,14811136,5931008,31916032,21692416,10387456,3112960,15171584,25821184,262144,4653056,1015808,
3,32768,128,1,15302656,1114112,196608,3801088,25886720,25427968,2621440,17891328,3538944,23724032,4194304,26378240,5832704,4423680,6356992,10321920,17399808,5570560,983040,16023552,9371648,16187392,12255232,4784128,3112960,425984,25821184,2883584,7143424,4030464,5603328,4456448,10289152,9142272,5734400,1343488,7143424,1343488,21725184,14811136,14057472,18644992,25526272,21200896,10092544,13467648,55836672,7798784,5144576,2850816,
3,32768,256,1,17793024,3244032,4882432,4915200,3440640,6455296,622592,2031616,6062080,1310720,16154624,2031616,39747584,4423680,13926400,2850816,13434880,2162688,2523136,25198592,21364736,31686656,5210112,15826944,9371648,5046272,5570560,3407872,16318464,18382848,196608,6258688,21692416,13729792,9830400,425984,360448,24641536,16809984,983040,10616832,18186240,5308416,2490368,229376,12484608,18022400,3538944,1671168,10059776,
4,2048,16,1,9187328,2981888,1507328,25894912,26712064,13871104,36655104,583680,21542912,10405888,64376832,927744,14929920,559104,8853504,6496256,6483968,2283520,6281216,16175104,3950592,350208,1337344,3549184,966656,62732288,39532544,4628480,49301504,659456,5163008,2316288,1820672,10643456,20277248,10332160,10917888,4337664,9508864,13985792,11128832,14147584,37183488,206848,5611520,3878912,10659840,11552768,780288,23556096,
4,2048,32,1,2250752,12040192,4403200,8671232,913408,14723072,3072000,11120640,19935232,36581376,19634176,997376,21972992,882688,1196032,26673152,22788096,1495040,6223872,17700864,15276032,33650688,2873344,21035008,8228864,989184,14835712,1736704,1808384,659456,2578432,2617344,12425216,5095424,37087232,28778496,7135232,13881344,18216960,7518208,940032,26576896,13697024,202752,17270784,890880,25264128,3155968,3813376,6836224,
4,2048,64,1,15185920,612352,12288,10782720,3055616,4206592,3063808,2648064,22605824,4669440,4333568,124928,1837056,3033088,634880,4935680,1302528,28712960,7970816,13557760,1509376,11931648,11161600,5165056,3756032,4282368,4608000,59105280,13316096,2142208,1443840,10629120,7680000,1343488,968704,3479552,32718848,76580864,9711616,1112064,22511616,14487552,284672,966656,56320000,51920896,14788608,20914176,5947392,4425728,
4,2048,128,1,14108672,23955456,27207680,2492416,6281216,1546240,1728512,19015680,147456,14458880,5824512,108544,5265408,882688,5758976,15206400,6277120,1697792,3184640,7188480,2779136,6135808,18106368,1501184,4347904,180224,41670656,4880384,51707904,618496,5406720,2783232,333824,7415808,2912256,5347328,37926912,598016,47142912,11390976,5386240,14110720,23285760,3469312,31606784,2457600,74373120,3100672,30529536,10915840,
4,2048,256,1,14108672,23955456,27207680,2492416,6281216,1546240,1728512,19015680,147456,14458880,5824512,108544,5265408,882688,5758976,15206400,6277120,1697792,3184640,7188480,2779136,6135808,18106368,1501184,4347904,180224,41670656,4880384,51707904,618496,5406720,2783232,333824,7415808,2912256,5347328,37926912,598016,47142912,11390976,5386240,14110720,23285760,3469312,31606784,2457600,74373120,3100672,30529536,10915840,
4,4096,16,1,39063552,12877824,10711040,4149248,2478080,10743808,5763072,5214208,2609152,5988352,5005312,20074496,5591040,7548928,4816896,9543680,1810432,1142784,5021696,15015936,44953600,8040448,15179776,8855552,17625088,3072000,24244224,1769472,28045312,41033728,679936,2555904,19415040,3547136,3260416,3346432,4321280,15093760,6029312,3141632,2785280,17485824,24641536,3502080,17055744,4718592,16379904,10264576,20721664,8810496,
4,4096,32,1,59428864,36864,7417856,58105856,7446528,25993216,17354752,4030464,10883072,34947072,28561408,3874816,6049792,12316672,2625536,962560,757760,99692544,5324800,2068480,7479296,23392256,7090176,20471808,663552,7135232,12652544,2883584,5423104,12726272,24842240,2555904,14610432,26308608,14004224,3350528,9506816,11337728,13045760,5419008,6516736,36769792,19247104,9158656,4071424,5169152,17006592,3235840,925696,24707072,
4,4096,64,1,151552,2920448,12152832,12701696,3534848,274432,3375104,1449984,19955712,2244608,14348288,10166272,5652480,19419136,4521984,2752512,11018240,7528448,3493888,10608640,25579520,7737344,51367936,4063232,663552,55164928,50704384,2883584,2871296,3674112,10964992,26755072,4943872,11505664,1519616,15269888,9506816,33705984,8986624,3104768,20525056,11309056,24645632,372736,6631424,32698368,6160384,1585152,1773568,6410240,
4,4096,128,1,118784,2920448,17608704,58376192,3391488,647168,6049792,851968,8392704,38842368,7962624,3694592,2314240,19107840,7696384,14188544,503808,905216,2547712,2326528,34160640,2437120,6029312,44421120,663552,14258176,12374016,2883584,3686400,974848,24236032,3137536,557056,27447296,57577472,41750528,5902336,438272,29589504,991232,12541952,69451776,7110656,30269440,21479424,10543104,4997120,76001280,2256896,85504000,
4,4096,256,1,1216512,2920448,27021312,4853760,3518464,4059136,2650112,925696,299008,204800,18046976,10166272,2314240,798720,3403776,22736896,4177920,1617920,17264640,532480,50536448,2437120,8531968,1662976,99991552,30027776,5058560,10240000,17416192,2326528,7917568,33230848,3506176,65048576,434176,1880064,14761984,2412544,123826176,212992,12550144,6197248,52359168,4878336,159744,11653120,19763200,7712768,14737408,700416,
4,8192,16,1,1228800,14663680,13262848,18325504,15310848,5193728,7135232,21184512,15777792,4562944,4587520,76259328,21602304,20496384,12697600,33529856,5750784,25624576,6733824,7495680,1024000,11665408,1187840,12083200,2326528,2375680,14139392,8200192,26697728,38387712,3923968,15704064,13942784,16080896,34955264,6782976,11354112,5373952,10354688,32841728,9371648,8962048,35536896,1040384,17924096,12607488,12197888,19816448,44867584,38363136,
4,8192,32,1,4767744,81920,17571840,18325504,6619136,11042816,7143424,35807232,851968,933888,11780096,368640,36225024,4620288,14090240,10133504,13975552,29450240,1720320,38043648,35627008,67788800,15089664,9150464,2531328,15638528,1908736,3579904,13156352,5300224,5218304,4562944,7962624,196608,20045824,139264,14704640,1286144,2408448,31965184,245760,10518528,10403840,368640,2752512,14868480,3997696,5963776,532480,1769472,
4,8192,64,1,9535488,81920,34447360,11542528,4349952,11575296,5251072,2039808,1155072,548864,15998976,180224,7856128,12066816,12681216,53387264,68198400,3268608,13402112,6307840,30334976,43433984,8970240,2883584,22413312,20701184,7012352,11935744,30777344,5300224,704512,15704064,7045120,9240576,22487040,26157056,688128,1589248,15458304,11730944,41222144,4276224,3514368,1212416,17719296,12836864,12189696,5922816,11526144,15425536,
4,8192,128,1,24379392,81920,1155072,14491648,5783552,68919296,761856,15056896,1163264,14925824,1654784,10567680,1523712,12066816,12689408,29933568,10960896,7045120,1974272,13402112,21176320,3620864,393216,10829824,2293760,57524224,2121728,5980160,3293184,5300224,1007616,6602752,3801088,34807808,22757376,5259264,21880832,4382720,15441920,8282112,19447808,614400,4644864,1998848,3735552,14868480,31580160,11190272,73728,7659520,
4,8192,256,1,90112,81920,2359296,86982656,1376256,11042816,18841600,51683328,194011136,7348224,3923968,84090880,1417216,8904704,23085056,925696,18939904,6586368,4669440,12533760,8069120,2834432,344064,6782976,2097152,25763840,14139392,4456448,4030464,5300224,1097728,55492608,14442496,18071552,22487040,46637056,5750784,5767168,21307392,32669696,9953280,7774208,7708672,14508032,548864,14581760,966656,5922816,933888,7659520,
4,16384,16,1,40534016,8470528,10174464,14614528,7159808,14090240,1294336,1654784,24756224,31752192,113721344,15302656,19546112,31670272,2179072,819200,6307840,606208,36192256,11059200,5586944,2752512,17580032,30326784,15826944,12615680,18235392,3702784,19972096,16842752,50642944,25133056,7290880,13500416,17793024,3309568,22233088,2719744,36405248,2719744,37519360,17776640,4407296,8568832,19709952,3375104,21479424,4390912,63356928,5079040,
4,16384,32,1,41238528,40894464,13860864,35717120,10125312,15482880,1261568,737280,1081344,4079616,3391488,14630912,26722304,1064960,52822016,12632064,8880128,606208,5996544,1081344,31129600,15450112,4915200,12566528,9158656,5357568,12271616,6176768,1425408,17973248,6717440,26329088,3620864,1835008,30900224,26001408,1261568,2719744,5996544,10010624,39600128,3489792,2818048,4243456,31834112,40796160,8437760,29425664,2686976,33341440,
4,16384,64,1,15859712,10829824,10158080,1130496,1933312,11845632,19611648,10059776,12156928,11337728,53264384,7995392,2949120,1032192,14237696,22740992,8863744,2244608,17203200,9633792,31113216,1392640,1753088,5816320,33734656,7897088,16990208,1703936,11780096,7274496,38387712,1310720,25051136,3293184,56066048,9224192,12320768,18989056,20676608,23363584,7667712,655360,4423680,1835008,27639808,13516800,31031296,25231360,29638656,19611648,
4,16384,128,1,16891904,3801088,12533760,884736,45481984,2801664,14991360,2392064,9699328,13860864,14598144,11386880,100646912,1081344,6963200,68861952,2703360,2260992,95305728,15482880,26738688,13991936,13369344,76234752,3670016,71532544,2473984,5275648,23969792,2260992,13352960,19595264,15695872,1163264,15335424,229376,8421376,10616832,7307264,12369920,9142272,39075840,67698688,8568832,1900544,1064960,1064960,44204032,44335104,28049408,
4,16384,256,1,43909120,737280,2015232,11796480,18022400,48136192,5537792,37486592,18972672,2506752,18153472,50102272,7045120,22953984,2981888,9224192,1769472,2260992,7372800,22642688,2572288,5881856,11796480,19300352,39157760,2752512,6242304,5259264,30179328,475136,24412160,1327104,11288576,6930432,3817472,13615104,3260416,5881856,31424512,12288000,13041664,3260416,16400384,12582912,1900544,31784960,1097728,3391488,67551232,11206656,
4,32768,16,1,13172736,98598912,15302656,12943360,1572864,7864320,6881280,19726336,14516224,65536,2031616,7045120,3244032,69238784,2523136,18055168,6225920,12484608,11960320,26640384,1114112,12582912,12419072,11370496,47644672,47349760,884736,9666560,4784128,15695872,10813440,53182464,4096000,5537792,3375104,24248320,11010048,11337728,655360,11304960,21364736,8454144,14811136,8224768,5308416,1835008,458752,1605632,688128,13533184,
4,32768,32,1,1343488,53215232,491520,2031616,3604480,1146880,1474560,48562176,7012352,52789248,2031616,24477696,14221312,2818048,25034752,26279936,2326528,20905984,48660480,2785280,5079040,35848192,2752512,1245184,1343488,49414144,950272,7438336,1933312,15663104,4423680,1900544,48300032,5767168,20119552,3047424,84115456,3801088,10289152,20480000,12845056,28672000,40239104,35815424,12320768,40796160,458752,2031616,12091392,24182784,
4,32768,64,1,41385984,4489216,9175040,7372800,28540928,4915200,25395200,6619136,6520832,11632640,3932160,17825792,21987328,7405568,16678912,3375104,6553600,13369344,20545536,49971200,5537792,2850816,23461888,39256064,14417920,11173888,917504,10616832,30081024,18841600,8159232,4292608,7307264,54427648,62193664,13828096,11370496,47120384,29491200,26738688,13828096,56295424,196608,10878976,131072,97943552,458752,34471936,14188544,753664,
4,32768,128,1,360448,64913408,49250304,14090240,2228224,1114112,8683520,86245376,9142272,11534336,3178496,21725184,13664256,23887872,2883584,22609920,1736704,13533184,7143424,62423040,5079040,6651904,36175872,39485440,14417920,16842752,884736,14352384,5636096,24444928,14090240,40075264,4161536,8028160,3407872,2883584,56229888,27361280,14974976,7274496,7798784,2326528,11730944,17629184,26771456,85622784,31162368,32079872,14188544,13533184,
4,32768,256,1,19464192,13172736,15204352,72122368,27885568,1409024,4980736,32440320,73236480,14221312,67076096,18186240,25067520,3342336,8257536,16515072,10420224,2588672,42926080,4947968,30670848,41320448,262144,1081344,15728640,9764864,6684672,8323072,1900544,32014336,19431424,15630336,26574848,27787264,27099136,15040512,12812288,31096832,13467648,3014656,13336576,25460736,524288,8355840,3178496,6029312,12681216,1867776,14188544,3473408,
5,2048,16,1,661504,2902016,15038464,5097472,9340928,183408640,2045952,1028096,30406656,13740032,5705728,19675136,1036288,52135936,4800512,5148672,5365760,33742848,16742400,25784320,53291008,8982528,15456256,61048832,9361408,1648640,44595200,39290880,6006784,24006656,253952,5136384,60293120,45174784,9768960,25337856,67620864,6291456,22177792,9607168,3035136,25182208,24944640,26298368,23726080,6797312,6549504,26796032,1173504,19363840,
5,2048,32,1,659456,174983168,17874944,1423360,17221632,13715456,19900416,1028096,4798464,30298112,111736832,94658560,27729920,17047552,4796416,122441728,17950720,11296768,7454720,36894720,10278912,33538048,40142848,51365888,2754560,1204224,5550080,98873344,17844224,23076864,34678784,12427264,1183744,72634368,9822208,6129664,20287488,9465856,22177792,28045312,31217664,452943872,34535424,24293376,8687616,51275776,9816064,26789888,38438912,19369984,
5,2048,64,1,567296,112932864,26755072,12226560,89843712,10309632,24829952,1028096,393216,2226176,37308416,11089920,16361472,7884800,4796416,31010816,19597312,11296768,4413440,36894720,53291008,8982528,8167424,11073536,9357312,26044416,15712256,57896960,33157120,77838336,6457344,33355776,2775040,2547712,197926912,7854080,86638592,77867008,397312,16685056,62363648,48898048,29337600,46606336,4659200,41762816,15742976,117610496,37775360,52492288,
5,2048,128,1,659456,4534272,26755072,2035712,81915904,1210368,24834048,26624,737280,30298112,23040000,6291456,7493632,10881024,13727744,9830400,23177216,1937408,14430208,23201792,10176512,56788992,56762368,274493440,9357312,34727936,3557376,1273856,12777472,3264512,78505984,23904256,205391872,38449152,289116160,120113152,129812480,40675328,130889728,69296128,8935424,2035712,27576320,16152576,841728,227694592,13701120,63191040,30529536,2852864,
5,2048,256,1,659456,4534272,26755072,2035712,81915904,1210368,24834048,26624,737280,30298112,23040000,6291456,7493632,10881024,13727744,9830400,23177216,1937408,14430208,23201792,10176512,56788992,56762368,274493440,9357312,34727936,3557376,1273856,12777472,3264512,78505984,23904256,205391872,38449152,289116160,120113152,129812480,40675328,130889728,69296128,8935424,2035712,27576320,16152576,841728,227694592,13701120,63191040,30529536,2852864,
5,4096,16,1,16891904,89657344,16801792,22908928,19214336,5951488,16920576,31072256,153788416,21336064,5529600,1843200,9576448,14737408,68739072,72183808,24698880,15073280,80842752,10416128,1925120,17965056,119205888,42541056,4734976,24186880,16961536,46567424,24121344,5828608,950272,3993600,11214848,77852672,6176768,29802496,7966720,17125376,3620864,1552384,20832256,11878400,10514432,5791744,13983744,68804608,28266496,7254016,2813952,14225408,
5,4096,32,1,26255360,5337088,133369856,15978496,5902336,4452352,45916160,21319680,4603904,23891968,5529600,5111808,51941376,8351744,83795968,196464640,9986048,4304896,38928384,30773248,1855488,9551872,31277056,26185728,10891264,24186880,10231808,2064384,11284480,2674688,3473408,49483776,50110464,19042304,8503296,29814784,11706368,28123136,4427776,6533120,41705472,4550656,10506240,4923392,49152,68800512,112082944,44187648,53366784,13160448,
5,4096,64,1,113561600,16809984,9461760,1282048,28463104,50728960,43323392,21315584,212992,60014592,13967360,23818240,41521152,103055360,17059840,129855488,9994240,4317184,38928384,28082176,1892352,80162816,34791424,26185728,59817984,60665856,72134656,124207104,12414976,5824512,3399680,49479680,4710400,765952,4263936,29810688,13058048,22396928,17100800,1183744,10506240,2347008,6561792,14725120,79028224,8364032,57249792,33501184,30875648,39702528,
5,4096,128,1,113557504,34103296,9461760,10194944,1056768,6758400,68755456,29700096,121217024,21331968,18419712,28069888,128581632,60657664,11476992,1826816,29036544,4313088,22208512,1105920,99434496,438272,39845888,663552,48930816,35901440,7995392,4820992,36651008,5939200,3399680,18546688,11218944,41234432,11038720,11513856,5476352,22396928,4358144,1253376,41959424,64016384,73969664,22405120,20434944,9732096,13688832,9240576,5914624,56705024,
5,4096,256,1,76922880,234799104,9461760,10194944,1044480,78704640,9465856,876544,62013440,416702464,18419712,26099712,519172096,33394688,83795968,12242944,4435968,45273088,177635328,166268928,1667072,141647872,9994240,33665024,11653120,36966400,7405568,20627456,1519616,5939200,368640,3518464,31281152,15765504,6770688,5574656,36876288,28119040,12091392,30531584,95588352,27901952,49111040,44613632,20439040,3485696,101523456,2592768,81457152,56709120,
5,8192,16,1,7536640,3760128,30490624,5406720,393216,24739840,5791744,9830400,13393920,5652480,108855296,50814976,450560,2924544,14671872,35282944,25460736,21258240,15458304,93429760,17391616,68231168,22413312,63774720,22372352,58351616,66289664,5332992,1908736,6602752,3407872,10297344,10387456,22069248,24870912,2654208,40345600,15564800,179707904,9732096,9347072,31137792,82518016,4571136,16498688,13975552,29999104,8683520,10362880,3719168,
5,8192,32,1,2031616,28172288,39403520,33308672,9920512,24739840,22888448,95870976,16408576,3301376,10027008,18046976,450560,73080832,17932288,557056,25485312,24256512,24379392,57696256,57540608,25968640,13328384,40894464,1613824,16162816,12386304,24002560,31367168,37003264,3874816,15769600,117768192,507904,25632768,2654208,138338304,14647296,108208128,9723904,23863296,13877248,4587520,2285568,84533248,46702592,9052160,1662976,4087808,4833280,
5,8192,64,1,24150016,16695296,17588224,45686784,32325632,10166272,16130048,70221824,3964928,25411584,99991552,18038784,434176,24371200,100286464,35274752,29163520,4775936,50503680,35782656,8290304,25960448,10002432,39337984,63266816,17948672,26796032,19177472,31383552,182501376,13451264,10985472,14278656,122470400,37363712,33980416,8404992,15532032,78094336,9740288,21946368,153526272,4972544,2572288,15310848,3579904,70729728,5496832,4071424,29540352,
5,8192,128,1,6234112,14860288,12550144,33308672,32325632,49840128,12369920,21004288,16408576,3522560,60620800,89128960,9601024,10633216,100286464,35282944,8486912,24272896,108011520,13344768,8323072,157540352,12632064,84418560,240214016,16162816,12468224,37273600,34365440,14082048,22126592,48807936,32751616,20365312,4636672,23961600,19914752,712704,89980928,9723904,11157504,153526272,499712,2408448,16564224,24240128,46858240,5439488,4087808,18833408,
5,8192,256,1,11493376,66576384,12460032,11403264,17448960,9682944,12369920,32309248,16400384,11264000,5398528,18292736,98336768,36544512,13115392,53870592,13721600,2318336,108265472,15376384,18022400,228229120,31596544,74809344,38428672,8388608,12533760,2834432,6725632,13041664,22142976,23429120,80846848,405225472,34988032,4890624,59260928,712704,3170304,327680,11149312,11468800,120676352,11780096,26001408,7299072,82231296,14499840,15548416,20447232,
5,16384,16,1,8093696,40697856,2195456,47808512,51331072,7569408,11747328,31883264,15253504,27508736,81788928,38666240,45088768,34553856,2326528,2899968,5619712,32784384,54263808,27361280,41615360,10665984,18087936,5701632,12337152,5963776,24510464,67452928,7520256,4440064,311296,360448,11960320,35848192,3391488,80543744,12484608,1703936,5177344,91389952,4030464,5963776,23576576,5603328,12435456,28721152,35028992,48791552,16580608,6209536,
5,16384,32,1,24461312,9797632,15351808,42434560,29769728,3293184,15417344,104579072,5357568,58900480,54247424,35225600,45072384,5275648,1900544,14893056,23117824,35930112,93519872,62652416,25542656,59211776,19857408,26558464,1458176,43417600,52068352,55017472,16023552,105906176,278528,360448,33816576,14680064,8192000,25542656,23937024,3555328,28311552,2162688,18219008,8306688,22282240,61423616,71434240,28704768,55705600,15548416,6029312,6193152,
5,16384,64,1,32768000,97746944,114688,212992,73105408,45531136,5570560,24068096,142032896,25690112,5668864,2195456,4374528,3686400,1835008,2883584,8011776,5521408,93519872,175702016,1622016,15745024,66060288,15532032,10977280,360448,21086208,67305472,20905984,14696448,14303232,83607552,6029312,1261568,3391488,15024128,29229056,37634048,28246016,1900544,81248256,40091648,21970944,35504128,114688,7979008,28295168,140820480,4849664,6193152,
5,16384,128,1,16056320,43139072,114688,24084480,8699904,13139968,15417344,24068096,4014080,55066624,6602752,27459584,76382208,14598144,28344320,2899968,47382528,14368768,11616256,65306624,20791296,170082304,10240000,13172736,25542656,294912,88637440,82755584,16334848,26755072,33210368,101105664,3129344,17104896,6799360,29081600,37912576,43057152,282181632,169639936,18251776,58523648,23363584,2080768,42942464,28704768,32473088,44711936,5160960,6193152,
5,16384,256,1,8863744,83197952,114688,89227264,38731776,13221888,50855936,179306496,14925824,60260352,63537152,27459584,67420160,129826816,34357248,43220992,1163264,165658624,1998848,24215552,2752512,196886528,3112960,7847936,34897920,6668288,40206336,126009344,104202240,341458944,32800768,208666624,16908288,9093120,7159808,11894784,160137216,10960896,47841280,43859968,175669248,105119744,23363584,24428544,240795648,31834112,32522240,130301952,121864192,5832704,
5,32768,16,1,44072960,3801088,5799936,86147072,27000832,7176192,10223616,26836992,8159232,19759104,27164672,3833856,133267456,117276672,40697856,32210944,47611904,5799936,7438336,14417920,3211264,7929856,11567104,19824640,52363264,29491200,59179008,1179648,11436032,8060928,5636096,55345152,56360960,1376256,24313856,58032128,40140800,3244032,21495808,17694720,49938432,40435712,6946816,13139968,12976128,14483456,5537792,11337728,64618496,18710528,
5,32768,32,1,120586240,3964928,21692416,30900224,41418752,59080704,10158080,53018624,8159232,20283392,27164672,8617984,10256384,19693568,917504,7274496,53542912,13139968,33980416,6422528,19824640,5308416,819200,17760256,39354368,47448064,36503552,6520832,9764864,13402112,92962816,69271552,24379392,29196288,14680064,57049088,46333952,5636096,12222464,13893632,49086464,27197440,6979584,13107200,44990464,8028160,6324224,26869760,20250624,154107904,
5,32768,64,1,10846208,205193216,21725184,21823488,21921792,55967744,38240256,25264128,8192000,32505856,10551296,8388608,42008576,18219008,78053376,31162368,53542912,18350080,128352256,44171264,6225920,38338560,96305152,13172736,34635776,51773440,67502080,3047424,10125312,1769472,5603328,91619328,45318144,17235968,14680064,27492352,46333952,85688320,40566784,60915712,3112960,35946496,16908288,94928896,56590336,22577152,45907968,79527936,2686976,106430464,
5,32768,128,1,10518528,71860224,2031616,116948992,41287680,38731776,102301696,69763072,5799936,38502400,27164672,66551808,45383680,19693568,10420224,66256896,63143936,18350080,9043968,44171264,6193152,15630336,96305152,14974976,97320960,18219008,100925440,81756160,15040512,12320768,3801088,46235648,27000832,17530880,21495808,133365760,1376256,143622144,5472256,40665088,49905664,68943872,214368256,51642368,211288064,24576000,45907968,51576832,2686976,149258240,
5,32768,256,1,109182976,48529408,35225600,1212416,50528256,109740032,134643712,69763072,14876672,3768320,5734400,5931008,89128960,524288,38993920,12877824,115703808,24346624,5963776,86605824,58720256,37519360,77332480,17694720,5406720,30834688,15368192,101122048,8716288,30441472,17432576,46268416,42893312,139984896,7536640,1015808,1376256,143622144,20905984,94601216,72417280,3112960,83263488,135823360,22183936,11304960,75563008,12288000,2686976,165347328,
6,2048,16,1,7587840,14518272,16384,5335040,4171776,353572864,117729280,196972544,13963264,126760960,72757248,164378624,152524800,4356096,42717184,4493312,104083456,80711680,135741440,191821824,31840256,120440832,16408576,25505792,63913984,26167296,3031040,34193408,7405568,61425664,10149888,22102016,18575360,61747200,43286528,120338432,201951232,28028928,29386752,5335040,132018176,126087168,16066560,11268096,58195968,61798400,305442816,24215552,24303616,86849536,
6,2048,32,1,66951168,113604608,4874240,140593152,4167680,61349888,194353152,18735104,278009856,126758912,1413120,96624640,31621120,80263168,42715136,36679680,236926976,62742528,97732608,44120064,5160960,15425536,84076544,96911360,106940416,78974976,29415424,39983104,5959680,2983936,36956160,78825472,18565120,15298560,45492224,48527360,82302976,111290368,2586624,5451776,7096320,81356800,36732928,8736768,51746816,257822720,37367808,13860864,5406720,30439424,
6,2048,64,1,56264704,22771712,16384,154494976,117807104,48318464,51335168,18735104,219523072,34961408,35731456,96624640,31617024,256395264,42717184,36679680,23973888,33497088,161617920,26451968,5310464,531537920,67180544,41631744,42620928,57362432,9678848,32937984,79554560,83425280,10151936,198506496,44480512,40321024,73820160,23011328,96972800,211492864,2240512,5152768,93550592,113174528,211255296,102057984,12718080,257814528,228636672,26634240,92907520,28487680,
6,2048,128,1,70477824,77942784,18432,2371584,117803008,11192320,138483712,18735104,127465472,252778496,65832960,253528064,138289152,28856320,42715136,16246784,7553024,293355520,161382400,90320896,21874688,14723072,400230400,139077632,27625472,52987904,57200640,47050752,565929984,137320448,9596928,839139328,44417024,133167104,286488576,17358848,6436864,7370752,102901760,105762816,320008192,576575488,211255296,70899712,20475904,281417728,124571648,13631488,54462464,9213952,
6,2048,256,1,70477824,77942784,18432,2371584,117803008,11192320,138483712,18735104,127465472,252778496,65832960,253528064,138289152,28856320,42715136,16246784,7553024,293355520,161382400,90320896,21874688,14723072,400230400,139077632,27625472,52987904,57200640,47050752,565929984,137320448,9596928,839139328,44417024,133167104,286488576,17358848,6436864,7370752,102901760,105762816,320008192,576575488,211255296,70899712,20475904,281417728,124571648,13631488,54462464,9213952,
6,4096,16,1,3940352,107376640,16064512,8642560,14282752,18370560,2781184,17465344,31105024,62595072,31821824,2904064,3420160,68694016,9453568,18771968,44994560,127729664,73433088,33636352,1126400,71024640,4706304,12439552,64684032,22249472,119476224,18862080,104960000,2625536,24702976,21987328,119312384,131239936,148545536,89026560,25341952,91959296,63094784,209244160,2244608,87040000,16195584,154783744,6877184,74031104,59269120,8781824,64282624,27037696,
6,4096,32,1,113512448,1937408,16056320,9138176,71131136,39047168,59953152,17465344,26058752,9134080,100642816,3321856,46727168,345169920,60497920,42545152,17719296,75177984,15953920,11689984,15310848,29798400,839680,142381056,45776896,202665984,121536512,23044096,104947712,2621440,24702976,123846656,35381248,21372928,53190656,23400448,155107328,67420160,43659264,10108928,135610368,25214976,279261184,51851264,330055680,13168640,59269120,3858432,17502208,9134080,
6,4096,64,1,113508352,16928768,16056320,8642560,10141696,39034880,64880640,2170880,26042368,223256576,100630528,2863104,46727168,56066048,810348544,1888256,5726208,35053568,17211392,33841152,94855168,21942272,843776,3448832,2867200,274518016,122171392,19468288,80662528,4997120,6995968,64503808,22413312,21372928,73871360,181944320,9523200,78188544,67543040,115044352,142336000,89452544,279261184,16859136,15839232,239435776,78725120,3858432,43270144,114974720,
6,4096,128,1,26427392,10145792,49119232,8642560,39952384,39034880,139190272,2166784,26058752,223260672,26787840,23851008,138338304,14589952,479440896,174510080,82894848,34816000,32288768,226172928,166612992,29794304,823296,35155968,45772800,4104192,312418304,10018816,104947712,4993024,101744640,64503808,8638464,21368832,73846784,7602176,215269376,65355776,38928384,115048448,3485696,89452544,74416128,15585280,179937280,19509248,28262400,37150720,22384640,4018176,
6,4096,256,1,84226048,1486848,19083264,8638464,83660800,61435904,110907392,2166784,81264640,18948096,310775808,23851008,10756096,11792384,8241152,978944,8609792,128364544,40984576,78544896,4898816,29794304,14745600,35147776,45772800,274518016,326553600,6893568,16633856,4993024,725811200,64503808,25964544,103518208,225464320,516096,215269376,103899136,38813696,413765632,29487104,45391872,157523968,14471168,93892608,53612544,143003648,10555392,224804864,68382720,
6,8192,16,1,18415616,41140224,39854080,114688,39215104,152035328,12443648,28385280,28950528,9854976,66707456,54157312,40869888,65830912,22536192,30130176,13778944,17350656,37683200,54452224,58793984,1933312,3268608,128393216,33447936,48971776,87728128,18145280,3735552,6438912,21585920,40992768,1556480,17571840,34652160,50937856,80453632,131072000,170328064,72974336,85590016,2908160,53837824,53231616,115294208,1548288,53338112,966656,5267456,2113536,
6,8192,32,1,44408832,184696832,61669376,289488896,9379840,58523648,14467072,104161280,28975104,59473920,66707456,13623296,61440000,307609600,22413312,4505600,13778944,145883136,6955008,1040384,58777600,16670720,3334144,143654912,57655296,92454912,22904832,80838656,42270720,30171136,98525184,40968192,1564672,181256192,47292416,36667392,25100288,10534912,41975808,152780800,5251072,42860544,76152832,15491072,7692288,112058368,82993152,27172864,118882304,2113536,
6,8192,64,1,11952128,42967040,39321600,147456,76406784,156950528,27598848,109264896,52346880,216924160,64430080,13615104,31498240,160841728,105529344,23044096,1638400,58548224,8323072,72245248,28459008,16678912,3268608,12615680,1056768,113541120,134406144,82108416,42123264,203595776,7938048,40976384,1564672,20357120,167755776,262242304,20373504,173711360,39297024,201793536,5267456,85696512,1081344,20832256,3710976,67305472,185606144,333742080,73719808,71262208,
6,8192,128,1,75530240,113180672,108281856,402653184,558219264,148979712,66232320,49012736,9846784,55566336,64430080,194232320,48824320,118652928,3416064,78602240,299409408,58548224,65363968,358367232,58941440,189988864,3325952,146661376,207192064,161710080,245194752,57810944,42164224,253206528,98525184,40976384,123494400,94380032,5734400,805617664,24002560,259858432,77619200,175341568,4907008,48873472,7462912,73744384,27860992,15974400,53321728,482205696,77406208,182427648,
6,8192,256,1,550207488,896155648,40747008,141934592,195600384,41541632,10600448,24403968,336879616,176267264,28123136,280109056,33611776,20250624,245153792,4407296,56279040,248766464,366493696,8691712,58966016,191807488,586711040,441024512,80306176,31383552,245194752,21372928,42123264,49872896,98598912,290258944,123494400,177717248,1202528256,805617664,26066944,34349056,78700544,20111360,560455680,42737664,7471104,138362880,59727872,440991744,185597952,25444352,118874112,13541376,
6,16384,16,1,9764864,7208960,412794880,38666240,50888704,6717440,72581120,24985600,104415232,6569984,39731200,21757952,241254400,49741824,47824896,85295104,17104896,41238528,137003008,14794752,64585728,17104896,200179712,70860800,88834048,38109184,28540928,3375104,13598720,44908544,114032640,46202880,42860544,4079616,118358016,66240512,19136512,13189120,154615808,104103936,23887872,22953984,11878400,78168064,42729472,6848512,23052288,61456384,80478208,102744064,
6,16384,32,1,176979968,66420736,31899648,67125248,238059520,11927552,121028608,17006592,134643712,4898816,11878400,103464960,232964096,64389120,47874048,2883584,15892480,15515648,36388864,30670848,38436864,54886400,7307264,70762496,1097728,38076416,48693248,223936512,62029824,44908544,57065472,46202880,54558720,4096000,343785472,23625728,248676352,23101440,20529152,293257216,23920640,22953984,69582848,261668864,133120000,86507520,23035904,55951360,62636032,23003136,
6,16384,64,1,57606144,2965504,26066944,110755840,238043136,6717440,65945600,25837568,41369600,4866048,224083968,21725184,58474496,85803008,92733440,44154880,271122432,34816000,29179904,30703616,8765440,14385152,89800704,105906176,1064960,38076416,44908544,122224640,13598720,44875776,67010560,42450944,77512704,108838912,18137088,74874880,35717120,51544064,10059776,115113984,5275648,160169984,36044800,457097216,85852160,207831040,75055104,22560768,68501504,160989184,
6,16384,128,1,176963584,1050558464,26083328,114278400,92536832,9781248,47677440,230326272,35700736,4866048,224051200,83722240,212271104,69599232,79020032,182075392,221118464,74612736,139673600,30687232,90898432,38420480,192937984,64339968,535658496,369819648,24723456,116031488,43728896,44875776,45072384,11845632,459440128,7159808,99401728,27541504,211697664,129564672,102924288,1130496,97026048,175308800,36028416,44662784,165216256,97910784,14417920,75350016,312426496,34783232,
6,16384,256,1,445497344,21741568,7307264,34816000,88915968,9519104,171769856,6422528,41385984,192626688,20561920,103464960,166133760,113311744,79020032,32079872,94650368,34308096,30982144,30670848,835584,108314624,2588672,65208320,169033728,38223872,38551552,122224640,68468736,5734400,3276800,10813440,22429696,20234240,443219968,113377280,35717120,165019648,52772864,66027520,87425024,339591168,41959424,33538048,143294464,87408640,270254080,74170368,232194048,132513792,
6,32768,16,1,335773696,68517888,53116928,79724544,1540096,77299712,94011392,17629184,622592,17334272,27623424,206503936,18120704,12353536,30113792,90472448,75628544,36241408,64913408,13631488,62062592,34996224,46268416,32112640,39682048,5439488,94535680,65601536,78544896,7307264,113082368,2424832,50790400,46858240,100532224,74940416,1736704,22315008,38141952,7340032,79822848,12648448,21299200,101580800,4947968,69238784,59965440,34308096,51216384,240320512,
6,32768,32,1,183009280,68583424,26443776,79724544,1572864,98664448,25985024,72581120,557056,44269568,46825472,28114944,28803072,64552960,60719104,61865984,10125312,89489408,50167808,85262336,62029824,35061760,46202880,539590656,130220032,73826304,27459584,302022656,63602688,133169152,159350784,6094848,17465344,34242560,199032832,68288512,1703936,60719104,123371520,7307264,76546048,46956544,81494016,32505856,56459264,59965440,17137664,13533184,34799616,92504064,
6,32768,64,1,209813504,47874048,50364416,79757312,1572864,21037056,158466048,86081536,666894336,31162368,87392256,75956224,3833856,73269248,2195456,61833216,75956224,386367488,54132736,215089152,36438016,108396544,46202880,208699392,130187264,208240640,19693568,194609152,2621440,30769152,95059968,25657344,23658496,12976128,6488064,48070656,1736704,9961472,195330048,7307264,11304960,105250816,36241408,9568256,88440832,60227584,54132736,104955904,135004160,5799936,
6,32768,128,1,105185280,61046784,90537984,9371648,288423936,125435904,167149568,600801280,15663104,13533184,87359488,184942592,140902400,70713344,8617984,90472448,26443776,247332864,256212992,30212096,213417984,23986176,2031616,8421376,130121728,123076608,94470144,182681600,60096512,20185088,11927552,101613568,75137024,126812160,68550656,87556096,47939584,60719104,195330048,41189376,66322432,135659520,5832704,59277312,18743296,142999552,223215616,118685696,28934144,66125824,
6,32768,256,1,67502080,150634496,57344000,68419584,288423936,438206464,84639744,27787264,176685056,91914240,20348928,56688640,12255232,44498944,285900800,74055680,75956224,533757952,256212992,5668864,213254144,70516736,107610112,14876672,133627904,78020608,94502912,14647296,107839488,30736384,258015232,8749056,316047360,126812160,227737600,124485632,16089088,24346624,192184320,41123840,81952768,38109184,171868160,86376448,17924096,143032320,92667904,406978560,112623616,10485760,
7,2048,16,1,154931200,147025920,245235712,7313408,103262208,51363840,61716480,19318784,213035008,129296384,117837824,49838080,39481344,91772928,110643200,12552192,4290560,105531392,112480256,150581248,34027520,376832,30169088,25739264,215513088,19263488,254511104,77154304,48834560,86554624,75012096,8241152,31557632,83959808,72275968,1501184,26486784,119197696,40951808,62203904,251033600,84494336,88903680,57260032,16834560,146262016,17555456,26847232,111777792,41179136,
7,2048,32,1,285861888,406153216,43757568,156452864,308494336,26609664,53348352,1064960,372236288,6959104,117839872,49364992,17467392,8046592,110643200,354203648,4450304,165369856,98566144,150448128,395284480,533313536,167960576,103999488,93456384,19259392,609921024,223678464,172165120,163295232,7208960,8237056,265811968,40022016,73369600,237676544,5799936,119195648,37718016,64442368,54943744,1204224,26929152,258099200,4216832,54587392,295735296,38465536,11423744,26853376,
7,2048,64,1,333484032,74168320,43759616,65875968,304578560,26109952,361842688,17723392,257093632,275769344,93616128,31526912,86745088,169764864,110630912,387237888,68675584,90722304,191068160,160528384,46235648,1636681728,226183168,135956480,295622656,19259392,994785280,159946752,672641024,6598656,74995712,8241152,727087104,194299904,763904,74819584,26490880,139988992,40949760,64432128,214370304,85327872,41420800,419319808,32059392,54585344,295735296,85282816,913016832,136595456,
7,2048,128,1,123676672,422010880,43757568,27230208,2269085696,949311488,81223680,17256448,69421056,215762944,91920384,493836288,118089728,285511680,47384576,386637824,68638720,134815744,51113984,241928192,654508032,1432737792,68329472,135946240,38232064,760451072,117460992,280772608,395827200,6811648,34535424,228714496,66799616,76793856,57401344,171616256,26484736,58513408,37715968,103913472,214372352,85329920,230361088,24080384,89221120,1086537728,295735296,326125568,229736448,930295808,
7,2048,256,1,123676672,422010880,43757568,27230208,2269085696,949311488,81223680,17256448,69421056,215762944,91920384,493836288,118089728,285511680,47384576,386637824,68638720,134815744,51113984,241928192,654508032,1432737792,68329472,135946240,38232064,760451072,117460992,280772608,395827200,6811648,34535424,228714496,66799616,76793856,57401344,171616256,26484736,58513408,37715968,103913472,214372352,85329920,230361088,24080384,89221120,1086537728,295735296,326125568,229736448,930295808,
7,4096,16,1,4608000,21860352,58773504,19595264,33726464,31248384,99889152,289345536,51818496,16678912,19861504,150585344,153923584,53166080,250281984,82169856,100126720,81022976,21536768,16023552,177246208,44199936,305987584,14245888,12439552,126357504,19865600,381669376,52379648,25780224,193073152,127926272,4771840,80089088,72450048,20529152,11255808,261656576,144781312,35725312,30208000,381284352,34340864,10047488,270094336,51613696,72032256,7409664,49557504,72392704,
7,4096,32,1,199598080,241934336,67870720,19615744,52686848,32030720,99876864,1216512,43249664,83206144,54427648,267476992,153903104,53170176,47480832,82497536,345133056,280694784,107106304,415408128,345812992,73187328,245735424,85778432,74010624,7303168,19865600,47886336,88756224,9060352,164868096,21340160,37732352,64278528,159907840,20516864,151138304,859893760,79826944,169205760,21262336,381259776,69414912,27459584,34643968,179118080,66899968,502800384,122290176,48852992,
7,4096,64,1,28356608,17002496,179347456,19607552,33742848,38998016,99876864,93696000,497696768,44421120,356352000,192458752,153911296,229711872,2867200,11509760,304951296,280686592,48271360,647168,173510656,57888768,360767488,207147008,28200960,40648704,5136384,221773824,328945664,319700992,208576512,127922176,418897920,13336576,146710528,20508672,897503232,62103552,319930368,32976896,21250048,248000512,3207168,27463680,492920832,459448320,68546560,137912320,51560448,40558592,
7,4096,128,1,515346432,60612608,745844736,19591168,339443712,26980352,337608704,2519040,265887744,206913536,71249920,71602176,245936128,159047680,524288,11505664,938950656,220758016,48275456,204144640,478085120,117334016,16674816,11689984,69775360,21708800,5160960,179232768,73244672,446238720,208580608,91267072,133169152,63983616,1871712256,20508672,1037287424,61952000,353148928,174702592,21250048,429690880,356765696,1656385536,50864128,42053632,403824640,133742592,424894464,40935424,
7,4096,256,1,67407872,177831936,73420800,25182208,1752477696,582828032,374251520,289726464,79982592,142589952,465141760,504885248,1192251392,81952768,231698432,435204096,938950656,280682496,340774912,241774592,478064640,40742912,50339840,37937152,291078144,652595200,329441280,190697472,879325184,1672753152,100274176,114143232,133787648,1146945536,26996736,33755136,399015936,84439040,74383360,47554560,21241856,31371264,1753870336,453058560,1067171840,42381312,216936448,1683464192,84803584,113328128,
7,8192,16,1,317440000,172662784,1482752,129515520,16146432,146743296,75849728,16089088,27901952,19619840,81469440,187670528,5029888,166084608,246046720,167305216,124370944,20807680,68001792,4030464,176668672,73662464,167469056,56614912,433602560,8298496,75300864,81166336,53657600,65585152,30908416,40615936,28508160,48988160,68739072,32284672,47931392,195551232,200024064,325918720,83255296,22880256,215810048,102834176,107454464,48193536,15015936,103636992,69222400,3678208,
7,8192,32,1,42098688,57999360,86237184,37068800,16113664,10600448,56254464,227287040,27860992,19677184,17891328,97681408,349888512,230653952,810672128,447963136,74752000,735264768,68665344,30793728,60964864,101629952,283361280,22470656,150093824,5914624,105439232,315613184,53657600,279076864,57933824,125935616,255614976,30466048,181346304,416358400,47939584,195551232,358998016,103653376,217391104,333348864,395354112,188547072,107454464,933888,51126272,103456768,175513600,3334144,
7,8192,64,1,171819008,172695552,86245376,36151296,388005888,99164160,108634112,115089408,365740032,125444096,127901696,270557184,115335168,230555648,454459392,392044544,124379136,267583488,68321280,29827072,176242688,10829824,2220032,22470656,361242624,6135808,50937856,81158144,53673984,65593344,57925632,125976576,28508160,141918208,181346304,348594176,47923200,423067648,308961280,325853184,217366528,681369600,91979776,188547072,45932544,189931520,52772864,103456768,175505408,3440640,
7,8192,128,1,440672256,337616896,86245376,31834112,270401536,103923712,724180992,112828416,562954240,482762752,126484480,245915648,349806592,242180096,53395456,574488576,73392128,264781824,234659840,29859840,479256576,10813440,130555904,22487040,433479680,3932160,153051136,81141760,207568896,65585152,57933824,6225920,28499968,237658112,181346304,847642624,129376256,696295424,306601984,325853184,70926336,52215808,530825216,269795328,45932544,189939712,49569792,103448576,194568192,75972608,
7,8192,256,1,68681728,22151168,4744421376,204881920,442793984,99336192,28360704,23355392,828514304,38764544,126976000,32194560,63545344,1167319040,190840832,140361728,56246272,67289088,69804032,2162450432,77447168,74932224,2220032,55869440,125935616,271327232,50921472,706232320,322183168,65585152,57933824,105766912,225845248,45809664,59416576,2232811520,412082176,7200768,107708416,1137311744,217366528,49709056,395345920,95821824,612204544,189939712,86925312,103399424,194568192,90054656,
7,16384,16,1,646873088,72499200,82280448,202555392,110641152,239091712,80674816,324927488,70205440,41091072,183042048,22659072,352616448,31850496,107053056,167051264,64847872,428048384,35536896,54378496,64421888,57950208,261783552,114769920,92389376,45727744,256245760,14434304,150781952,135233536,41680896,69140480,534659072,191758336,116391936,4898816,8388608,105168896,52396032,114556928,44253184,30064640,17711104,32161792,184565760,75317248,134725632,56688640,33161216,11059200,
7,16384,32,1,427819008,68845568,92602368,109854720,634912768,228982784,80674816,326090752,431243264,31227904,73629696,3080192,291012608,79626240,9601024,76677120,64847872,297730048,15777792,20299776,161038336,373325824,81641472,58916864,302743552,36225024,41402368,95043584,334888960,37453824,201293824,125550592,219283456,201752576,16564224,96780288,550469632,19513344,50511872,183451648,79609856,42663936,134496256,32194560,34340864,109854720,191430656,56672256,135708672,880721920,
7,16384,64,1,670498816,4718592,610779136,1018609664,90963968,809271296,238764032,373981184,217989120,357187584,52002816,52903936,356106240,81182720,107036672,167034880,61603840,93765632,15777792,178028544,151945216,10125312,36028416,529383424,439959552,64798720,993427456,451788800,8126464,39763968,22626304,119095296,219283456,278593536,16596992,123846656,19447808,47153152,212844544,18120704,24526848,86376448,52068352,32161792,207355904,216154112,72581120,56672256,124600320,383582208,
