processors,solution
1,27
2,27
3,27
4,28
5,28
6,28
7,28
8,28
9,28
10,28
11,28
12,28
13,28
14,28
15,28
16,28
17,28
18,28
19,28
20,28
21,28
22,28
23,28
24,28
25,28
26,28
27,28
28,28
29,28
30,28
31,28
32,28
33,28
34,29
35,29
36,29
37,29
38,29
39,29
40,29
41,29
42,29
43,29
44,29
45,29
46,29
47,29
48,29
49,29
50,29
51,29
52,29
53,29
54,29
55,29
56,29
57,29
58,29
59,29
60,29
